unofficial/iverilog_testing/programs/output/ram_access/ram_access.vcd
$date
	Fri Dec 18 19:21:46 2020
$end
$version
	Icarus Verilog
$end
$timescale
	1s
$end
$scope module mips_cpu_bus_tb_delay1 $end
$var wire 32 ! writedata [31:0] $end
$var wire 1 " write $end
$var wire 1 # waitrequest $end
$var wire 32 $ test [31:0] $end
$var wire 32 % register_v0 [31:0] $end
$var wire 32 & readdata [31:0] $end
$var wire 1 ' read $end
$var wire 4 ( byteenable [3:0] $end
$var wire 32 ) address [31:0] $end
$var wire 1 * active $end
$var reg 1 + clk $end
$var reg 1 , rst $end
$scope module cpuInst $end
$var wire 4 - byteenable [3:0] $end
$var wire 1 + clk $end
$var wire 32 . data_address [31:0] $end
$var wire 1 / program_counter_src_decode $end
$var wire 1 , reset $end
$var wire 32 0 writedata [31:0] $end
$var wire 5 1 write_register_writeback [4:0] $end
$var wire 5 2 write_register_memory [4:0] $end
$var wire 5 3 write_register_execute [4:0] $end
$var wire 32 4 write_data_memory [31:0] $end
$var wire 32 5 write_data_execute [31:0] $end
$var wire 1 # waitrequest $end
$var wire 1 6 using_HI_LO_execute $end
$var wire 1 7 using_HI_LO_decode $end
$var wire 1 8 stall_fetch $end
$var wire 1 9 stall_decode $end
$var wire 32 : src_B_execute [31:0] $end
$var wire 32 ; src_B_decode [31:0] $end
$var wire 32 < src_B_ALU_execute [31:0] $end
$var wire 32 = src_A_execute [31:0] $end
$var wire 32 > src_A_decode [31:0] $end
$var wire 32 ? src_A_ALU_writeback [31:0] $end
$var wire 32 @ src_A_ALU_memory [31:0] $end
$var wire 32 A src_A_ALU_execute [31:0] $end
$var wire 32 B sign_imm_execute [31:0] $end
$var wire 32 C sign_imm_decode [31:0] $end
$var wire 32 D shifter_output_decode [31:0] $end
$var wire 32 E result_writeback [31:0] $end
$var wire 1 F register_write_writeback $end
$var wire 1 G register_write_memory $end
$var wire 1 H register_write_execute $end
$var wire 1 I register_write_decode $end
$var wire 32 J register_v0_reg_file [31:0] $end
$var wire 32 K register_file_output_LO_decode [31:0] $end
$var wire 32 L register_file_output_HI_decode [31:0] $end
$var wire 32 M register_file_output_B_decode [31:0] $end
$var wire 32 N register_file_output_A_decode [31:0] $end
$var wire 2 O register_destination_execute [1:0] $end
$var wire 2 P register_destination_decode [1:0] $end
$var wire 32 Q readdata [31:0] $end
$var wire 32 R read_data_writeback_filtered [31:0] $end
$var wire 32 S read_data_writeback [31:0] $end
$var wire 5 T read_address_2 [4:0] $end
$var wire 5 U read_address_1 [4:0] $end
$var wire 32 V program_counter_prime [31:0] $end
$var wire 32 W program_counter_plus_four_fetch [31:0] $end
$var wire 32 X program_counter_plus_four_execute [31:0] $end
$var wire 32 Y program_counter_plus_four_decode [31:0] $end
$var wire 32 Z program_counter_plus_eight_execute [31:0] $end
$var wire 32 [ program_counter_mux_1_out [31:0] $end
$var wire 1 \ program_counter_multiplexer_jump_memory $end
$var wire 1 ] program_counter_multiplexer_jump_execute $end
$var wire 1 ^ program_counter_multiplexer_jump_decode $end
$var wire 32 _ program_counter_branch_decode [31:0] $end
$var wire 6 ` op_writeback [5:0] $end
$var wire 6 a op_memory [5:0] $end
$var wire 6 b op_execute [5:0] $end
$var wire 6 c op [5:0] $end
$var wire 1 d no_sign_extend $end
$var wire 1 e memory_write_memory $end
$var wire 1 f memory_write_execute $end
$var wire 1 g memory_write_decode $end
$var wire 1 h memory_to_register_writeback $end
$var wire 1 i memory_to_register_memory $end
$var wire 1 j memory_to_register_execute $end
$var wire 1 k memory_to_register_decode $end
$var wire 32 l j_program_counter_memory [31:0] $end
$var wire 32 m j_program_counter_execute [31:0] $end
$var wire 32 n j_program_counter_decode [31:0] $end
$var wire 26 o j_offset [25:0] $end
$var wire 1 p j_instruction_memory $end
$var wire 1 q j_instruction_execute $end
$var wire 1 r j_instruction_decode $end
$var wire 32 s instruction_decode [31:0] $end
$var wire 32 t instr_address [31:0] $end
$var wire 16 u immediate [15:0] $end
$var wire 3 v forward_B_execute [2:0] $end
$var wire 1 w forward_B_decode $end
$var wire 3 x forward_A_execute [2:0] $end
$var wire 1 y forward_A_decode $end
$var wire 1 z flush_execute_register $end
$var wire 1 { equal_decode $end
$var wire 32 | comparator_2 [31:0] $end
$var wire 32 } comparator_1 [31:0] $end
$var wire 4 ~ byteenable_writeback [3:0] $end
$var wire 1 !" branch_decode $end
$var wire 1 * active $end
$var wire 5 "" Rt_execute [4:0] $end
$var wire 5 #" Rt_decode [4:0] $end
$var wire 5 $" Rs_execute [4:0] $end
$var wire 5 %" Rs_decode [4:0] $end
$var wire 5 &" Rd_execute [4:0] $end
$var wire 5 '" Rd_decode [4:0] $end
$var wire 1 (" LO_register_write_writeback $end
$var wire 1 )" LO_register_write_memory $end
$var wire 1 *" LO_register_write_execute $end
$var wire 1 +" LO_register_write_decode $end
$var wire 1 ," HI_register_write_writeback $end
$var wire 1 -" HI_register_write_memory $end
$var wire 1 ." HI_register_write_execute $end
$var wire 1 /" HI_register_write_decode $end
$var wire 1 0" HALT_writeback $end
$var wire 1 1" HALT_memory $end
$var wire 1 2" HALT_fetch $end
$var wire 1 3" HALT_execute $end
$var wire 1 4" HALT_decode $end
$var wire 2 5" ALU_src_B_execute [1:0] $end
$var wire 2 6" ALU_src_B_decode [1:0] $end
$var wire 32 7" ALU_output_writeback [31:0] $end
$var wire 32 8" ALU_output_memory_resolved [31:0] $end
$var wire 32 9" ALU_output_memory [31:0] $end
$var wire 32 :" ALU_output_execute [31:0] $end
$var wire 6 ;" ALU_function_execute [5:0] $end
$var wire 6 <" ALU_function_decode [5:0] $end
$var wire 32 =" ALU_LO_output_writeback [31:0] $end
$var wire 32 >" ALU_LO_output_memory [31:0] $end
$var wire 32 ?" ALU_LO_output_execute [31:0] $end
$var wire 32 @" ALU_HI_output_writeback [31:0] $end
$var wire 32 A" ALU_HI_output_memory [31:0] $end
$var wire 32 B" ALU_HI_output_execute [31:0] $end
$var reg 32 C" address [31:0] $end
$var reg 4 D" byteenable_memory [3:0] $end
$var reg 2 E" fetch_state [1:0] $end
$var reg 32 F" instruction_fetch [31:0] $end
$var reg 1 G" internal_clk $end
$var reg 1 ' read $end
$var reg 32 H" read_data_memory [31:0] $end
$var reg 32 I" register_v0 [31:0] $end
$var reg 1 " write $end
$scope module adder_decode $end
$var wire 32 J" a [31:0] $end
$var wire 32 K" z [31:0] $end
$var wire 32 L" b [31:0] $end
$upscope $end
$scope module alu $end
$var wire 64 M" sign_extened_input_2 [63:0] $end
$var wire 64 N" sign_extened_input_1 [63:0] $end
$var wire 5 O" shift_amount [4:0] $end
$var wire 32 P" input_2 [31:0] $end
$var wire 32 Q" input_1 [31:0] $end
$var wire 64 R" extended_input_2 [63:0] $end
$var wire 64 S" extended_input_1 [63:0] $end
$var wire 6 T" ALU_operation [5:0] $end
$var reg 64 U" ALU_HI_LO_output [63:0] $end
$var reg 32 V" ALU_HI_output [31:0] $end
$var reg 32 W" ALU_LO_output [31:0] $end
$var reg 32 X" ALU_output [31:0] $end
$upscope $end
$scope module alu_input_mux $end
$var wire 32 Y" sign_imm_execute [31:0] $end
$var wire 32 Z" result_writeback [31:0] $end
$var wire 32 [" read_data_2_reg [31:0] $end
$var wire 32 \" read_data_1_reg [31:0] $end
$var wire 32 ]" program_counter_plus_eight_execute [31:0] $end
$var wire 3 ^" forward_two_execute [2:0] $end
$var wire 3 _" forward_one_execute [2:0] $end
$var wire 32 `" LO_result_writeback [31:0] $end
$var wire 32 a" HI_result_writeback [31:0] $end
$var wire 2 b" ALU_src_B_execute [1:0] $end
$var wire 32 c" ALU_output_memory [31:0] $end
$var wire 32 d" ALU_LO_output_memory [31:0] $end
$var wire 32 e" ALU_HI_output_memory [31:0] $end
$var reg 32 f" src_A_ALU_execute [31:0] $end
$var reg 32 g" src_B_ALU_execute [31:0] $end
$var reg 32 h" src_mux_input_0 [31:0] $end
$var reg 32 i" write_data_execute [31:0] $end
$upscope $end
$scope module control_unit $end
$var wire 32 j" instruction [31:0] $end
$var reg 6 k" ALU_function [5:0] $end
$var reg 2 l" ALU_src_B [1:0] $end
$var reg 1 /" HI_register_write $end
$var reg 1 +" LO_register_write $end
$var reg 1 !" branch $end
$var reg 6 m" funct [5:0] $end
$var reg 1 r j_instruction $end
$var reg 1 k memory_to_register $end
$var reg 1 g memory_write $end
$var reg 1 d no_sign_extend $end
$var reg 6 n" op [5:0] $end
$var reg 1 ^ program_counter_multiplexer_jump $end
$var reg 2 o" register_destination [1:0] $end
$var reg 1 I register_write $end
$var reg 5 p" rt [4:0] $end
$var reg 1 7 using_HI_LO $end
$upscope $end
$scope module decode_execute_register $end
$var wire 6 q" ALU_function_decode [5:0] $end
$var wire 2 r" ALU_src_B_decode [1:0] $end
$var wire 1 /" HI_register_write_decode $end
$var wire 1 +" LO_register_write_decode $end
$var wire 5 s" Rd_decode [4:0] $end
$var wire 5 t" Rs_decode [4:0] $end
$var wire 5 u" Rt_decode [4:0] $end
$var wire 1 G" clk $end
$var wire 1 r j_instruction_decode $end
$var wire 32 v" j_program_counter_decode [31:0] $end
$var wire 1 k memory_to_register_decode $end
$var wire 1 g memory_write_decode $end
$var wire 6 w" op_decode [5:0] $end
$var wire 1 ^ program_counter_multiplexer_jump_decode $end
$var wire 2 x" register_destination_decode [1:0] $end
$var wire 1 I register_write_decode $end
$var wire 1 , reset $end
$var wire 32 y" sign_imm_decode [31:0] $end
$var wire 32 z" src_A_decode [31:0] $end
$var wire 32 {" src_B_decode [31:0] $end
$var wire 1 7 using_HI_LO_decode $end
$var wire 32 |" program_counter_plus_four_decode [31:0] $end
$var wire 1 z clear $end
$var wire 1 4" HALT_decode $end
$var reg 6 }" ALU_function_execute [5:0] $end
$var reg 2 ~" ALU_src_B_execute [1:0] $end
$var reg 1 3" HALT_execute $end
$var reg 1 ." HI_register_write_execute $end
$var reg 1 *" LO_register_write_execute $end
$var reg 5 !# Rd_execute [4:0] $end
$var reg 5 "# Rs_execute [4:0] $end
$var reg 5 ## Rt_execute [4:0] $end
$var reg 1 q j_instruction_execute $end
$var reg 32 $# j_program_counter_execute [31:0] $end
$var reg 1 j memory_to_register_execute $end
$var reg 1 f memory_write_execute $end
$var reg 6 %# op_execute [5:0] $end
$var reg 1 ] program_counter_multiplexer_jump_execute $end
$var reg 32 &# program_counter_plus_four_execute [31:0] $end
$var reg 2 '# register_destination_execute [1:0] $end
$var reg 1 H register_write_execute $end
$var reg 32 (# sign_imm_execute [31:0] $end
$var reg 32 )# src_A_execute [31:0] $end
$var reg 32 *# src_B_execute [31:0] $end
$var reg 1 6 using_HI_LO_execute $end
$upscope $end
$scope module execute_memory_register $end
$var wire 32 +# ALU_HI_output_execute [31:0] $end
$var wire 32 ,# ALU_LO_output_execute [31:0] $end
$var wire 32 -# ALU_output_execute [31:0] $end
$var wire 1 3" HALT_execute $end
$var wire 1 ." HI_register_write_execute $end
$var wire 1 *" LO_register_write_execute $end
$var wire 1 G" clk $end
$var wire 1 q j_instruction_execute $end
$var wire 32 .# j_program_counter_execute [31:0] $end
$var wire 1 j memory_to_register_execute $end
$var wire 1 f memory_write_execute $end
$var wire 6 /# op_execute [5:0] $end
$var wire 1 ] program_counter_multiplexer_jump_execute $end
$var wire 1 H register_write_execute $end
$var wire 1 , reset $end
$var wire 32 0# src_A_ALU_execute [31:0] $end
$var wire 32 1# write_data_execute [31:0] $end
$var wire 5 2# write_register_execute [4:0] $end
$var reg 32 3# ALU_HI_output_memory [31:0] $end
$var reg 32 4# ALU_LO_output_memory [31:0] $end
$var reg 32 5# ALU_output_memory [31:0] $end
$var reg 1 1" HALT_memory $end
$var reg 1 -" HI_register_write_memory $end
$var reg 1 )" LO_register_write_memory $end
$var reg 1 p j_instruction_memory $end
$var reg 32 6# j_program_counter_memory [31:0] $end
$var reg 1 i memory_to_register_memory $end
$var reg 1 e memory_write_memory $end
$var reg 6 7# op_memory [5:0] $end
$var reg 1 \ program_counter_multiplexer_jump_memory $end
$var reg 1 G register_write_memory $end
$var reg 32 8# src_A_ALU_memory [31:0] $end
$var reg 32 9# write_data_memory [31:0] $end
$var reg 5 :# write_register_memory [4:0] $end
$upscope $end
$scope module fetch_decode_register $end
$var wire 1 G" clk $end
$var wire 32 ;# instruction_fetch [31:0] $end
$var wire 1 , reset $end
$var wire 32 <# program_counter_plus_four_fetch [31:0] $end
$var wire 1 9 enable $end
$var wire 1 2" HALT_fetch $end
$var reg 1 4" HALT_decode $end
$var reg 32 =# instruction_decode [31:0] $end
$var reg 32 ># program_counter_plus_four_decode [31:0] $end
$upscope $end
$scope module hazard_unit $end
$var wire 1 -" HI_register_write_memory $end
$var wire 1 )" LO_register_write_memory $end
$var wire 5 ?# Rs_decode [4:0] $end
$var wire 5 @# Rs_execute [4:0] $end
$var wire 5 A# Rt_decode [4:0] $end
$var wire 5 B# Rt_execute [4:0] $end
$var wire 1 !" branch_decode $end
$var wire 1 j memory_to_register_execute $end
$var wire 1 i memory_to_register_memory $end
$var wire 1 ] program_counter_multiplexer_jump_execute $end
$var wire 1 H register_write_execute $end
$var wire 1 G register_write_memory $end
$var wire 1 6 using_HI_LO_execute $end
$var wire 5 C# write_register_memory [4:0] $end
$var wire 5 D# write_register_writeback [4:0] $end
$var wire 5 E# write_register_execute [4:0] $end
$var wire 1 F register_write_writeback $end
$var wire 1 (" LO_register_write_writeback $end
$var wire 1 ," HI_register_write_writeback $end
$var reg 1 F# branchstall $end
$var reg 1 z flush_execute_register $end
$var reg 1 y forward_register_file_output_A_decode $end
$var reg 3 G# forward_register_file_output_A_execute [2:0] $end
$var reg 1 w forward_register_file_output_B_decode $end
$var reg 3 H# forward_register_file_output_B_execute [2:0] $end
$var reg 1 I# lwstall $end
$var reg 1 9 stall_decode $end
$var reg 1 8 stall_fetch $end
$upscope $end
$scope module memory_filter $end
$var wire 1 , reset $end
$var wire 32 J# src_A_writeback [31:0] $end
$var wire 32 K# read_data_writeback [31:0] $end
$var wire 6 L# op_writeback [5:0] $end
$var wire 4 M# byteenable_writeback [3:0] $end
$var reg 32 N# filtered_output_writeback [31:0] $end
$var reg 32 O# temp_filtered [31:0] $end
$upscope $end
$scope module memory_writeback_register $end
$var wire 32 P# ALU_HI_output_memory [31:0] $end
$var wire 32 Q# ALU_LO_output_memory [31:0] $end
$var wire 32 R# ALU_output_memory [31:0] $end
$var wire 1 1" HALT_memory $end
$var wire 1 -" HI_register_write_memory $end
$var wire 1 )" LO_register_write_memory $end
$var wire 4 S# byteenable_memory [3:0] $end
$var wire 1 G" clk $end
$var wire 1 i memory_to_register_memory $end
$var wire 6 T# op_memory [5:0] $end
$var wire 32 U# read_data_memory [31:0] $end
$var wire 1 G register_write_memory $end
$var wire 1 , reset $end
$var wire 32 V# src_A_ALU_memory [31:0] $end
$var wire 5 W# write_register_memory [4:0] $end
$var reg 32 X# ALU_HI_output_writeback [31:0] $end
$var reg 32 Y# ALU_LO_output_writeback [31:0] $end
$var reg 32 Z# ALU_output_writeback [31:0] $end
$var reg 1 0" HALT_writeback $end
$var reg 1 ," HI_register_write_writeback $end
$var reg 1 (" LO_register_write_writeback $end
$var reg 4 [# byteenable_writeback [3:0] $end
$var reg 1 h memory_to_register_writeback $end
$var reg 6 \# op_writeback [5:0] $end
$var reg 32 ]# read_data_writeback [31:0] $end
$var reg 1 F register_write_writeback $end
$var reg 32 ^# src_A_ALU_writeback [31:0] $end
$var reg 5 _# write_register_writeback [4:0] $end
$upscope $end
$scope module pc $end
$var wire 1 G" clk $end
$var wire 1 8 enable $end
$var wire 1 , reset $end
$var wire 32 `# address_input [31:0] $end
$var reg 32 a# address_output [31:0] $end
$var reg 1 2" halt $end
$upscope $end
$scope module plus_four_adder $end
$var wire 32 b# a [31:0] $end
$var wire 32 c# b [31:0] $end
$var wire 32 d# z [31:0] $end
$upscope $end
$scope module plus_four_adder_execute $end
$var wire 32 e# a [31:0] $end
$var wire 32 f# b [31:0] $end
$var wire 32 g# z [31:0] $end
$upscope $end
$scope module program_counter_multiplexer $end
$var wire 1 / control $end
$var wire 32 h# input_0 [31:0] $end
$var wire 32 i# input_1 [31:0] $end
$var wire 32 j# resolved [31:0] $end
$upscope $end
$scope module program_counter_multiplexer_two $end
$var wire 1 \ control $end
$var wire 32 k# input_0 [31:0] $end
$var wire 32 l# input_1 [31:0] $end
$var wire 32 m# resolved [31:0] $end
$upscope $end
$scope module reg_output_comparator $end
$var wire 32 n# a [31:0] $end
$var wire 32 o# b [31:0] $end
$var wire 6 p# op [5:0] $end
$var wire 5 q# rt [4:0] $end
$var reg 1 { c $end
$upscope $end
$scope module register_file $end
$var wire 32 r# HI_write_data [31:0] $end
$var wire 1 ," HI_write_enable $end
$var wire 32 s# LO_write_data [31:0] $end
$var wire 1 (" LO_write_enable $end
$var wire 1 G" clk $end
$var wire 1 t# modified_write_clk $end
$var wire 1 u# pipelined $end
$var wire 5 v# read_address_1 [4:0] $end
$var wire 5 w# read_address_2 [4:0] $end
$var wire 32 x# read_data_1 [31:0] $end
$var wire 32 y# read_data_2 [31:0] $end
$var wire 32 z# read_data_HI [31:0] $end
$var wire 32 {# read_data_LO [31:0] $end
$var wire 32 |# read_register_2 [31:0] $end
$var wire 32 }# registers_out_31_DELETE_ME [31:0] $end
$var wire 1 , reset $end
$var wire 5 ~# write_address [4:0] $end
$var wire 1 F write_enable $end
$var wire 32 !$ write_data [31:0] $end
$var reg 32 "$ HI_reg [31:0] $end
$var reg 32 #$ LO_reg [31:0] $end
$scope begin $ivl_for_loop0 $end
$var integer 32 $$ i [31:0] $end
$upscope $end
$upscope $end
$scope module write_register_execute_mux $end
$var wire 2 %$ control [1:0] $end
$var wire 5 &$ input_0 [4:0] $end
$var wire 5 '$ input_1 [4:0] $end
$var wire 5 ($ input_2 [4:0] $end
$var wire 5 )$ input_3 [4:0] $end
$var reg 5 *$ resolved [4:0] $end
$upscope $end
$scope module writeback_mux $end
$var wire 1 h control $end
$var wire 32 +$ input_0 [31:0] $end
$var wire 32 ,$ input_1 [31:0] $end
$var wire 32 -$ resolved [31:0] $end
$upscope $end
$upscope $end
$scope module raminst $end
$var wire 32 .$ address [31:0] $end
$var wire 1 + clk $end
$var wire 1 ' read $end
$var wire 1 " write $end
$var wire 32 /$ writedata [31:0] $end
$var reg 32 0$ readdata [31:0] $end
$var reg 32 1$ test [31:0] $end
$var reg 1 # waitrequest $end
$scope begin $unm_blk_34 $end
$var integer 32 2$ i [31:0] $end
$var integer 32 3$ j [31:0] $end
$upscope $end
$upscope $end
$upscope $end
$enddefinitions $end
#0
$dumpvars
b100000000000000000000 3$
b11000000000000000000000000000000 2$
bx 1$
bx 0$
bx /$
bx00 .$
bx -$
bx ,$
bx +$
bx *$
b0 )$
b11111 ($
bx '$
bx &$
bx %$
b0 $$
bx #$
bx "$
bx !$
bx ~#
bx }#
bx |#
bx {#
bx z#
bx y#
bx x#
bx w#
bx v#
1u#
1t#
bx s#
bx r#
bx q#
bx p#
bx o#
bx n#
bx m#
bx l#
bx k#
bx j#
bx i#
bx h#
bx g#
bx f#
b100 e#
bx d#
b100 c#
bx b#
bx a#
bx `#
bx _#
bx ^#
bx ]#
bx \#
bx [#
bx Z#
bx Y#
bx X#
bx W#
bx V#
bx U#
bx T#
b1111 S#
bx R#
bx Q#
bx P#
bx O#
bx N#
bx M#
bx L#
bx K#
bx J#
xI#
b0 H#
b0 G#
xF#
bx E#
bx D#
bx C#
bx B#
bx A#
bx @#
bx ?#
bx >#
bx =#
bx <#
bx ;#
bx :#
bx 9#
bx 8#
bx 7#
bx 6#
bx 5#
bx 4#
bx 3#
bx 2#
bx 1#
bx 0#
bx /#
bx .#
bx -#
bx ,#
bx +#
bx *#
bx )#
bx (#
bx '#
bx &#
bx %#
bx $#
bx ##
bx "#
bx !#
bx ~"
bx }"
bx |"
bx {"
bx z"
bx y"
bx x"
bx w"
bx00 v"
bx u"
bx t"
bx s"
bx r"
bx q"
bx p"
bx o"
bx n"
bx m"
bx l"
bx k"
bx j"
bx i"
bx h"
b0 g"
bx f"
bx e"
bx d"
bx c"
bx b"
bx a"
bx `"
b0 _"
b0 ^"
bx ]"
bx \"
bx ["
bx Z"
bx Y"
bx X"
bx W"
bx V"
bx U"
bx T"
b0xxxxxxxxxxxxxxxxxxxxxxxxxxxxxxxx S"
b0 R"
bx Q"
b0 P"
bx O"
bx N"
b0 M"
bx L"
bx K"
bx00 J"
bx I"
bx H"
0G"
bx F"
bx E"
b1111 D"
bx00 C"
bx B"
bx A"
bx @"
bx ?"
bx >"
bx ="
bx <"
bx ;"
bx :"
bx 9"
bx 8"
bx 7"
bx 6"
bx 5"
x4"
x3"
x2"
x1"
x0"
x/"
x."
x-"
x,"
x+"
x*"
x)"
x("
bx '"
bx &"
bx %"
bx $"
bx #"
bx ""
x!"
bx ~
bx }
bx |
0{
xz
xy
b0 x
xw
b0 v
bx u
bx t
bx s
xr
xq
xp
bx o
bx00 n
bx m
bx l
xk
xj
xi
xh
xg
xf
xe
xd
bx c
bx b
bx a
bx `
bx _
x^
x]
x\
bx [
bx Z
bx Y
bx X
bx W
bx V
bx U
bx T
bx S
bx R
bx Q
bx P
bx O
bx N
bx M
bx L
bx K
bx J
xI
xH
xG
xF
bx E
bx00 D
bx C
bx B
bx A
bx @
bx ?
bx >
bx =
b0 <
bx ;
bx :
x9
x8
x7
x6
bx 5
bx 4
bx 3
bx 2
bx 1
bx 0
0/
bx .
b1111 -
0,
0+
x*
bx00 )
b1111 (
x'
bx &
bx %
bx $
0#
x"
bx !
$end
#1
b10111111110000000000000000000000 _
b10111111110000000000000000000000 K"
b10111111110000000000000000000000 i#
b0 D
b0 J"
b0 :"
b0 X"
b0 -#
b10111111110000000000000000000100 V
b10111111110000000000000000000100 `#
b10111111110000000000000000000100 m#
b0 |
b0 o#
b0 }
b0 n#
b0 C
b0 y"
b0 ;
b0 {"
b0 >
b0 z"
b0 O"
b10111111110000000000000000000100 [
b10111111110000000000000000000100 j#
b10111111110000000000000000000100 k#
b0 o
b0 u
b0 '"
b0 s"
b0 #"
b0 u"
b0 A#
b0 q#
b0 M
b0 y#
b0 T
b0 w#
b0 %"
b0 t"
b0 ?#
b0 N
b0 x#
b0 U
b0 v#
b0 c
b0 w"
b0 p#
b10110000000000000000000000000000 n
b10110000000000000000000000000000 v"
b0 8"
b0 l#
b0 E
b0 Z"
b0 !$
b0 -$
0d
07
0r
0^
b0 <"
b0 k"
b0 q"
0+"
0/"
0!"
b1 P
b1 o"
b1 x"
b0 6"
b0 l"
b0 r"
0g
0k
1I
b0 m"
b0 p"
b0 n"
b0 3
b0 2#
b0 E#
b0 *$
b0 5
b0 i"
b0 1#
b0 h"
b0 S"
b0 N"
b0 A
b0 Q"
b0 f"
b0 0#
0z
09
08
0F#
0w
0y
0I#
b10111111110000000000000000000000 )
b10111111110000000000000000000000 C"
b10111111110000000000000000000000 .$
b0 %
b0 I"
02"
b10111111110000000000000000000100 W
b10111111110000000000000000000100 <#
b10111111110000000000000000000100 d#
b10111111110000000000000000000100 h#
b10111111110000000000000000000000 t
b10111111110000000000000000000000 a#
b10111111110000000000000000000000 b#
04"
b0 s
b0 j"
b0 =#
b10111111110000000000000000000000 Y
b10111111110000000000000000000000 L"
b10111111110000000000000000000000 |"
b10111111110000000000000000000000 >#
03"
b0 :
b0 ["
b0 *#
b0 =
b0 \"
b0 )#
b0 m
b0 $#
b0 .#
b100 Z
b100 ]"
b100 g#
b0 X
b0 &#
b0 f#
b0 b
b0 %#
b0 /#
06
0q
0]
b0 B
b0 Y"
b0 (#
b0 $"
b0 "#
b0 @#
b0 &"
b0 !#
b0 '$
b0 ""
b0 ##
b0 B#
b0 &$
b0 ;"
b0 T"
b0 }"
0*"
0."
b0 O
b0 '#
b0 %$
b0 5"
b0 b"
b0 ~"
0f
0j
0H
b0 @
b0 8#
b0 V#
b0 a
b0 7#
b0 T#
01"
b0 l
b0 6#
0p
b0 2
b0 :#
b0 C#
b0 W#
b0 !
b0 0
b0 /$
b0 4
b0 9#
b0 >"
b0 d"
b0 4#
b0 Q#
b0 A"
b0 e"
b0 3#
b0 P#
b0 .
b0 9"
b0 c"
b0 5#
b0 R#
0\
0)"
0-"
0e
0i
0G
b0 S
b0 K#
b0 ]#
b0 ?
b0 J#
b0 ^#
b0 ~
b0 M#
b0 [#
b0 `
b0 L#
b0 \#
1*
00"
b0 ="
b0 `"
b0 Y#
b0 s#
b0 @"
b0 a"
b0 X#
b0 r#
b0 1
b0 D#
b0 _#
b0 ~#
b0 7"
b0 Z#
b0 +$
0("
0,"
0h
0F
b0 }#
b0 J
b0 |#
b11 E"
b0 H"
b0 U#
b0 F"
b0 ;#
b0 R
b0 N#
b0 ,$
b100000 $$
0"
0'
1,
1+
#2
0+
#3
b0 :"
b0 X"
b0 -#
b0 O#
0,
1+
#4
1#
1'
0+
#5
0#
b100100000000101011111111010000 &
b100100000000101011111111010000 Q
b100100000000101011111111010000 0$
1+
#6
0+
#7
b101111111101000000 D
b101111111101000000 J"
b10111111110000000000000000001000 V
b10111111110000000000000000001000 `#
b10111111110000000000000000001000 m#
b1011111111010000 C
b1011111111010000 y"
b10110000000010101111111101000000 n
b10110000000010101111111101000000 v"
b101011111111010000 o
b1011111111010000 u
b10111 '"
b10111 s"
b10 #"
b10 u"
b10 A#
b10 q#
b10 T
b10 w#
b1001 c
b1001 w"
b1001 p#
b10111111110000000000000000001000 [
b10111111110000000000000000001000 j#
b10111111110000000000000000001000 k#
1d
b100001 <"
b100001 k"
b100001 q"
b0 P
b0 o"
b0 x"
b1 6"
b1 l"
b1 r"
b10000 m"
b10 p"
b1001 n"
b10111111110000000000000000000100 )
b10111111110000000000000000000100 C"
b10111111110000000000000000000100 .$
b1111 ~
b1111 M#
b1111 [#
bx >"
bx d"
bx 4#
bx Q#
bx A"
bx e"
bx 3#
bx P#
b1 O
b1 '#
b1 %$
1H
b10110000000000000000000000000000 m
b10110000000000000000000000000000 $#
b10110000000000000000000000000000 .#
b10111111110000000000000000000100 Z
b10111111110000000000000000000100 ]"
b10111111110000000000000000000100 g#
b10111111110000000000000000000000 X
b10111111110000000000000000000000 &#
b10111111110000000000000000000000 f#
b100100000000101011111111010000 s
b100100000000101011111111010000 j"
b100100000000101011111111010000 =#
b10111111110000101111111101000100 _
b10111111110000101111111101000100 K"
b10111111110000101111111101000100 i#
b10111111110000000000000000000100 Y
b10111111110000000000000000000100 L"
b10111111110000000000000000000100 |"
b10111111110000000000000000000100 >#
b10111111110000000000000000001000 W
b10111111110000000000000000001000 <#
b10111111110000000000000000001000 d#
b10111111110000000000000000001000 h#
b10111111110000000000000000000100 t
b10111111110000000000000000000100 a#
b10111111110000000000000000000100 b#
0t#
b0 :"
b0 X"
b0 -#
1G"
b100100000000101011111111010000 F"
b100100000000101011111111010000 ;#
b0 E"
0'
1+
#8
1#
1t#
1'
0G"
0+
#9
0#
b100100000000110000000000010000 &
b100100000000110000000000010000 Q
b100100000000110000000000010000 0$
1+
#10
0+
#11
b1000000 D
b1000000 J"
b10111111110000000000000000001100 V
b10111111110000000000000000001100 `#
b10111111110000000000000000001100 m#
b10000 C
b10000 y"
b10111111110000000000000000001100 [
b10111111110000000000000000001100 j#
b10111111110000000000000000001100 k#
b10111111110000000000000000001000 )
b10111111110000000000000000001000 C"
b10111111110000000000000000001000 .$
b10110000000011000000000001000000 n
b10110000000011000000000001000000 v"
b110000000000010000 o
b10000 u
b0 '"
b0 s"
b11 #"
b11 u"
b11 A#
b11 q#
b11 T
b11 w#
b1011111111010000 :"
b1011111111010000 X"
b1011111111010000 -#
b11 p"
b10 3
b10 2#
b10 E#
b10 *$
b1011111111010000 R"
b1011111111010000 M"
b1011111111010000 <
b1011111111010000 P"
b1011111111010000 g"
b10111111110000000000000000001100 W
b10111111110000000000000000001100 <#
b10111111110000000000000000001100 d#
b10111111110000000000000000001100 h#
b10111111110000000000000000001000 t
b10111111110000000000000000001000 a#
b10111111110000000000000000001000 b#
b100100000000110000000000010000 s
b100100000000110000000000010000 j"
b100100000000110000000000010000 =#
b10111111110000000000000001001000 _
b10111111110000000000000001001000 K"
b10111111110000000000000001001000 i#
b10111111110000000000000000001000 Y
b10111111110000000000000000001000 L"
b10111111110000000000000000001000 |"
b10111111110000000000000000001000 >#
b1001 b
b1001 %#
b1001 /#
b1011111111010000 B
b1011111111010000 Y"
b1011111111010000 (#
b10111 &"
b10111 !#
b10111 '$
b10 ""
b10 ##
b10 B#
b10 &$
b100001 ;"
b100001 T"
b100001 }"
b0 O
b0 '#
b0 %$
b1 5"
b1 b"
b1 ~"
b10110000000010101111111101000000 m
b10110000000010101111111101000000 $#
b10110000000010101111111101000000 .#
b10111111110000000000000000001000 Z
b10111111110000000000000000001000 ]"
b10111111110000000000000000001000 g#
b10111111110000000000000000000100 X
b10111111110000000000000000000100 &#
b10111111110000000000000000000100 f#
b10110000000000000000000000000000 l
b10110000000000000000000000000000 6#
1G
bx ="
bx `"
bx Y#
bx s#
bx @"
bx a"
bx X#
bx r#
0t#
1G"
b100100000000110000000000010000 F"
b100100000000110000000000010000 ;#
0'
1+
#12
1#
1t#
1'
0G"
0+
#13
0#
b11000100001000000000100 &
b11000100001000000000100 Q
b11000100001000000000100 0$
1+
#14
0+
