mips_cpu_bus_tb_delay1_waves.vcd
$date
	Sat Dec 19 11:41:18 2020
$end
$version
	Icarus Verilog
$end
$timescale
	10ps
$end
$scope module mips_cpu_bus_tb_delay1 $end
$var wire 32 ! writedata [31:0] $end
$var wire 1 " write $end
$var wire 1 # waitrequest $end
$var wire 32 $ register_v0 [31:0] $end
$var wire 32 % readdata [31:0] $end
$var wire 1 & read $end
$var wire 4 ' byteenable [3:0] $end
$var wire 32 ( address [31:0] $end
$var wire 1 ) active $end
$var reg 1 * clk $end
$var reg 1 + rst $end
$scope module cpuInst $end
$var wire 4 , byteenable [3:0] $end
$var wire 1 * clk $end
$var wire 32 - data_address [31:0] $end
$var wire 1 . internal_clk $end
$var wire 1 / program_counter_src_decode $end
$var wire 1 + reset $end
$var wire 32 0 writedata [31:0] $end
$var wire 5 1 write_register_writeback [4:0] $end
$var wire 5 2 write_register_memory [4:0] $end
$var wire 5 3 write_register_execute [4:0] $end
$var wire 32 4 write_data_memory [31:0] $end
$var wire 32 5 write_data_execute [31:0] $end
$var wire 1 # waitrequest $end
$var wire 1 6 using_HI_LO_execute $end
$var wire 1 7 using_HI_LO_decode $end
$var wire 1 8 stall_fetch $end
$var wire 1 9 stall_decode $end
$var wire 32 : src_B_execute [31:0] $end
$var wire 32 ; src_B_decode [31:0] $end
$var wire 32 < src_B_ALU_execute [31:0] $end
$var wire 32 = src_A_execute [31:0] $end
$var wire 32 > src_A_decode [31:0] $end
$var wire 32 ? src_A_ALU_writeback [31:0] $end
$var wire 32 @ src_A_ALU_memory [31:0] $end
$var wire 32 A src_A_ALU_execute [31:0] $end
$var wire 32 B sign_imm_execute [31:0] $end
$var wire 32 C sign_imm_decode [31:0] $end
$var wire 32 D shifter_output_decode [31:0] $end
$var wire 5 E sa_execute [4:0] $end
$var wire 5 F sa_decode [4:0] $end
$var wire 32 G result_writeback [31:0] $end
$var wire 1 H register_write_writeback $end
$var wire 1 I register_write_memory $end
$var wire 1 J register_write_execute $end
$var wire 1 K register_write_decode $end
$var wire 32 L register_v0_reg_file [31:0] $end
$var wire 32 M register_file_output_LO_decode [31:0] $end
$var wire 32 N register_file_output_HI_decode [31:0] $end
$var wire 32 O register_file_output_B_decode [31:0] $end
$var wire 32 P register_file_output_A_decode [31:0] $end
$var wire 2 Q register_destination_execute [1:0] $end
$var wire 2 R register_destination_decode [1:0] $end
$var wire 32 S readdata [31:0] $end
$var wire 32 T read_data_writeback_filtered [31:0] $end
$var wire 32 U read_data_writeback [31:0] $end
$var wire 5 V read_address_2 [4:0] $end
$var wire 5 W read_address_1 [4:0] $end
$var wire 32 X program_counter_prime [31:0] $end
$var wire 32 Y program_counter_plus_four_fetch [31:0] $end
$var wire 32 Z program_counter_plus_four_execute [31:0] $end
$var wire 32 [ program_counter_plus_four_decode [31:0] $end
$var wire 32 \ program_counter_plus_eight_execute [31:0] $end
$var wire 32 ] program_counter_mux_1_out [31:0] $end
$var wire 1 ^ program_counter_multiplexer_jump_memory $end
$var wire 1 _ program_counter_multiplexer_jump_execute $end
$var wire 1 ` program_counter_multiplexer_jump_decode $end
$var wire 32 a program_counter_branch_decode [31:0] $end
$var wire 6 b op_writeback [5:0] $end
$var wire 6 c op_memory [5:0] $end
$var wire 6 d op_execute [5:0] $end
$var wire 6 e op [5:0] $end
$var wire 1 f no_sign_extend $end
$var wire 1 g memory_write_memory $end
$var wire 1 h memory_write_execute $end
$var wire 1 i memory_write_decode $end
$var wire 1 j memory_to_register_writeback $end
$var wire 1 k memory_to_register_memory $end
$var wire 1 l memory_to_register_execute $end
$var wire 1 m memory_to_register_decode $end
$var wire 32 n j_program_counter_memory [31:0] $end
$var wire 32 o j_program_counter_execute [31:0] $end
$var wire 32 p j_program_counter_decode [31:0] $end
$var wire 26 q j_offset [25:0] $end
$var wire 1 r j_instruction_memory $end
$var wire 1 s j_instruction_execute $end
$var wire 1 t j_instruction_decode $end
$var wire 32 u instruction_decode [31:0] $end
$var wire 32 v instr_address [31:0] $end
$var wire 16 w immediate [15:0] $end
$var wire 3 x forward_B_execute [2:0] $end
$var wire 1 y forward_B_decode $end
$var wire 3 z forward_A_execute [2:0] $end
$var wire 1 { forward_A_decode $end
$var wire 1 | flush_execute_register $end
$var wire 1 } equal_decode $end
$var wire 32 ~ comparator_2 [31:0] $end
$var wire 32 !" comparator_1 [31:0] $end
$var wire 4 "" byteenable_writeback [3:0] $end
$var wire 1 #" branch_decode $end
$var wire 1 ) active $end
$var wire 5 $" Rt_execute [4:0] $end
$var wire 5 %" Rt_decode [4:0] $end
$var wire 5 &" Rs_execute [4:0] $end
$var wire 5 '" Rs_decode [4:0] $end
$var wire 5 (" Rd_execute [4:0] $end
$var wire 5 )" Rd_decode [4:0] $end
$var wire 1 *" LO_register_write_writeback $end
$var wire 1 +" LO_register_write_memory $end
$var wire 1 ," LO_register_write_execute $end
$var wire 1 -" LO_register_write_decode $end
$var wire 1 ." HI_register_write_writeback $end
$var wire 1 /" HI_register_write_memory $end
$var wire 1 0" HI_register_write_execute $end
$var wire 1 1" HI_register_write_decode $end
$var wire 1 2" HALT_writeback $end
$var wire 1 3" HALT_memory $end
$var wire 1 4" HALT_fetch $end
$var wire 1 5" HALT_execute $end
$var wire 1 6" HALT_decode $end
$var wire 2 7" ALU_src_B_execute [1:0] $end
$var wire 2 8" ALU_src_B_decode [1:0] $end
$var wire 1 9" ALU_src_A_execute $end
$var wire 1 :" ALU_src_A_decode $end
$var wire 32 ;" ALU_output_writeback [31:0] $end
$var wire 32 <" ALU_output_memory_resolved [31:0] $end
$var wire 32 =" ALU_output_memory [31:0] $end
$var wire 32 >" ALU_output_execute [31:0] $end
$var wire 6 ?" ALU_function_execute [5:0] $end
$var wire 6 @" ALU_function_decode [5:0] $end
$var wire 32 A" ALU_LO_output_writeback [31:0] $end
$var wire 32 B" ALU_LO_output_memory [31:0] $end
$var wire 32 C" ALU_LO_output_execute [31:0] $end
$var wire 32 D" ALU_HI_output_writeback [31:0] $end
$var wire 32 E" ALU_HI_output_memory [31:0] $end
$var wire 32 F" ALU_HI_output_execute [31:0] $end
$var reg 32 G" address [31:0] $end
$var reg 4 H" byteenable_memory [3:0] $end
$var reg 4 I" byteenable_memory_next [3:0] $end
$var reg 1 J" clk_enable $end
$var reg 1 K" en_out $end
$var reg 3 L" fetch_state [2:0] $end
$var reg 3 M" fetch_state_next [2:0] $end
$var reg 32 N" instruction_fetch [31:0] $end
$var reg 32 O" instruction_fetch_next [31:0] $end
$var reg 1 & read $end
$var reg 32 P" read_data_memory [31:0] $end
$var reg 32 Q" read_data_memory_next [31:0] $end
$var reg 32 R" register_v0 [31:0] $end
$var reg 1 " write $end
$scope module adder_decode $end
$var wire 32 S" a [31:0] $end
$var wire 32 T" z [31:0] $end
$var wire 32 U" b [31:0] $end
$upscope $end
$scope module alu $end
$var wire 64 V" sign_extened_input_2 [63:0] $end
$var wire 64 W" sign_extened_input_1 [63:0] $end
$var wire 5 X" shift_amount [4:0] $end
$var wire 32 Y" input_2 [31:0] $end
$var wire 32 Z" input_1 [31:0] $end
$var wire 64 [" extended_input_2 [63:0] $end
$var wire 64 \" extended_input_1 [63:0] $end
$var wire 6 ]" ALU_operation [5:0] $end
$var reg 64 ^" ALU_HI_LO_output [63:0] $end
$var reg 32 _" ALU_HI_output [31:0] $end
$var reg 32 `" ALU_LO_output [31:0] $end
$var reg 32 a" ALU_output [31:0] $end
$upscope $end
$scope module alu_input_mux $end
$var wire 32 b" sign_imm_execute [31:0] $end
$var wire 5 c" sa_execute [10:6] $end
$var wire 32 d" result_writeback [31:0] $end
$var wire 32 e" read_data_2_reg [31:0] $end
$var wire 32 f" read_data_1_reg [31:0] $end
$var wire 32 g" program_counter_plus_eight_execute [31:0] $end
$var wire 3 h" forward_two_execute [2:0] $end
$var wire 3 i" forward_one_execute [2:0] $end
$var wire 32 j" LO_result_writeback [31:0] $end
$var wire 32 k" HI_result_writeback [31:0] $end
$var wire 2 l" ALU_src_B_execute [1:0] $end
$var wire 1 9" ALU_src_A_execute $end
$var wire 32 m" ALU_output_memory [31:0] $end
$var wire 32 n" ALU_LO_output_memory [31:0] $end
$var wire 32 o" ALU_HI_output_memory [31:0] $end
$var reg 32 p" src_A_ALU_execute [31:0] $end
$var reg 32 q" src_B_ALU_execute [31:0] $end
$var reg 32 r" src_mux_input_0_A [31:0] $end
$var reg 32 s" src_mux_input_0_B [31:0] $end
$var reg 32 t" write_data_execute [31:0] $end
$upscope $end
$scope module control_unit $end
$var wire 32 u" instruction [31:0] $end
$var reg 6 v" ALU_function [5:0] $end
$var reg 1 :" ALU_src_A $end
$var reg 2 w" ALU_src_B [1:0] $end
$var reg 1 1" HI_register_write $end
$var reg 1 -" LO_register_write $end
$var reg 1 #" branch $end
$var reg 6 x" funct [5:0] $end
$var reg 1 t j_instruction $end
$var reg 1 m memory_to_register $end
$var reg 1 i memory_write $end
$var reg 1 f no_sign_extend $end
$var reg 6 y" op [5:0] $end
$var reg 1 ` program_counter_multiplexer_jump $end
$var reg 2 z" register_destination [1:0] $end
$var reg 1 K register_write $end
$var reg 5 {" rt [4:0] $end
$var reg 1 7 using_HI_LO $end
$upscope $end
$scope module decode_execute_register $end
$var wire 6 |" ALU_function_decode [5:0] $end
$var wire 1 :" ALU_src_A_decode $end
$var wire 2 }" ALU_src_B_decode [1:0] $end
$var wire 1 1" HI_register_write_decode $end
$var wire 1 -" LO_register_write_decode $end
$var wire 5 ~" Rd_decode [4:0] $end
$var wire 5 !# Rs_decode [4:0] $end
$var wire 5 "# Rt_decode [4:0] $end
$var wire 1 . clk $end
$var wire 1 t j_instruction_decode $end
$var wire 32 ## j_program_counter_decode [31:0] $end
$var wire 1 m memory_to_register_decode $end
$var wire 1 i memory_write_decode $end
$var wire 6 $# op_decode [5:0] $end
$var wire 1 ` program_counter_multiplexer_jump_decode $end
$var wire 2 %# register_destination_decode [1:0] $end
$var wire 1 K register_write_decode $end
$var wire 1 + reset $end
$var wire 5 &# sa_decode [4:0] $end
$var wire 32 '# sign_imm_decode [31:0] $end
$var wire 32 (# src_A_decode [31:0] $end
$var wire 32 )# src_B_decode [31:0] $end
$var wire 1 7 using_HI_LO_decode $end
$var wire 32 *# program_counter_plus_four_decode [31:0] $end
$var wire 1 | clear $end
$var wire 1 6" HALT_decode $end
$var reg 6 +# ALU_function_execute [5:0] $end
$var reg 1 9" ALU_src_A_execute $end
$var reg 2 ,# ALU_src_B_execute [1:0] $end
$var reg 1 5" HALT_execute $end
$var reg 1 0" HI_register_write_execute $end
$var reg 1 ," LO_register_write_execute $end
$var reg 5 -# Rd_execute [4:0] $end
$var reg 5 .# Rs_execute [4:0] $end
$var reg 5 /# Rt_execute [4:0] $end
$var reg 1 s j_instruction_execute $end
$var reg 32 0# j_program_counter_execute [31:0] $end
$var reg 1 l memory_to_register_execute $end
$var reg 1 h memory_write_execute $end
$var reg 6 1# op_execute [5:0] $end
$var reg 1 _ program_counter_multiplexer_jump_execute $end
$var reg 32 2# program_counter_plus_four_execute [31:0] $end
$var reg 2 3# register_destination_execute [1:0] $end
$var reg 1 J register_write_execute $end
$var reg 5 4# sa_execute [4:0] $end
$var reg 32 5# sign_imm_execute [31:0] $end
$var reg 32 6# src_A_execute [31:0] $end
$var reg 32 7# src_B_execute [31:0] $end
$var reg 1 6 using_HI_LO_execute $end
$upscope $end
$scope module execute_memory_register $end
$var wire 32 8# ALU_HI_output_execute [31:0] $end
$var wire 32 9# ALU_LO_output_execute [31:0] $end
$var wire 32 :# ALU_output_execute [31:0] $end
$var wire 1 5" HALT_execute $end
$var wire 1 0" HI_register_write_execute $end
$var wire 1 ," LO_register_write_execute $end
$var wire 1 . clk $end
$var wire 1 s j_instruction_execute $end
$var wire 32 ;# j_program_counter_execute [31:0] $end
$var wire 1 l memory_to_register_execute $end
$var wire 1 h memory_write_execute $end
$var wire 6 <# op_execute [5:0] $end
$var wire 1 _ program_counter_multiplexer_jump_execute $end
$var wire 1 J register_write_execute $end
$var wire 1 + reset $end
$var wire 32 =# src_A_ALU_execute [31:0] $end
$var wire 32 ># write_data_execute [31:0] $end
$var wire 5 ?# write_register_execute [4:0] $end
$var reg 32 @# ALU_HI_output_memory [31:0] $end
$var reg 32 A# ALU_LO_output_memory [31:0] $end
$var reg 32 B# ALU_output_memory [31:0] $end
$var reg 1 3" HALT_memory $end
$var reg 1 /" HI_register_write_memory $end
$var reg 1 +" LO_register_write_memory $end
$var reg 1 r j_instruction_memory $end
$var reg 32 C# j_program_counter_memory [31:0] $end
$var reg 1 k memory_to_register_memory $end
$var reg 1 g memory_write_memory $end
$var reg 6 D# op_memory [5:0] $end
$var reg 1 ^ program_counter_multiplexer_jump_memory $end
$var reg 1 I register_write_memory $end
$var reg 32 E# src_A_ALU_memory [31:0] $end
$var reg 32 F# write_data_memory [31:0] $end
$var reg 5 G# write_register_memory [4:0] $end
$upscope $end
$scope module fetch_decode_register $end
$var wire 1 . clk $end
$var wire 32 H# instruction_fetch [31:0] $end
$var wire 1 + reset $end
$var wire 32 I# program_counter_plus_four_fetch [31:0] $end
$var wire 1 9 enable $end
$var wire 1 4" HALT_fetch $end
$var reg 1 6" HALT_decode $end
$var reg 32 J# instruction_decode [31:0] $end
$var reg 32 K# program_counter_plus_four_decode [31:0] $end
$upscope $end
$scope module hazard_unit $end
$var wire 1 /" HI_register_write_memory $end
$var wire 1 +" LO_register_write_memory $end
$var wire 5 L# Rs_decode [4:0] $end
$var wire 5 M# Rs_execute [4:0] $end
$var wire 5 N# Rt_decode [4:0] $end
$var wire 5 O# Rt_execute [4:0] $end
$var wire 1 #" branch_decode $end
$var wire 1 l memory_to_register_execute $end
$var wire 1 k memory_to_register_memory $end
$var wire 1 _ program_counter_multiplexer_jump_execute $end
$var wire 1 J register_write_execute $end
$var wire 1 I register_write_memory $end
$var wire 1 6 using_HI_LO_execute $end
$var wire 5 P# write_register_memory [4:0] $end
$var wire 5 Q# write_register_writeback [4:0] $end
$var wire 5 R# write_register_execute [4:0] $end
$var wire 1 H register_write_writeback $end
$var wire 1 *" LO_register_write_writeback $end
$var wire 1 ." HI_register_write_writeback $end
$var reg 1 S# branchstall $end
$var reg 1 | flush_execute_register $end
$var reg 1 { forward_register_file_output_A_decode $end
$var reg 3 T# forward_register_file_output_A_execute [2:0] $end
$var reg 1 y forward_register_file_output_B_decode $end
$var reg 3 U# forward_register_file_output_B_execute [2:0] $end
$var reg 1 V# lwstall $end
$var reg 1 9 stall_decode $end
$var reg 1 8 stall_fetch $end
$upscope $end
$scope module memory_filter $end
$var wire 1 + reset $end
$var wire 32 W# src_A_writeback [31:0] $end
$var wire 32 X# read_data_writeback [31:0] $end
$var wire 6 Y# op_writeback [5:0] $end
$var wire 4 Z# byteenable_writeback [3:0] $end
$var reg 32 [# filtered_output_writeback [31:0] $end
$upscope $end
$scope module memory_writeback_register $end
$var wire 32 \# ALU_HI_output_memory [31:0] $end
$var wire 32 ]# ALU_LO_output_memory [31:0] $end
$var wire 32 ^# ALU_output_memory [31:0] $end
$var wire 1 3" HALT_memory $end
$var wire 1 /" HI_register_write_memory $end
$var wire 1 +" LO_register_write_memory $end
$var wire 4 _# byteenable_memory [3:0] $end
$var wire 1 . clk $end
$var wire 1 k memory_to_register_memory $end
$var wire 6 `# op_memory [5:0] $end
$var wire 32 a# read_data_memory [31:0] $end
$var wire 1 I register_write_memory $end
$var wire 1 + reset $end
$var wire 32 b# src_A_ALU_memory [31:0] $end
$var wire 5 c# write_register_memory [4:0] $end
$var reg 32 d# ALU_HI_output_writeback [31:0] $end
$var reg 32 e# ALU_LO_output_writeback [31:0] $end
$var reg 32 f# ALU_output_writeback [31:0] $end
$var reg 1 2" HALT_writeback $end
$var reg 1 ." HI_register_write_writeback $end
$var reg 1 *" LO_register_write_writeback $end
$var reg 4 g# byteenable_writeback [3:0] $end
$var reg 1 j memory_to_register_writeback $end
$var reg 6 h# op_writeback [5:0] $end
$var reg 32 i# read_data_writeback [31:0] $end
$var reg 1 H register_write_writeback $end
$var reg 32 j# src_A_ALU_writeback [31:0] $end
$var reg 5 k# write_register_writeback [4:0] $end
$upscope $end
$scope module pc $end
$var wire 1 . clk $end
$var wire 1 8 enable $end
$var wire 1 + reset $end
$var wire 32 l# address_input [31:0] $end
$var reg 32 m# address_output [31:0] $end
$var reg 1 4" halt $end
$upscope $end
$scope module plus_four_adder $end
$var wire 32 n# a [31:0] $end
$var wire 32 o# b [31:0] $end
$var wire 32 p# z [31:0] $end
$upscope $end
$scope module plus_four_adder_execute $end
$var wire 32 q# a [31:0] $end
$var wire 32 r# b [31:0] $end
$var wire 32 s# z [31:0] $end
$upscope $end
$scope module program_counter_multiplexer $end
$var wire 1 / control $end
$var wire 32 t# input_0 [31:0] $end
$var wire 32 u# input_1 [31:0] $end
$var wire 32 v# resolved [31:0] $end
$upscope $end
$scope module program_counter_multiplexer_two $end
$var wire 1 ^ control $end
$var wire 32 w# input_0 [31:0] $end
$var wire 32 x# input_1 [31:0] $end
$var wire 32 y# resolved [31:0] $end
$upscope $end
$scope module reg_output_comparator $end
$var wire 32 z# a [31:0] $end
$var wire 32 {# b [31:0] $end
$var wire 6 |# op [5:0] $end
$var wire 5 }# rt [4:0] $end
$var reg 1 } c $end
$upscope $end
$scope module register_file $end
$var wire 32 ~# HI_write_data [31:0] $end
$var wire 1 ." HI_write_enable $end
$var wire 32 !$ LO_write_data [31:0] $end
$var wire 1 *" LO_write_enable $end
$var wire 1 . clk $end
$var wire 1 "$ modified_write_clk $end
$var wire 1 #$ pipelined $end
$var wire 5 $$ read_address_1 [4:0] $end
$var wire 5 %$ read_address_2 [4:0] $end
$var wire 32 &$ read_data_1 [31:0] $end
$var wire 32 '$ read_data_2 [31:0] $end
$var wire 32 ($ read_data_HI [31:0] $end
$var wire 32 )$ read_data_LO [31:0] $end
$var wire 32 *$ read_register_2 [31:0] $end
$var wire 1 + reset $end
$var wire 5 +$ write_address [4:0] $end
$var wire 1 H write_enable $end
$var wire 32 ,$ write_data [31:0] $end
$var reg 32 -$ HI_reg [31:0] $end
$var reg 32 .$ LO_reg [31:0] $end
$scope begin $ivl_for_loop0 $end
$var integer 32 /$ i [31:0] $end
$upscope $end
$upscope $end
$scope module write_register_execute_mux $end
$var wire 2 0$ control [1:0] $end
$var wire 5 1$ input_0 [4:0] $end
$var wire 5 2$ input_1 [4:0] $end
$var wire 5 3$ input_2 [4:0] $end
$var wire 5 4$ input_3 [4:0] $end
$var reg 5 5$ resolved [4:0] $end
$upscope $end
$scope module writeback_mux $end
$var wire 1 j control $end
$var wire 32 6$ input_0 [31:0] $end
$var wire 32 7$ input_1 [31:0] $end
$var wire 32 8$ resolved [31:0] $end
$upscope $end
$upscope $end
$scope module raminst $end
$var wire 32 9$ address [31:0] $end
$var wire 1 * clk $end
$var wire 1 & read $end
$var wire 1 " write $end
$var wire 32 :$ writedata [31:0] $end
$var reg 32 ;$ readdata [31:0] $end
$var reg 1 # waitrequest $end
$scope begin $unm_blk_34 $end
$var integer 32 <$ i [31:0] $end
$var integer 32 =$ j [31:0] $end
$upscope $end
$upscope $end
$upscope $end
$enddefinitions $end
#0
$dumpvars
b100000000000000000000 =$
b11000000000000000000000000000000 <$
bx ;$
bx :$
b0 9$
bx 8$
bx 7$
bx 6$
bx 5$
b0 4$
b11111 3$
bx 2$
bx 1$
bx 0$
b0 /$
bx .$
bx -$
bx ,$
bx +$
bx *$
bx )$
bx ($
bx '$
bx &$
bx %$
bx $$
1#$
1"$
bx !$
bx ~#
bx }#
bx |#
bx {#
bx z#
bx y#
bx x#
bx w#
bx v#
bx u#
bx t#
bx s#
bx r#
b100 q#
bx p#
b100 o#
bx n#
bx m#
bx l#
bx k#
bx j#
bx i#
bx h#
bx g#
bx f#
bx e#
bx d#
bx c#
bx b#
bx a#
bx `#
bx _#
bx ^#
bx ]#
bx \#
bx [#
bx Z#
bx Y#
bx X#
bx W#
xV#
b0 U#
b0 T#
xS#
bx R#
bx Q#
bx P#
bx O#
bx N#
bx M#
bx L#
bx K#
bx J#
bx I#
bx H#
bx G#
bx F#
bx E#
bx D#
bx C#
bx B#
bx A#
bx @#
bx ?#
bx >#
b0 =#
bx <#
bx ;#
bx :#
bx 9#
bx 8#
bx 7#
bx 6#
bx 5#
bx 4#
bx 3#
bx 2#
bx 1#
bx 0#
bx /#
bx .#
bx -#
bx ,#
bx +#
bx *#
bx )#
bx (#
bx '#
bx &#
bx %#
bx $#
bx00 ##
bx "#
bx !#
bx ~"
bx }"
bx |"
bx {"
bx z"
bx y"
bx x"
bx w"
bx v"
bx u"
bx t"
bx s"
bx r"
b0 q"
b0 p"
bx o"
bx n"
bx m"
bx l"
bx k"
bx j"
b0 i"
b0 h"
bx g"
bx f"
bx e"
bx d"
bx c"
bx b"
bx a"
bx `"
bx _"
bx ^"
bx ]"
b0 \"
b0 ["
b0 Z"
b0 Y"
b0 X"
b0 W"
b0 V"
bx U"
bx T"
bx00 S"
bx R"
bx Q"
bx P"
bx O"
bx N"
bx M"
bx L"
xK"
xJ"
b1111 I"
bx H"
b0 G"
bx F"
bx E"
bx D"
bx C"
bx B"
bx A"
bx @"
bx ?"
bx >"
bx ="
bx <"
bx ;"
0:"
x9"
bx 8"
bx 7"
x6"
x5"
x4"
x3"
x2"
x1"
x0"
x/"
x."
x-"
x,"
x+"
x*"
bx )"
bx ("
bx '"
bx &"
bx %"
bx $"
x#"
bx ""
bx !"
bx ~
0}
x|
x{
b0 z
xy
b0 x
bx w
bx v
bx u
xt
xs
xr
bx q
bx00 p
bx o
bx n
xm
xl
xk
xj
xi
xh
xg
xf
bx e
bx d
bx c
bx b
bx a
x`
x_
x^
bx ]
bx \
bx [
bx Z
bx Y
bx X
bx W
bx V
bx U
bx T
bx S
bx R
bx Q
bx P
bx O
bx N
bx M
bx L
xK
xJ
xI
xH
bx G
bx F
bx E
bx00 D
bx C
bx B
b0 A
bx @
bx ?
bx >
bx =
b0 <
bx ;
bx :
x9
x8
x7
x6
bx 5
bx 4
bx 3
bx 2
bx 1
bx 0
0/
0.
bx -
bx ,
0+
0*
x)
b0 (
bx '
x&
bx %
bx $
0#
x"
bx !
$end
#1000
b10111111110000000000000000000000 a
b10111111110000000000000000000000 T"
b10111111110000000000000000000000 u#
b0 D
b0 S"
b0 C
b0 '#
b0 ;
b0 )#
b0 >
b0 (#
b0 G
b0 d"
b0 ,$
b0 8$
b0 <"
b0 x#
b0 ~
b0 {#
b0 !"
b0 z#
b10111111110000000000000000000100 X
b10111111110000000000000000000100 l#
b10111111110000000000000000000100 y#
b0 F
b0 &#
b0 q
b0 w
b0 )"
b0 ~"
b0 %"
b0 "#
b0 N#
b0 }#
b0 O
b0 '$
b0 V
b0 %$
b0 '"
b0 !#
b0 L#
b0 P
b0 &$
b0 W
b0 $$
b0 e
b0 $#
b0 |#
b10110000000000000000000000000000 p
b10110000000000000000000000000000 ##
b10111111110000000000000000000100 ]
b10111111110000000000000000000100 v#
b10111111110000000000000000000100 w#
0f
07
0t
0`
b0 @"
b0 v"
b0 |"
0-"
01"
0#"
b1 R
b1 z"
b1 %#
1:"
b0 8"
b0 w"
b0 }"
0i
0m
1K
b0 x"
b0 {"
b0 y"
0|
09
08
0S#
0y
0{
b0 $
b0 R"
b0 Q"
b0 O"
0J"
0"
0&
b1 M"
b0 U
b0 X#
b0 i#
b0 ?
b0 W#
b0 j#
b0 ""
b0 Z#
b0 g#
b0 b
b0 Y#
b0 h#
1)
02"
b0 A"
b0 j"
b0 e#
b0 !$
b0 D"
b0 k"
b0 d#
b0 ~#
b0 1
b0 Q#
b0 k#
b0 +$
b0 ;"
b0 f#
b0 6$
0*"
0."
0j
0H
b0 c
b0 D#
b0 `#
03"
b0 n
b0 C#
0r
b0 2
b0 G#
b0 P#
b0 c#
b0 !
b0 0
b0 :$
b0 4
b0 F#
b0 B"
b0 n"
b0 A#
b0 ]#
b0 E"
b0 o"
b0 @#
b0 \#
b0 -
b0 ="
b0 m"
b0 B#
b0 ^#
0^
0+"
0/"
0g
0k
0I
06"
b0 u
b0 u"
b0 J#
b10111111110000000000000000000000 [
b10111111110000000000000000000000 U"
b10111111110000000000000000000000 *#
b10111111110000000000000000000000 K#
04"
b10111111110000000000000000000100 Y
b10111111110000000000000000000100 I#
b10111111110000000000000000000100 p#
b10111111110000000000000000000100 t#
b10111111110000000000000000000000 v
b10111111110000000000000000000000 m#
b10111111110000000000000000000000 n#
b0 L
b0 *$
b0 P"
b0 a#
b0 N"
b0 H#
b111 L"
0V#
b0 3
b0 ?#
b0 R#
b0 5$
b0 5
b0 t"
b0 >#
b0 s"
b0 r"
b0 >"
b0 a"
b0 :#
b0 T
b0 [#
b0 7$
b100000 /$
b0 E
b0 c"
b0 4#
05"
b0 :
b0 e"
b0 7#
b0 =
b0 f"
b0 6#
b0 o
b0 0#
b0 ;#
b100 \
b100 g"
b100 s#
b0 Z
b0 2#
b0 r#
b0 d
b0 1#
b0 <#
06
0s
0_
b0 B
b0 b"
b0 5#
b0 &"
b0 .#
b0 M#
b0 ("
b0 -#
b0 2$
b0 $"
b0 /#
b0 O#
b0 1$
b0 ?"
b0 ]"
b0 +#
0,"
00"
b0 Q
b0 3#
b0 0$
b0 7"
b0 l"
b0 ,#
09"
0h
0l
0J
b0 @
b0 E#
b0 b#
b0 '
b0 ,
b0 H"
b0 _#
1+
x"$
x.
1*
#2000
b100000 /$
1"$
0.
1:"
b0 >"
b0 a"
b0 :#
0K"
0*
#3000
0+
1:"
b0 >"
b0 a"
b0 :#
1*
#4000
1:"
b0 >"
b0 a"
b0 :#
0*
#5000
1#
b10111111110000000000000000000000 (
b10111111110000000000000000000000 G"
b10111111110000000000000000000000 9$
bx O"
1&
b1 M"
b1111 '
b1111 ,
b1111 H"
b1111 _#
b1 L"
1:"
b0 >"
b0 a"
b0 :#
1*
#6000
1:"
b0 >"
b0 a"
b0 :#
0*
#7000
b100100000010010000000000000100 O"
b10 M"
bx N"
bx H#
0#
b100100000010010000000000000100 %
b100100000010010000000000000100 S
b100100000010010000000000000100 ;$
1:"
b0 >"
b0 a"
b0 :#
1*
#8000
1:"
b0 >"
b0 a"
b0 :#
0*
#9000
b0 (
b0 G"
b0 9$
0&
b0 M"
b100100000010010000000000000100 N"
b100100000010010000000000000100 H#
b10 L"
1:"
b0 >"
b0 a"
b0 :#
1*
#10000
1:"
b0 >"
b0 a"
b0 :#
0*
#11000
1J"
b1 M"
b0 L"
1:"
b0 >"
b0 a"
b0 :#
1*
#12000
1:"
b0 >"
b0 a"
b0 :#
1K"
0*
#13000
1#
b10000 D
b10000 S"
b10111111110000000000000000001000 X
b10111111110000000000000000001000 l#
b10111111110000000000000000001000 y#
b100 C
b100 '#
b10111111110000000000000000001000 ]
b10111111110000000000000000001000 v#
b10111111110000000000000000001000 w#
b10110000001001000000000000010000 p
b10110000001001000000000000010000 ##
b10010000000000000100 q
b100 w
b1001 %"
b1001 "#
b1001 N#
b1001 }#
b1001 V
b1001 %$
b1001 e
b1001 $#
b1001 |#
1f
b100001 @"
b100001 v"
b100001 |"
b0 R
b0 z"
b0 %#
b1 8"
b1 w"
b1 }"
b100 x"
b1001 {"
b1001 y"
b10111111110000000000000000000100 (
b10111111110000000000000000000100 G"
b10111111110000000000000000000100 9$
0J"
1&
b1 M"
b10111111110000000000000000001000 Y
b10111111110000000000000000001000 I#
b10111111110000000000000000001000 p#
b10111111110000000000000000001000 t#
b10111111110000000000000000000100 v
b10111111110000000000000000000100 m#
b10111111110000000000000000000100 n#
b100100000010010000000000000100 u
b100100000010010000000000000100 u"
b100100000010010000000000000100 J#
b10111111110000000000000000010100 a
b10111111110000000000000000010100 T"
b10111111110000000000000000010100 u#
b10111111110000000000000000000100 [
b10111111110000000000000000000100 U"
b10111111110000000000000000000100 *#
b10111111110000000000000000000100 K#
b1 Q
b1 3#
b1 0$
19"
1J
b10110000000000000000000000000000 o
b10110000000000000000000000000000 0#
b10110000000000000000000000000000 ;#
b10111111110000000000000000000100 \
b10111111110000000000000000000100 g"
b10111111110000000000000000000100 s#
b10111111110000000000000000000000 Z
b10111111110000000000000000000000 2#
b10111111110000000000000000000000 r#
bx B"
bx n"
bx A#
bx ]#
bx E"
bx o"
bx @#
bx \#
b1111 ""
b1111 Z#
b1111 g#
b1 L"
0"$
1.
0:"
b0 >"
b0 a"
b0 :#
1*
#14000
1"$
0.
b0 >"
b0 a"
b0 :#
0K"
0*
#15000
b1001000000000000000010001 O"
b10 M"
0#
b1001000000000000000010001 %
b1001000000000000000010001 S
b1001000000000000000010001 ;$
b0 >"
b0 a"
b0 :#
1*
#16000
b0 >"
b0 a"
b0 :#
0*
#17000
b0 (
b0 G"
b0 9$
0&
b0 M"
b1001000000000000000010001 N"
b1001000000000000000010001 H#
b10 L"
b0 >"
b0 a"
b0 :#
1*
#18000
b0 >"
b0 a"
b0 :#
0*
#19000
1J"
b1 M"
b0 L"
b0 >"
b0 a"
b0 :#
1*
#20000
b0 >"
b0 a"
b0 :#
1K"
0*
