unofficial/preliminary_testing/MIPS_Bus_obj_dir/trace.vcd
$version Generated by VerilatedVcd $end
$date Mon Dec 14 02:46:51 2020
 $end
$timescale   1ns $end

 $scope module TOP $end
  $var wire  1 '. active $end
  $var wire 32 7. address [31:0] $end
  $var wire  4 _. byteenable [3:0] $end
  $var wire  1 u- clk $end
  $var wire  1 G. read $end
  $var wire 32 g. readdata [31:0] $end
  $var wire 32 /. register_v0 [31:0] $end
  $var wire  1 }- reset $end
  $var wire  1 O. waitrequest $end
  $var wire  1 ?. write $end
  $var wire 32 W. writedata [31:0] $end
  $scope module mips_cpu_bus $end
   $var wire 32 5! ALU_HI_output_execute [31:0] $end
   $var wire 32 E- ALU_HI_output_memory [31:0] $end
   $var wire 32 e- ALU_HI_output_writeback [31:0] $end
   $var wire 32 =! ALU_LO_output_execute [31:0] $end
   $var wire 32 M- ALU_LO_output_memory [31:0] $end
   $var wire 32 m- ALU_LO_output_writeback [31:0] $end
   $var wire  6 A# ALU_function_decode [5:0] $end
   $var wire  6 ;( ALU_function_execute [5:0] $end
   $var wire 32 -! ALU_output_execute [31:0] $end
   $var wire 32 /* ALU_output_memory [31:0] $end
   $var wire 32 ?* ALU_output_memory_resolved [31:0] $end
   $var wire 32 1+ ALU_output_writeback [31:0] $end
   $var wire  2 )# ALU_src_B_decode [1:0] $end
   $var wire  2 3( ALU_src_B_execute [1:0] $end
   $var wire  1 y' HALT_decode $end
   $var wire  1 c( HALT_execute $end
   $var wire  1 q' HALT_fetch $end
   $var wire  1 }) HALT_memory $end
   $var wire  1 g* HALT_writeback $end
   $var wire  1 a# HI_register_write_decode $end
   $var wire  1 s, HI_register_write_execute $end
   $var wire  1 5- HI_register_write_memory $end
   $var wire  1 U- HI_register_write_writeback $end
   $var wire  1 i# LO_register_write_decode $end
   $var wire  1 {, LO_register_write_execute $end
   $var wire  1 =- LO_register_write_memory $end
   $var wire  1 ]- LO_register_write_writeback $end
   $var wire  5 #, Rd_decode [4:0] $end
   $var wire  5 5) Rd_execute [4:0] $end
   $var wire  5 q+ Rs_decode [4:0] $end
   $var wire  5 %) Rs_execute [4:0] $end
   $var wire  5 y+ Rt_decode [4:0] $end
   $var wire  5 -) Rt_execute [4:0] $end
   $var wire  1 Y+ STALL $end
   $var wire  1 '. active $end
   $var wire 32 7. address [31:0] $end
   $var wire  1 9# branch_decode $end
   $var wire  4 _. byteenable [3:0] $end
   $var wire  4 k byteenable_memory [3:0] $end
   $var wire  4 w* byteenable_writeback [3:0] $end
   $var wire  1 u- clk $end
   $var wire 32 C$ comparator_1 [31:0] $end
   $var wire 32 K$ comparator_2 [31:0] $end
   $var wire 32 /* data_address [31:0] $end
   $var wire  1 %- data_read $end
   $var wire  1 C, data_read_write $end
   $var wire  1 -- data_write $end
   $var wire  1 ;$ equal_decode $end
   $var wire  1 c$ flush_execute_register $end
   $var wire  1 A+ forward_A_decode $end
   $var wire  3 [ forward_A_execute [2:0] $end
   $var wire  1 I+ forward_B_decode $end
   $var wire  3 c forward_B_execute [2:0] $end
   $var wire 16 +, immediate [15:0] $end
   $var wire 32 a' instr_address [31:0] $end
   $var wire 32 a+ instruction_decode [31:0] $end
   $var wire  1 Q+ internal_clk $end
   $var wire  1 Y# j_instruction_decode $end
   $var wire  1 S( j_instruction_execute $end
   $var wire  1 u) j_instruction_memory $end
   $var wire 26 3, j_offset [25:0] $end
   $var wire 32 9+ j_program_counter_decode [31:0] $end
   $var wire 32 U) j_program_counter_execute [31:0] $end
   $var wire 32 G* j_program_counter_memory [31:0] $end
   $var wire  1 w" memory_to_register_decode $end
   $var wire  1 c, memory_to_register_execute $end
   $var wire  1 %- memory_to_register_memory $end
   $var wire  1 _* memory_to_register_writeback $end
   $var wire  1 !# memory_write_decode $end
   $var wire  1 k, memory_write_execute $end
   $var wire  1 -- memory_write_memory $end
   $var wire  6 i+ op [5:0] $end
   $var wire  6 k( op_execute [5:0] $end
   $var wire  6 '* op_memory [5:0] $end
   $var wire  6 o* op_writeback [5:0] $end
   $var wire 32 + program_counter_branch_decode [31:0] $end
   $var wire  1 I# program_counter_multiplexer_jump_decode $end
   $var wire  1 K( program_counter_multiplexer_jump_execute $end
   $var wire  1 m) program_counter_multiplexer_jump_memory $end
   $var wire 32 3 program_counter_mux_1_out [31:0] $end
   $var wire 32 E) program_counter_plus_eight_execute [31:0] $end
   $var wire 32 #( program_counter_plus_four_decode [31:0] $end
   $var wire 32 M) program_counter_plus_four_execute [31:0] $end
   $var wire 32 i' program_counter_plus_four_fetch [31:0] $end
   $var wire 32 +$ program_counter_prime [31:0] $end
   $var wire  1 3$ program_counter_src_decode $end
   $var wire  1 G. read $end
   $var wire  5 q+ read_address_1 [4:0] $end
   $var wire  5 y+ read_address_2 [4:0] $end
   $var wire 32 ;, read_data_writeback [31:0] $end
   $var wire 32 M! read_data_writeback_filtered [31:0] $end
   $var wire 32 g. readdata [31:0] $end
   $var wire  2 1# register_destination_decode [1:0] $end
   $var wire  2 +( register_destination_execute [1:0] $end
   $var wire 32 _" register_file_output_A_decode [31:0] $end
   $var wire 32 g" register_file_output_B_decode [31:0] $end
   $var wire 32 [, register_file_output_HI_decode [31:0] $end
   $var wire 32 S, register_file_output_LO_decode [31:0] $end
   $var wire 32 /. register_v0 [31:0] $end
   $var wire  1 o" register_write_decode $end
   $var wire  1 C( register_write_execute $end
   $var wire  1 ]) register_write_memory $end
   $var wire  1 W* register_write_writeback $end
   $var wire  1 }- reset $end
   $var wire 32 E! result_writeback [31:0] $end
   $var wire 32 ; shifter_output_decode [31:0] $end
   $var wire 32 C sign_imm_decode [31:0] $end
   $var wire 32 =) sign_imm_execute [31:0] $end
   $var wire 32 s src_A_ALU_execute [31:0] $end
   $var wire 32 O* src_A_ALU_memory [31:0] $end
   $var wire 32 !+ src_A_ALU_writeback [31:0] $end
   $var wire 32 K src_A_decode [31:0] $end
   $var wire 32 s( src_A_execute [31:0] $end
   $var wire 32 { src_B_ALU_execute [31:0] $end
   $var wire 32 S src_B_decode [31:0] $end
   $var wire 32 {( src_B_execute [31:0] $end
   $var wire  1 [$ stall_decode $end
   $var wire  1 S$ stall_fetch $end
   $var wire  1 Q# using_HI_LO_decode $end
   $var wire  1 [( using_HI_LO_execute $end
   $var wire  1 O. waitrequest $end
   $var wire  1 ?. write $end
   $var wire 32 %! write_data_execute [31:0] $end
   $var wire 32 7* write_data_memory [31:0] $end
   $var wire  5 # write_register_execute [4:0] $end
   $var wire  5 e) write_register_memory [4:0] $end
   $var wire  5 )+ write_register_writeback [4:0] $end
   $var wire 32 W. writedata [31:0] $end
   $scope module adder_decode $end
    $var wire 32 ; a [31:0] $end
    $var wire 32 #( b [31:0] $end
    $var wire 32 + z [31:0] $end
   $upscope $end
   $scope module alu $end
    $var wire 64 G" ALU_HI_LO_output [63:0] $end
    $var wire 32 5! ALU_HI_output [31:0] $end
    $var wire 32 =! ALU_LO_output [31:0] $end
    $var wire  6 ;( ALU_operation [5:0] $end
    $var wire 32 -! ALU_output [31:0] $end
    $var wire 64 '" extended_input_1 [63:0] $end
    $var wire 64 7" extended_input_2 [63:0] $end
    $var wire 32 s input_1 [31:0] $end
    $var wire 32 { input_2 [31:0] $end
    $var wire  5 ]! shift_amount [4:0] $end
    $var wire 64 e! sign_extened_input_1 [63:0] $end
    $var wire 64 u! sign_extened_input_2 [63:0] $end
   $upscope $end
   $scope module alu_input_mux $end
    $var wire 32 E- ALU_HI_output_memory [31:0] $end
    $var wire 32 M- ALU_LO_output_memory [31:0] $end
    $var wire 32 /* ALU_output_memory [31:0] $end
    $var wire  2 3( ALU_src_B_execute [1:0] $end
    $var wire 32 e- HI_result_writeback [31:0] $end
    $var wire 32 m- LO_result_writeback [31:0] $end
    $var wire  3 [ forward_one_execute [2:0] $end
    $var wire  3 c forward_two_execute [2:0] $end
    $var wire 32 E) program_counter_plus_eight_execute [31:0] $end
    $var wire 32 s( read_data_1_reg [31:0] $end
    $var wire 32 {( read_data_2_reg [31:0] $end
    $var wire 32 E! result_writeback [31:0] $end
    $var wire 32 =) sign_imm_execute [31:0] $end
    $var wire 32 s src_A_ALU_execute [31:0] $end
    $var wire 32 { src_B_ALU_execute [31:0] $end
    $var wire 32 U! src_mux_input_0 [31:0] $end
    $var wire 32 %! write_data_execute [31:0] $end
   $upscope $end
   $scope module control_unit $end
    $var wire  6 A# ALU_function [5:0] $end
    $var wire  2 )# ALU_src_B [1:0] $end
    $var wire  1 a# HI_register_write $end
    $var wire  1 i# LO_register_write $end
    $var wire  1 9# branch $end
    $var wire  6 #$ funct [5:0] $end
    $var wire 32 a+ instruction [31:0] $end
    $var wire  1 Y# j_instruction $end
    $var wire  1 w" memory_to_register $end
    $var wire  1 !# memory_write $end
    $var wire  6 q# op [5:0] $end
    $var wire  1 I# program_counter_multiplexer_jump $end
    $var wire  2 1# register_destination [1:0] $end
    $var wire  1 o" register_write $end
    $var wire  5 y# rt [4:0] $end
    $var wire  1 Q# using_HI_LO $end
   $upscope $end
   $scope module decode_execute_register $end
    $var wire  6 A# ALU_function_decode [5:0] $end
    $var wire  6 ;( ALU_function_execute [5:0] $end
    $var wire  2 )# ALU_src_B_decode [1:0] $end
    $var wire  2 3( ALU_src_B_execute [1:0] $end
    $var wire  1 y' HALT_decode $end
    $var wire  1 c( HALT_execute $end
    $var wire  1 a# HI_register_write_decode $end
    $var wire  1 s, HI_register_write_execute $end
    $var wire  1 i# LO_register_write_decode $end
    $var wire  1 {, LO_register_write_execute $end
    $var wire  5 #, Rd_decode [4:0] $end
    $var wire  5 5) Rd_execute [4:0] $end
    $var wire  5 q+ Rs_decode [4:0] $end
    $var wire  5 %) Rs_execute [4:0] $end
    $var wire  5 y+ Rt_decode [4:0] $end
    $var wire  5 -) Rt_execute [4:0] $end
    $var wire  1 c$ clear $end
    $var wire  1 Q+ clk $end
    $var wire  1 Y# j_instruction_decode $end
    $var wire  1 S( j_instruction_execute $end
    $var wire 32 9+ j_program_counter_decode [31:0] $end
    $var wire 32 U) j_program_counter_execute [31:0] $end
    $var wire  1 w" memory_to_register_decode $end
    $var wire  1 c, memory_to_register_execute $end
    $var wire  1 !# memory_write_decode $end
    $var wire  1 k, memory_write_execute $end
    $var wire  6 i+ op_decode [5:0] $end
    $var wire  6 k( op_execute [5:0] $end
    $var wire  1 I# program_counter_multiplexer_jump_decode $end
    $var wire  1 K( program_counter_multiplexer_jump_execute $end
    $var wire 32 #( program_counter_plus_four_decode [31:0] $end
    $var wire 32 M) program_counter_plus_four_execute [31:0] $end
    $var wire  2 1# register_destination_decode [1:0] $end
    $var wire  2 +( register_destination_execute [1:0] $end
    $var wire  1 o" register_write_decode $end
    $var wire  1 C( register_write_execute $end
    $var wire  1 }- reset $end
    $var wire 32 C sign_imm_decode [31:0] $end
    $var wire 32 =) sign_imm_execute [31:0] $end
    $var wire 32 K src_A_decode [31:0] $end
    $var wire 32 s( src_A_execute [31:0] $end
    $var wire 32 S src_B_decode [31:0] $end
    $var wire 32 {( src_B_execute [31:0] $end
    $var wire  1 Q# using_HI_LO_decode $end
    $var wire  1 [( using_HI_LO_execute $end
   $upscope $end
   $scope module execute_memory_register $end
    $var wire 32 5! ALU_HI_output_execute [31:0] $end
    $var wire 32 E- ALU_HI_output_memory [31:0] $end
    $var wire 32 =! ALU_LO_output_execute [31:0] $end
    $var wire 32 M- ALU_LO_output_memory [31:0] $end
    $var wire 32 -! ALU_output_execute [31:0] $end
    $var wire 32 /* ALU_output_memory [31:0] $end
    $var wire  1 c( HALT_execute $end
    $var wire  1 }) HALT_memory $end
    $var wire  1 s, HI_register_write_execute $end
    $var wire  1 5- HI_register_write_memory $end
    $var wire  1 {, LO_register_write_execute $end
    $var wire  1 =- LO_register_write_memory $end
    $var wire  1 Q+ clk $end
    $var wire  1 S( j_instruction_execute $end
    $var wire  1 u) j_instruction_memory $end
    $var wire 32 U) j_program_counter_execute [31:0] $end
    $var wire 32 G* j_program_counter_memory [31:0] $end
    $var wire  1 c, memory_to_register_execute $end
    $var wire  1 %- memory_to_register_memory $end
    $var wire  1 k, memory_write_execute $end
    $var wire  1 -- memory_write_memory $end
    $var wire  6 k( op_execute [5:0] $end
    $var wire  6 '* op_memory [5:0] $end
    $var wire  1 K( program_counter_multiplexer_jump_execute $end
    $var wire  1 m) program_counter_multiplexer_jump_memory $end
    $var wire  1 C( register_write_execute $end
    $var wire  1 ]) register_write_memory $end
    $var wire  1 }- reset $end
    $var wire 32 s src_A_ALU_execute [31:0] $end
    $var wire 32 O* src_A_ALU_memory [31:0] $end
    $var wire 32 %! write_data_execute [31:0] $end
    $var wire 32 7* write_data_memory [31:0] $end
    $var wire  5 # write_register_execute [4:0] $end
    $var wire  5 e) write_register_memory [4:0] $end
   $upscope $end
   $scope module fetch_decode_register $end
    $var wire  1 y' HALT_decode $end
    $var wire  1 q' HALT_fetch $end
    $var wire  1 3$ clear $end
    $var wire  1 Q+ clk $end
    $var wire  1 [$ enable $end
    $var wire 32 #( program_counter_plus_four_decode [31:0] $end
    $var wire 32 i' program_counter_plus_four_fetch [31:0] $end
    $var wire  1 }- reset $end
   $upscope $end
   $scope module hazard_unit $end
    $var wire  1 5- HI_register_write_memory $end
    $var wire  1 U- HI_register_write_writeback $end
    $var wire  1 =- LO_register_write_memory $end
    $var wire  1 ]- LO_register_write_writeback $end
    $var wire  5 q+ Rs_decode [4:0] $end
    $var wire  5 %) Rs_execute [4:0] $end
    $var wire  5 y+ Rt_decode [4:0] $end
    $var wire  5 -) Rt_execute [4:0] $end
    $var wire  1 9# branch_decode $end
    $var wire  1 s$ branchstall $end
    $var wire  1 c$ flush_execute_register $end
    $var wire  1 A+ forward_register_file_output_A_decode $end
    $var wire  3 [ forward_register_file_output_A_execute [2:0] $end
    $var wire  1 I+ forward_register_file_output_B_decode $end
    $var wire  3 c forward_register_file_output_B_execute [2:0] $end
    $var wire  1 k$ lwstall $end
    $var wire  1 c, memory_to_register_execute $end
    $var wire  1 %- memory_to_register_memory $end
    $var wire  1 K( program_counter_multiplexer_jump_execute $end
    $var wire  1 C( register_write_execute $end
    $var wire  1 ]) register_write_memory $end
    $var wire  1 W* register_write_writeback $end
    $var wire  1 [$ stall_decode $end
    $var wire  1 S$ stall_fetch $end
    $var wire  1 [( using_HI_LO_execute $end
    $var wire  5 # write_register_execute [4:0] $end
    $var wire  5 e) write_register_memory [4:0] $end
    $var wire  5 )+ write_register_writeback [4:0] $end
   $upscope $end
   $scope module memory_filter $end
    $var wire  4 w* byteenable_writeback [3:0] $end
    $var wire 32 M! filtered_output_writeback [31:0] $end
    $var wire  6 o* op_writeback [5:0] $end
    $var wire 32 ;, read_data_writeback [31:0] $end
    $var wire  1 }- reset $end
    $var wire 32 !+ src_A_writeback [31:0] $end
    $var wire 32 W" temp_filtered [31:0] $end
   $upscope $end
   $scope module memory_writeback_register $end
    $var wire 32 E- ALU_HI_output_memory [31:0] $end
    $var wire 32 e- ALU_HI_output_writeback [31:0] $end
    $var wire 32 M- ALU_LO_output_memory [31:0] $end
    $var wire 32 m- ALU_LO_output_writeback [31:0] $end
    $var wire 32 /* ALU_output_memory [31:0] $end
    $var wire 32 1+ ALU_output_writeback [31:0] $end
    $var wire  1 }) HALT_memory $end
    $var wire  1 g* HALT_writeback $end
    $var wire  1 5- HI_register_write_memory $end
    $var wire  1 U- HI_register_write_writeback $end
    $var wire  1 =- LO_register_write_memory $end
    $var wire  1 ]- LO_register_write_writeback $end
    $var wire  4 k byteenable_memory [3:0] $end
    $var wire  4 w* byteenable_writeback [3:0] $end
    $var wire  1 Q+ clk $end
    $var wire  1 %- memory_to_register_memory $end
    $var wire  1 _* memory_to_register_writeback $end
    $var wire  6 '* op_memory [5:0] $end
    $var wire  6 o* op_writeback [5:0] $end
    $var wire  1 ]) register_write_memory $end
    $var wire  1 W* register_write_writeback $end
    $var wire  1 }- reset $end
    $var wire 32 O* src_A_ALU_memory [31:0] $end
    $var wire 32 !+ src_A_ALU_writeback [31:0] $end
    $var wire  5 e) write_register_memory [4:0] $end
    $var wire  5 )+ write_register_writeback [4:0] $end
   $upscope $end
   $scope module pc $end
    $var wire 32 +$ address_input [31:0] $end
    $var wire 32 a' address_output [31:0] $end
    $var wire  1 Q+ clk $end
    $var wire  1 S$ enable $end
    $var wire  1 q' halt $end
    $var wire  1 }- reset $end
   $upscope $end
   $scope module plus_four_adder $end
    $var wire 32 a' a [31:0] $end
    $var wire 32 w. b [31:0] $end
    $var wire 32 i' z [31:0] $end
   $upscope $end
   $scope module plus_four_adder_execute $end
    $var wire 32 w. a [31:0] $end
    $var wire 32 M) b [31:0] $end
    $var wire 32 E) z [31:0] $end
   $upscope $end
   $scope module program_counter_multiplexer $end
    $var wire 32 !/ BUS_WIDTH [31:0] $end
    $var wire  1 3$ control $end
    $var wire 32 i' input_0 [31:0] $end
    $var wire 32 + input_1 [31:0] $end
    $var wire 32 3 resolved [31:0] $end
   $upscope $end
   $scope module program_counter_multiplexer_two $end
    $var wire 32 !/ BUS_WIDTH [31:0] $end
    $var wire  1 m) control $end
    $var wire 32 3 input_0 [31:0] $end
    $var wire 32 ?* input_1 [31:0] $end
    $var wire 32 +$ resolved [31:0] $end
   $upscope $end
   $scope module reg_output_comparator $end
    $var wire 32 C$ a [31:0] $end
    $var wire 32 K$ b [31:0] $end
    $var wire  1 ;$ c $end
    $var wire  6 i+ op [5:0] $end
    $var wire  5 y+ rt [4:0] $end
   $upscope $end
   $scope module register_file $end
    $var wire 32 [, HI_reg [31:0] $end
    $var wire 32 e- HI_write_data [31:0] $end
    $var wire  1 U- HI_write_enable $end
    $var wire 32 S, LO_reg [31:0] $end
    $var wire 32 m- LO_write_data [31:0] $end
    $var wire  1 ]- LO_write_enable $end
    $var wire  1 Q+ clk $end
    $var wire  1 K, modified_write_clk $end
    $var wire  1 o. pipelined $end
    $var wire  5 q+ read_address_1 [4:0] $end
    $var wire  5 y+ read_address_2 [4:0] $end
    $var wire 32 _" read_data_1 [31:0] $end
    $var wire 32 g" read_data_2 [31:0] $end
    $var wire 32 [, read_data_HI [31:0] $end
    $var wire 32 S, read_data_LO [31:0] $end
    $var wire 32 /. read_register_2 [31:0] $end
    $var wire 32 {$ registers(0) [31:0] $end
    $var wire 32 |$ registers(1) [31:0] $end
    $var wire 32 '% registers(10) [31:0] $end
    $var wire 32 (% registers(11) [31:0] $end
    $var wire 32 )% registers(12) [31:0] $end
    $var wire 32 *% registers(13) [31:0] $end
    $var wire 32 +% registers(14) [31:0] $end
    $var wire 32 ,% registers(15) [31:0] $end
    $var wire 32 -% registers(16) [31:0] $end
    $var wire 32 .% registers(17) [31:0] $end
    $var wire 32 /% registers(18) [31:0] $end
    $var wire 32 0% registers(19) [31:0] $end
    $var wire 32 }$ registers(2) [31:0] $end
    $var wire 32 1% registers(20) [31:0] $end
    $var wire 32 2% registers(21) [31:0] $end
    $var wire 32 3% registers(22) [31:0] $end
    $var wire 32 4% registers(23) [31:0] $end
    $var wire 32 5% registers(24) [31:0] $end
    $var wire 32 6% registers(25) [31:0] $end
    $var wire 32 7% registers(26) [31:0] $end
    $var wire 32 8% registers(27) [31:0] $end
    $var wire 32 9% registers(28) [31:0] $end
    $var wire 32 :% registers(29) [31:0] $end
    $var wire 32 ~$ registers(3) [31:0] $end
    $var wire 32 ;% registers(30) [31:0] $end
    $var wire 32 <% registers(31) [31:0] $end
    $var wire 32 !% registers(4) [31:0] $end
    $var wire 32 "% registers(5) [31:0] $end
    $var wire 32 #% registers(6) [31:0] $end
    $var wire 32 $% registers(7) [31:0] $end
    $var wire 32 %% registers(8) [31:0] $end
    $var wire 32 &% registers(9) [31:0] $end
    $var wire  5 )+ write_address [4:0] $end
    $var wire 32 E! write_data [31:0] $end
    $var wire  1 W* write_enable $end
   $upscope $end
   $scope module write_register_execute_mux $end
    $var wire 32 )/ BUS_WIDTH [31:0] $end
    $var wire  2 +( control [1:0] $end
    $var wire  5 -) input_0 [4:0] $end
    $var wire  5 5) input_1 [4:0] $end
    $var wire  5 1/ input_2 [4:0] $end
    $var wire  5 9/ input_3 [4:0] $end
    $var wire  5 # resolved [4:0] $end
   $upscope $end
   $scope module writeback_mux $end
    $var wire 32 !/ BUS_WIDTH [31:0] $end
    $var wire  1 _* control $end
    $var wire 32 1+ input_0 [31:0] $end
    $var wire 32 M! input_1 [31:0] $end
    $var wire 32 E! resolved [31:0] $end
   $upscope $end
  $upscope $end
 $upscope $end
$enddefinitions $end


#0
b00000 #
b00000000000000000000000000000000 +
b10111111110000000000000000000100 3
b00000000000000000000000000000000 ;
b00000000000000000000000000000000 C
b00000000000000000000000000000000 K
b00000000000000000000000000000000 S
b000 [
b000 c
b1111 k
b00000000000000000000000000000000 s
b00000000000000000000000000000000 {
b00000000000000000000000000000000 %!
b00000000000000000000000000000000 -!
b00000000000000000000000000000000 5!
b00000000000000000000000000000000 =!
b00000000000000000000000000000000 E!
b00000000000000000000000000000000 M!
b00000000000000000000000000000000 U!
b00000 ]!
b0000000000000000000000000000000000000000000000000000000000000000 e!
b0000000000000000000000000000000000000000000000000000000000000000 u!
b0000000000000000000000000000000000000000000000000000000000000000 '"
b0000000000000000000000000000000000000000000000000000000000000000 7"
b0000000000000000000000000000000000000000000000000000000000000000 G"
b00000000000000000000000000000000 W"
b00000000000000000000000000000000 _"
b00000000000000000000000000000000 g"
1o"
0w"
0!#
b00 )#
b01 1#
09#
b000000 A#
0I#
0Q#
0Y#
0a#
0i#
b000000 q#
b00000 y#
b000000 #$
b10111111110000000000000000000100 +$
03$
0;$
b00000000000000000000000000000000 C$
b00000000000000000000000000000000 K$
0S$
0[$
0c$
0k$
0s$
b00000000000000000000000000000000 {$
b00000000000000000000000000000000 |$
b00000000000000000000000000000000 }$
b00000000000000000000000000000000 ~$
b00000000000000000000000000000000 !%
b00000000000000000000000000000000 "%
b00000000000000000000000000000000 #%
b00000000000000000000000000000000 $%
b00000000000000000000000000000000 %%
b00000000000000000000000000000000 &%
b00000000000000000000000000000000 '%
b00000000000000000000000000000000 (%
b00000000000000000000000000000000 )%
b00000000000000000000000000000000 *%
b00000000000000000000000000000000 +%
b00000000000000000000000000000000 ,%
b00000000000000000000000000000000 -%
b00000000000000000000000000000000 .%
b00000000000000000000000000000000 /%
b00000000000000000000000000000000 0%
b00000000000000000000000000000000 1%
b00000000000000000000000000000000 2%
b00000000000000000000000000000000 3%
b00000000000000000000000000000000 4%
b00000000000000000000000000000000 5%
b00000000000000000000000000000000 6%
b00000000000000000000000000000000 7%
b00000000000000000000000000000000 8%
b00000000000000000000000000000000 9%
b00000000000000000000000000000000 :%
b00000000000000000000000000000000 ;%
b00000000000000000000000000000000 <%
b10111111110000000000000000000000 a'
b10111111110000000000000000000100 i'
0q'
0y'
b00000000000000000000000000000000 #(
b00 +(
b00 3(
b000000 ;(
0C(
0K(
0S(
0[(
0c(
b000000 k(
b00000000000000000000000000000000 s(
b00000000000000000000000000000000 {(
b00000 %)
b00000 -)
b00000 5)
b00000000000000000000000000000000 =)
b00000000000000000000000000000100 E)
b00000000000000000000000000000000 M)
b00000000000000000000000000000000 U)
0])
b00000 e)
0m)
0u)
0})
b000000 '*
b00000000000000000000000000000000 /*
b00000000000000000000000000000000 7*
b00000000000000000000000000000000 ?*
b00000000000000000000000000000000 G*
b00000000000000000000000000000000 O*
0W*
0_*
0g*
b000000 o*
b0000 w*
b00000000000000000000000000000000 !+
b00000 )+
b00000000000000000000000000000000 1+
b00000000000000000000000000000000 9+
0A+
0I+
0Q+
1Y+
b00000000000000000000000000000000 a+
b000000 i+
b00000 q+
b00000 y+
b00000 #,
b0000000000000000 +,
b00000000000000000000000000 3,
b00000000000000000000000000000000 ;,
0C,
1K,
b00000000000000000000000000000000 S,
b00000000000000000000000000000000 [,
0c,
0k,
0s,
0{,
0%-
0--
05-
0=-
b00000000000000000000000000000000 E-
b00000000000000000000000000000000 M-
0U-
0]-
b00000000000000000000000000000000 e-
b00000000000000000000000000000000 m-
0u-
1}-
1'.
b00000000000000000000000000000000 /.
b10111111110000000000000000000000 7.
0?.
1G.
0O.
b00000000000000000000000000000000 W.
b1111 _.
b00000000000000000000000000000000 g.
1o.
b00000000000000000000000000000100 w.
b00000000000000000000000000100000 !/
b00000000000000000000000000000101 )/
b11111 1/
b00000 9/
#2
1Q+
0K,
1u-
b00100100000000100000000000000001 g.
#3
0Q+
1K,
0u-
#3
0}-
#4
1u-
#5
b00000000000000000000000000000100 +
b00000000000000000000000000000100 ;
b00000000000000000000000000000001 C
b01 )#
b00 1#
b100001 A#
b001001 q#
b00010 y#
b000001 #$
b00000000000010000000000000000100 9+
0Y+
b00100100000000100000000000000001 a+
b001001 i+
b00010 y+
b0000000000000001 +,
b00000000100000000000000001 3,
0u-
#5
#6
b00010 #
b10111111110000000000000000001000 +
b10111111110000000000000000001000 3
b00000000000000000000000000000001 {
b00000000000000000000000000000001 -!
b0000000000000000000000000000000000000000000000000000000000000001 u!
b0000000000000000000000000000000000000000000000000000000000000001 7"
b10111111110000000000000000001000 +$
b10111111110000000000000000000100 a'
b10111111110000000000000000001000 i'
b10111111110000000000000000000100 #(
b01 3(
b100001 ;(
1C(
b001001 k(
b00010 -)
b00000000000000000000000000000001 =)
b00000000000010000000000000000100 U)
b1111 w*
b10110000000010000000000000000100 9+
1Q+
1Y+
0K,
1u-
b10111111110000000000000000000100 7.
b10101100000000100000000000000011 g.
#7
b10111111110000000000000000010000 +
b00000000000000000000000000001100 ;
b00000000000000000000000000000011 C
0o"
1!#
b101011 q#
b000011 #$
b10110000000010000000000000001100 9+
0Q+
0Y+
b10101100000000100000000000000011 a+
b101011 i+
b0000000000000011 +,
b00000000100000000000000011 3,
1K,
0u-
#7
#8
b10111111110000000000000000010100 +
b10111111110000000000000000001100 3
b010 c
b00000000000000000000000000000011 {
b00000000000000000000000000000001 %!
b00000000000000000000000000000011 -!
b00000000000000000000000000000001 U!
b0000000000000000000000000000000000000000000000000000000000000011 u!
b0000000000000000000000000000000000000000000000000000000000000011 7"
b10111111110000000000000000001100 +$
b00000000000000000000000000000001 K$
b10111111110000000000000000001000 a'
b10111111110000000000000000001100 i'
b10111111110000000000000000001000 #(
0C(
b101011 k(
b00000000000000000000000000000011 =)
b10111111110000000000000000001000 E)
b10111111110000000000000000000100 M)
b10110000000010000000000000001100 U)
1])
b00010 e)
b001001 '*
b00000000000000000000000000000001 /*
b00000000000000000000000000000001 ?*
b00000000000010000000000000000100 G*
1I+
1Q+
1Y+
0K,
1k,
1u-
b10111111110000000000000000001000 7.
b10001100000000100001000000000000 g.
#9
b10111111110000000100000000001000 +
b00000000000000000100000000000000 ;
b00000000000000000001000000000000 C
1o"
1w"
0!#
b100011 q#
b000000 #$
b10110000000010000100000000000000 9+
0Q+
0Y+
b10001100000000100001000000000000 a+
b100011 i+
b00010 #,
b0001000000000000 +,
b00000000100001000000000000 3,
1K,
0u-
#9
#10
b10111111110000000100000000001100 +
b10111111110000000000000000010000 3
b001 c
b00000000000000000001000000000000 {
b00000000000000000001000000000000 -!
b00000000000000000000000000000001 E!
b0000000000000000000000000000000000000000000000000001000000000000 u!
b0000000000000000000000000000000000000000000000000001000000000000 7"
b10111111110000000000000000010000 +$
b00000000000000000000000000000000 K$
1S$
1[$
1c$
1k$
b10111111110000000000000000001100 a'
b10111111110000000000000000010000 i'
b10111111110000000000000000001100 #(
1C(
b100011 k(
b00010 5)
b00000000000000000001000000000000 =)
b10111111110000000000000000001100 E)
b10111111110000000000000000001000 M)
b10110000000010000100000000000000 U)
0])
b101011 '*
b00000000000000000000000000000011 /*
b00000000000000000000000000000001 7*
b00000000000000000000000000000011 ?*
b10110000000010000000000000001100 G*
1W*
b001001 o*
b00010 )+
b00000000000000000000000000000001 1+
0I+
1Q+
1Y+
0K,
1c,
0k,
1--
1u-
b10111111110000000000000000001100 7.
b00000000000000000000000000000001 W.
b00000000000000000000000000001000 g.
#11
b10111111110000000000000000101100 +
b00000000000000000000000000100000 ;
b00000000000000000000000000001000 C
0w"
b00 )#
b01 1#
b001000 A#
1I#
b000000 q#
b00000 y#
b001000 #$
0S$
0[$
0c$
0k$
b10110000000000000000000000100000 9+
b00000000000000000000000000001000 a+
b000000 i+
b00000 y+
b00000 #,
b0000000000001000 +,
b00000000000000000000001000 3,
1C,
0u-
b00000000000000000000000000000000 7.
1?.
0G.
#11
#12
1u-
#13
b00000000000000000000000000001000 M!
b00000000000000000000000000001000 W"
b00000000000000000000000000000001 }$
0Q+
0Y+
b00000000000000000000000000001000 ;,
0C,
1K,
0u-
b00000000000000000000000000000001 /.
b10111111110000000000000000001100 7.
0?.
1G.
#13
#14
b00000 #
b10111111110000000000000000110000 +
b10111111110000000000000000010100 3
b000 c
b00000000000000000000000000000000 {
b00000000000000000000000000000000 %!
b00000000000000000000000000000000 -!
b00000000000000000000000000000011 E!
b00000000000000000000000000000000 U!
b0000000000000000000000000000000000000000000000000000000000000000 u!
b0000000000000000000000000000000000000000000000000000000000000000 7"
b10111111110000000000000000010100 +$
1S$
1[$
b10111111110000000000000000010000 a'
b10111111110000000000000000010100 i'
b10111111110000000000000000010000 #(
b01 +(
b00 3(
b001000 ;(
1K(
b000000 k(
b00000 -)
b00000 5)
b00000000000000000000000000001000 =)
b10111111110000000000000000010000 E)
b10111111110000000000000000001100 M)
b10110000000000000000000000100000 U)
1])
b100011 '*
b00000000000000000001000000000000 /*
b00000000000000000001000000000000 ?*
b10110000000010000100000000000000 G*
0W*
b101011 o*
b00000000000000000000000000000011 1+
1Q+
1Y+
0K,
0c,
1%-
0--
1u-
b10111111110000000000000000010000 7.
b00000000000000000000000000000000 g.
