unofficial/iverilog_testing/programs/output/slt/slt.vcd
$date
	Sat Dec 19 11:07:44 2020
$end
$version
	Icarus Verilog
$end
$timescale
	1s
$end
$scope module mips_cpu_bus_tb_delay1 $end
$var wire 32 ! writedata [31:0] $end
$var wire 1 " write $end
$var wire 1 # waitrequest $end
$var wire 32 $ test [31:0] $end
$var wire 32 % register_v0 [31:0] $end
$var wire 32 & readdata [31:0] $end
$var wire 1 ' read $end
$var wire 4 ( byteenable [3:0] $end
$var wire 32 ) address [31:0] $end
$var wire 1 * active $end
$var reg 1 + clk $end
$var reg 1 , rst $end
$scope module cpuInst $end
$var wire 4 - byteenable [3:0] $end
$var wire 1 + clk $end
$var wire 32 . data_address [31:0] $end
$var wire 1 / internal_clk $end
$var wire 1 0 program_counter_src_decode $end
$var wire 1 , reset $end
$var wire 32 1 writedata [31:0] $end
$var wire 5 2 write_register_writeback [4:0] $end
$var wire 5 3 write_register_memory [4:0] $end
$var wire 5 4 write_register_execute [4:0] $end
$var wire 32 5 write_data_memory [31:0] $end
$var wire 32 6 write_data_execute [31:0] $end
$var wire 1 # waitrequest $end
$var wire 1 7 using_HI_LO_execute $end
$var wire 1 8 using_HI_LO_decode $end
$var wire 1 9 stall_fetch $end
$var wire 1 : stall_decode $end
$var wire 32 ; src_B_execute [31:0] $end
$var wire 32 < src_B_decode [31:0] $end
$var wire 32 = src_B_ALU_execute [31:0] $end
$var wire 32 > src_A_execute [31:0] $end
$var wire 32 ? src_A_decode [31:0] $end
$var wire 32 @ src_A_ALU_writeback [31:0] $end
$var wire 32 A src_A_ALU_memory [31:0] $end
$var wire 32 B src_A_ALU_execute [31:0] $end
$var wire 32 C sign_imm_execute [31:0] $end
$var wire 32 D sign_imm_decode [31:0] $end
$var wire 32 E shifter_output_decode [31:0] $end
$var wire 5 F sa_execute [4:0] $end
$var wire 5 G sa_decode [4:0] $end
$var wire 32 H result_writeback [31:0] $end
$var wire 1 I register_write_writeback $end
$var wire 1 J register_write_memory $end
$var wire 1 K register_write_execute $end
$var wire 1 L register_write_decode $end
$var wire 32 M register_v0_reg_file [31:0] $end
$var wire 32 N register_file_output_LO_decode [31:0] $end
$var wire 32 O register_file_output_HI_decode [31:0] $end
$var wire 32 P register_file_output_B_decode [31:0] $end
$var wire 32 Q register_file_output_A_decode [31:0] $end
$var wire 2 R register_destination_execute [1:0] $end
$var wire 2 S register_destination_decode [1:0] $end
$var wire 32 T readdata [31:0] $end
$var wire 32 U read_data_writeback_filtered [31:0] $end
$var wire 32 V read_data_writeback [31:0] $end
$var wire 5 W read_address_2 [4:0] $end
$var wire 5 X read_address_1 [4:0] $end
$var wire 32 Y program_counter_prime [31:0] $end
$var wire 32 Z program_counter_plus_four_fetch [31:0] $end
$var wire 32 [ program_counter_plus_four_execute [31:0] $end
$var wire 32 \ program_counter_plus_four_decode [31:0] $end
$var wire 32 ] program_counter_plus_eight_execute [31:0] $end
$var wire 32 ^ program_counter_mux_1_out [31:0] $end
$var wire 1 _ program_counter_multiplexer_jump_memory $end
$var wire 1 ` program_counter_multiplexer_jump_execute $end
$var wire 1 a program_counter_multiplexer_jump_decode $end
$var wire 32 b program_counter_branch_decode [31:0] $end
$var wire 6 c op_writeback [5:0] $end
$var wire 6 d op_memory [5:0] $end
$var wire 6 e op_execute [5:0] $end
$var wire 6 f op [5:0] $end
$var wire 1 g no_sign_extend $end
$var wire 1 h memory_write_memory $end
$var wire 1 i memory_write_execute $end
$var wire 1 j memory_write_decode $end
$var wire 1 k memory_to_register_writeback $end
$var wire 1 l memory_to_register_memory $end
$var wire 1 m memory_to_register_execute $end
$var wire 1 n memory_to_register_decode $end
$var wire 32 o j_program_counter_memory [31:0] $end
$var wire 32 p j_program_counter_execute [31:0] $end
$var wire 32 q j_program_counter_decode [31:0] $end
$var wire 26 r j_offset [25:0] $end
$var wire 1 s j_instruction_memory $end
$var wire 1 t j_instruction_execute $end
$var wire 1 u j_instruction_decode $end
$var wire 32 v instruction_decode [31:0] $end
$var wire 32 w instr_address [31:0] $end
$var wire 16 x immediate [15:0] $end
$var wire 3 y forward_B_execute [2:0] $end
$var wire 1 z forward_B_decode $end
$var wire 3 { forward_A_execute [2:0] $end
$var wire 1 | forward_A_decode $end
$var wire 1 } flush_execute_register $end
$var wire 1 ~ equal_decode $end
$var wire 32 !" comparator_2 [31:0] $end
$var wire 32 "" comparator_1 [31:0] $end
$var wire 4 #" byteenable_writeback [3:0] $end
$var wire 1 $" branch_decode $end
$var wire 1 * active $end
$var wire 5 %" Rt_execute [4:0] $end
$var wire 5 &" Rt_decode [4:0] $end
$var wire 5 '" Rs_execute [4:0] $end
$var wire 5 (" Rs_decode [4:0] $end
$var wire 5 )" Rd_execute [4:0] $end
$var wire 5 *" Rd_decode [4:0] $end
$var wire 1 +" LO_register_write_writeback $end
$var wire 1 ," LO_register_write_memory $end
$var wire 1 -" LO_register_write_execute $end
$var wire 1 ." LO_register_write_decode $end
$var wire 1 /" HI_register_write_writeback $end
$var wire 1 0" HI_register_write_memory $end
$var wire 1 1" HI_register_write_execute $end
$var wire 1 2" HI_register_write_decode $end
$var wire 1 3" HALT_writeback $end
$var wire 1 4" HALT_memory $end
$var wire 1 5" HALT_fetch $end
$var wire 1 6" HALT_execute $end
$var wire 1 7" HALT_decode $end
$var wire 2 8" ALU_src_B_execute [1:0] $end
$var wire 2 9" ALU_src_B_decode [1:0] $end
$var wire 1 :" ALU_src_A_execute $end
$var wire 1 ;" ALU_src_A_decode $end
$var wire 32 <" ALU_output_writeback [31:0] $end
$var wire 32 =" ALU_output_memory_resolved [31:0] $end
$var wire 32 >" ALU_output_memory [31:0] $end
$var wire 32 ?" ALU_output_execute [31:0] $end
$var wire 6 @" ALU_function_execute [5:0] $end
$var wire 6 A" ALU_function_decode [5:0] $end
$var wire 32 B" ALU_LO_output_writeback [31:0] $end
$var wire 32 C" ALU_LO_output_memory [31:0] $end
$var wire 32 D" ALU_LO_output_execute [31:0] $end
$var wire 32 E" ALU_HI_output_writeback [31:0] $end
$var wire 32 F" ALU_HI_output_memory [31:0] $end
$var wire 32 G" ALU_HI_output_execute [31:0] $end
$var reg 32 H" address [31:0] $end
$var reg 4 I" byteenable_memory [3:0] $end
$var reg 4 J" byteenable_memory_next [3:0] $end
$var reg 1 K" clk_enable $end
$var reg 1 L" en_out $end
$var reg 3 M" fetch_state [2:0] $end
$var reg 3 N" fetch_state_next [2:0] $end
$var reg 32 O" instruction_fetch [31:0] $end
$var reg 32 P" instruction_fetch_next [31:0] $end
$var reg 1 ' read $end
$var reg 32 Q" read_data_memory [31:0] $end
$var reg 32 R" read_data_memory_next [31:0] $end
$var reg 32 S" register_v0 [31:0] $end
$var reg 1 " write $end
$scope module adder_decode $end
$var wire 32 T" a [31:0] $end
$var wire 32 U" z [31:0] $end
$var wire 32 V" b [31:0] $end
$upscope $end
$scope module alu $end
$var wire 64 W" sign_extened_input_2 [63:0] $end
$var wire 64 X" sign_extened_input_1 [63:0] $end
$var wire 5 Y" shift_amount [4:0] $end
$var wire 32 Z" input_2 [31:0] $end
$var wire 32 [" input_1 [31:0] $end
$var wire 64 \" extended_input_2 [63:0] $end
$var wire 64 ]" extended_input_1 [63:0] $end
$var wire 6 ^" ALU_operation [5:0] $end
$var reg 64 _" ALU_HI_LO_output [63:0] $end
$var reg 32 `" ALU_HI_output [31:0] $end
$var reg 32 a" ALU_LO_output [31:0] $end
$var reg 32 b" ALU_output [31:0] $end
$upscope $end
$scope module alu_input_mux $end
$var wire 32 c" sign_imm_execute [31:0] $end
$var wire 5 d" sa_execute [10:6] $end
$var wire 32 e" result_writeback [31:0] $end
$var wire 32 f" read_data_2_reg [31:0] $end
$var wire 32 g" read_data_1_reg [31:0] $end
$var wire 32 h" program_counter_plus_eight_execute [31:0] $end
$var wire 3 i" forward_two_execute [2:0] $end
$var wire 3 j" forward_one_execute [2:0] $end
$var wire 32 k" LO_result_writeback [31:0] $end
$var wire 32 l" HI_result_writeback [31:0] $end
$var wire 2 m" ALU_src_B_execute [1:0] $end
$var wire 1 :" ALU_src_A_execute $end
$var wire 32 n" ALU_output_memory [31:0] $end
$var wire 32 o" ALU_LO_output_memory [31:0] $end
$var wire 32 p" ALU_HI_output_memory [31:0] $end
$var reg 32 q" src_A_ALU_execute [31:0] $end
$var reg 32 r" src_B_ALU_execute [31:0] $end
$var reg 32 s" src_mux_input_0_A [31:0] $end
$var reg 32 t" src_mux_input_0_B [31:0] $end
$var reg 32 u" write_data_execute [31:0] $end
$upscope $end
$scope module control_unit $end
$var wire 32 v" instruction [31:0] $end
$var reg 6 w" ALU_function [5:0] $end
$var reg 1 ;" ALU_src_A $end
$var reg 2 x" ALU_src_B [1:0] $end
$var reg 1 2" HI_register_write $end
$var reg 1 ." LO_register_write $end
$var reg 1 $" branch $end
$var reg 6 y" funct [5:0] $end
$var reg 1 u j_instruction $end
$var reg 1 n memory_to_register $end
$var reg 1 j memory_write $end
$var reg 1 g no_sign_extend $end
$var reg 6 z" op [5:0] $end
$var reg 1 a program_counter_multiplexer_jump $end
$var reg 2 {" register_destination [1:0] $end
$var reg 1 L register_write $end
$var reg 5 |" rt [4:0] $end
$var reg 1 8 using_HI_LO $end
$upscope $end
$scope module decode_execute_register $end
$var wire 6 }" ALU_function_decode [5:0] $end
$var wire 1 ;" ALU_src_A_decode $end
$var wire 2 ~" ALU_src_B_decode [1:0] $end
$var wire 1 2" HI_register_write_decode $end
$var wire 1 ." LO_register_write_decode $end
$var wire 5 !# Rd_decode [4:0] $end
$var wire 5 "# Rs_decode [4:0] $end
$var wire 5 ## Rt_decode [4:0] $end
$var wire 1 / clk $end
$var wire 1 u j_instruction_decode $end
$var wire 32 $# j_program_counter_decode [31:0] $end
$var wire 1 n memory_to_register_decode $end
$var wire 1 j memory_write_decode $end
$var wire 6 %# op_decode [5:0] $end
$var wire 1 a program_counter_multiplexer_jump_decode $end
$var wire 2 &# register_destination_decode [1:0] $end
$var wire 1 L register_write_decode $end
$var wire 1 , reset $end
$var wire 5 '# sa_decode [4:0] $end
$var wire 32 (# sign_imm_decode [31:0] $end
$var wire 32 )# src_A_decode [31:0] $end
$var wire 32 *# src_B_decode [31:0] $end
$var wire 1 8 using_HI_LO_decode $end
$var wire 32 +# program_counter_plus_four_decode [31:0] $end
$var wire 1 } clear $end
$var wire 1 7" HALT_decode $end
$var reg 6 ,# ALU_function_execute [5:0] $end
$var reg 1 :" ALU_src_A_execute $end
$var reg 2 -# ALU_src_B_execute [1:0] $end
$var reg 1 6" HALT_execute $end
$var reg 1 1" HI_register_write_execute $end
$var reg 1 -" LO_register_write_execute $end
$var reg 5 .# Rd_execute [4:0] $end
$var reg 5 /# Rs_execute [4:0] $end
$var reg 5 0# Rt_execute [4:0] $end
$var reg 1 t j_instruction_execute $end
$var reg 32 1# j_program_counter_execute [31:0] $end
$var reg 1 m memory_to_register_execute $end
$var reg 1 i memory_write_execute $end
$var reg 6 2# op_execute [5:0] $end
$var reg 1 ` program_counter_multiplexer_jump_execute $end
$var reg 32 3# program_counter_plus_four_execute [31:0] $end
$var reg 2 4# register_destination_execute [1:0] $end
$var reg 1 K register_write_execute $end
$var reg 5 5# sa_execute [4:0] $end
$var reg 32 6# sign_imm_execute [31:0] $end
$var reg 32 7# src_A_execute [31:0] $end
$var reg 32 8# src_B_execute [31:0] $end
$var reg 1 7 using_HI_LO_execute $end
$upscope $end
$scope module execute_memory_register $end
$var wire 32 9# ALU_HI_output_execute [31:0] $end
$var wire 32 :# ALU_LO_output_execute [31:0] $end
$var wire 32 ;# ALU_output_execute [31:0] $end
$var wire 1 6" HALT_execute $end
$var wire 1 1" HI_register_write_execute $end
$var wire 1 -" LO_register_write_execute $end
$var wire 1 / clk $end
$var wire 1 t j_instruction_execute $end
$var wire 32 <# j_program_counter_execute [31:0] $end
$var wire 1 m memory_to_register_execute $end
$var wire 1 i memory_write_execute $end
$var wire 6 =# op_execute [5:0] $end
$var wire 1 ` program_counter_multiplexer_jump_execute $end
$var wire 1 K register_write_execute $end
$var wire 1 , reset $end
$var wire 32 ># src_A_ALU_execute [31:0] $end
$var wire 32 ?# write_data_execute [31:0] $end
$var wire 5 @# write_register_execute [4:0] $end
$var reg 32 A# ALU_HI_output_memory [31:0] $end
$var reg 32 B# ALU_LO_output_memory [31:0] $end
$var reg 32 C# ALU_output_memory [31:0] $end
$var reg 1 4" HALT_memory $end
$var reg 1 0" HI_register_write_memory $end
$var reg 1 ," LO_register_write_memory $end
$var reg 1 s j_instruction_memory $end
$var reg 32 D# j_program_counter_memory [31:0] $end
$var reg 1 l memory_to_register_memory $end
$var reg 1 h memory_write_memory $end
$var reg 6 E# op_memory [5:0] $end
$var reg 1 _ program_counter_multiplexer_jump_memory $end
$var reg 1 J register_write_memory $end
$var reg 32 F# src_A_ALU_memory [31:0] $end
$var reg 32 G# write_data_memory [31:0] $end
$var reg 5 H# write_register_memory [4:0] $end
$upscope $end
$scope module fetch_decode_register $end
$var wire 1 / clk $end
$var wire 32 I# instruction_fetch [31:0] $end
$var wire 1 , reset $end
$var wire 32 J# program_counter_plus_four_fetch [31:0] $end
$var wire 1 : enable $end
$var wire 1 5" HALT_fetch $end
$var reg 1 7" HALT_decode $end
$var reg 32 K# instruction_decode [31:0] $end
$var reg 32 L# program_counter_plus_four_decode [31:0] $end
$upscope $end
$scope module hazard_unit $end
$var wire 1 0" HI_register_write_memory $end
$var wire 1 ," LO_register_write_memory $end
$var wire 5 M# Rs_decode [4:0] $end
$var wire 5 N# Rs_execute [4:0] $end
$var wire 5 O# Rt_decode [4:0] $end
$var wire 5 P# Rt_execute [4:0] $end
$var wire 1 $" branch_decode $end
$var wire 1 m memory_to_register_execute $end
$var wire 1 l memory_to_register_memory $end
$var wire 1 ` program_counter_multiplexer_jump_execute $end
$var wire 1 K register_write_execute $end
$var wire 1 J register_write_memory $end
$var wire 1 7 using_HI_LO_execute $end
$var wire 5 Q# write_register_memory [4:0] $end
$var wire 5 R# write_register_writeback [4:0] $end
$var wire 5 S# write_register_execute [4:0] $end
$var wire 1 I register_write_writeback $end
$var wire 1 +" LO_register_write_writeback $end
$var wire 1 /" HI_register_write_writeback $end
$var reg 1 T# branchstall $end
$var reg 1 } flush_execute_register $end
$var reg 1 | forward_register_file_output_A_decode $end
$var reg 3 U# forward_register_file_output_A_execute [2:0] $end
$var reg 1 z forward_register_file_output_B_decode $end
$var reg 3 V# forward_register_file_output_B_execute [2:0] $end
$var reg 1 W# lwstall $end
$var reg 1 : stall_decode $end
$var reg 1 9 stall_fetch $end
$upscope $end
$scope module memory_filter $end
$var wire 1 , reset $end
$var wire 32 X# src_A_writeback [31:0] $end
$var wire 32 Y# read_data_writeback [31:0] $end
$var wire 6 Z# op_writeback [5:0] $end
$var wire 4 [# byteenable_writeback [3:0] $end
$var reg 32 \# filtered_output_writeback [31:0] $end
$upscope $end
$scope module memory_writeback_register $end
$var wire 32 ]# ALU_HI_output_memory [31:0] $end
$var wire 32 ^# ALU_LO_output_memory [31:0] $end
$var wire 32 _# ALU_output_memory [31:0] $end
$var wire 1 4" HALT_memory $end
$var wire 1 0" HI_register_write_memory $end
$var wire 1 ," LO_register_write_memory $end
$var wire 4 `# byteenable_memory [3:0] $end
$var wire 1 / clk $end
$var wire 1 l memory_to_register_memory $end
$var wire 6 a# op_memory [5:0] $end
$var wire 32 b# read_data_memory [31:0] $end
$var wire 1 J register_write_memory $end
$var wire 1 , reset $end
$var wire 32 c# src_A_ALU_memory [31:0] $end
$var wire 5 d# write_register_memory [4:0] $end
$var reg 32 e# ALU_HI_output_writeback [31:0] $end
$var reg 32 f# ALU_LO_output_writeback [31:0] $end
$var reg 32 g# ALU_output_writeback [31:0] $end
$var reg 1 3" HALT_writeback $end
$var reg 1 /" HI_register_write_writeback $end
$var reg 1 +" LO_register_write_writeback $end
$var reg 4 h# byteenable_writeback [3:0] $end
$var reg 1 k memory_to_register_writeback $end
$var reg 6 i# op_writeback [5:0] $end
$var reg 32 j# read_data_writeback [31:0] $end
$var reg 1 I register_write_writeback $end
$var reg 32 k# src_A_ALU_writeback [31:0] $end
$var reg 5 l# write_register_writeback [4:0] $end
$upscope $end
$scope module pc $end
$var wire 1 / clk $end
$var wire 1 9 enable $end
$var wire 1 , reset $end
$var wire 32 m# address_input [31:0] $end
$var reg 32 n# address_output [31:0] $end
$var reg 1 5" halt $end
$upscope $end
$scope module plus_four_adder $end
$var wire 32 o# a [31:0] $end
$var wire 32 p# b [31:0] $end
$var wire 32 q# z [31:0] $end
$upscope $end
$scope module plus_four_adder_execute $end
$var wire 32 r# a [31:0] $end
$var wire 32 s# b [31:0] $end
$var wire 32 t# z [31:0] $end
$upscope $end
$scope module program_counter_multiplexer $end
$var wire 1 0 control $end
$var wire 32 u# input_0 [31:0] $end
$var wire 32 v# input_1 [31:0] $end
$var wire 32 w# resolved [31:0] $end
$upscope $end
$scope module program_counter_multiplexer_two $end
$var wire 1 _ control $end
$var wire 32 x# input_0 [31:0] $end
$var wire 32 y# input_1 [31:0] $end
$var wire 32 z# resolved [31:0] $end
$upscope $end
$scope module reg_output_comparator $end
$var wire 32 {# a [31:0] $end
$var wire 32 |# b [31:0] $end
$var wire 6 }# op [5:0] $end
$var wire 5 ~# rt [4:0] $end
$var reg 1 ~ c $end
$upscope $end
$scope module register_file $end
$var wire 32 !$ HI_write_data [31:0] $end
$var wire 1 /" HI_write_enable $end
$var wire 32 "$ LO_write_data [31:0] $end
$var wire 1 +" LO_write_enable $end
$var wire 1 / clk $end
$var wire 1 #$ modified_write_clk $end
$var wire 1 $$ pipelined $end
$var wire 5 %$ read_address_1 [4:0] $end
$var wire 5 &$ read_address_2 [4:0] $end
$var wire 32 '$ read_data_1 [31:0] $end
$var wire 32 ($ read_data_2 [31:0] $end
$var wire 32 )$ read_data_HI [31:0] $end
$var wire 32 *$ read_data_LO [31:0] $end
$var wire 32 +$ read_register_2 [31:0] $end
$var wire 1 , reset $end
$var wire 5 ,$ write_address [4:0] $end
$var wire 1 I write_enable $end
$var wire 32 -$ write_data [31:0] $end
$var reg 32 .$ HI_reg [31:0] $end
$var reg 32 /$ LO_reg [31:0] $end
$scope begin $ivl_for_loop0 $end
$var integer 32 0$ i [31:0] $end
$upscope $end
$upscope $end
$scope module write_register_execute_mux $end
$var wire 2 1$ control [1:0] $end
$var wire 5 2$ input_0 [4:0] $end
$var wire 5 3$ input_1 [4:0] $end
$var wire 5 4$ input_2 [4:0] $end
$var wire 5 5$ input_3 [4:0] $end
$var reg 5 6$ resolved [4:0] $end
$upscope $end
$scope module writeback_mux $end
$var wire 1 k control $end
$var wire 32 7$ input_0 [31:0] $end
$var wire 32 8$ input_1 [31:0] $end
$var wire 32 9$ resolved [31:0] $end
$upscope $end
$upscope $end
$scope module raminst $end
$var wire 32 :$ address [31:0] $end
$var wire 4 ;$ byteenable [3:0] $end
$var wire 1 + clk $end
$var wire 1 ' read $end
$var wire 1 " write $end
$var wire 32 <$ writedata [31:0] $end
$var reg 8 =$ a [7:0] $end
$var reg 8 >$ b [7:0] $end
$var reg 8 ?$ c [7:0] $end
$var reg 8 @$ d [7:0] $end
$var reg 32 A$ readdata [31:0] $end
$var reg 32 B$ test [31:0] $end
$var reg 1 # waitrequest $end
$var reg 32 C$ writedata_mod [31:0] $end
$scope begin $unm_blk_34 $end
$var integer 32 D$ i [31:0] $end
$var integer 32 E$ j [31:0] $end
$upscope $end
$upscope $end
$upscope $end
$enddefinitions $end
#0
$dumpvars
b100000000000000000000 E$
b11000000000000000000000000000000 D$
bx C$
bx B$
bx A$
bx @$
bx ?$
bx >$
bx =$
bx <$
bx ;$
b0 :$
bx 9$
bx 8$
bx 7$
bx 6$
b0 5$
b11111 4$
bx 3$
bx 2$
bx 1$
b0 0$
bx /$
bx .$
bx -$
bx ,$
bx +$
bx *$
bx )$
bx ($
bx '$
bx &$
bx %$
1$$
1#$
bx "$
bx !$
bx ~#
bx }#
bx |#
bx {#
bx z#
bx y#
bx x#
bx w#
bx v#
bx u#
bx t#
bx s#
b100 r#
bx q#
b100 p#
bx o#
bx n#
bx m#
bx l#
bx k#
bx j#
bx i#
bx h#
bx g#
bx f#
bx e#
bx d#
bx c#
bx b#
bx a#
bx `#
bx _#
bx ^#
bx ]#
bx \#
bx [#
bx Z#
bx Y#
bx X#
xW#
b0 V#
b0 U#
xT#
bx S#
bx R#
bx Q#
bx P#
bx O#
bx N#
bx M#
bx L#
bx K#
bx J#
bx I#
bx H#
bx G#
bx F#
bx E#
bx D#
bx C#
bx B#
bx A#
bx @#
bx ?#
b0 >#
bx =#
bx <#
bx ;#
bx :#
bx 9#
bx 8#
bx 7#
bx 6#
bx 5#
bx 4#
bx 3#
bx 2#
bx 1#
bx 0#
bx /#
bx .#
bx -#
bx ,#
bx +#
bx *#
bx )#
bx (#
bx '#
bx &#
bx %#
bx00 $#
bx ##
bx "#
bx !#
bx ~"
bx }"
bx |"
bx {"
bx z"
bx y"
bx x"
bx w"
bx v"
bx u"
bx t"
bx s"
b0 r"
b0 q"
bx p"
bx o"
bx n"
bx m"
bx l"
bx k"
b0 j"
b0 i"
bx h"
bx g"
bx f"
bx e"
bx d"
bx c"
bx b"
bx a"
bx `"
bx _"
bx ^"
b0 ]"
b0 \"
b0 ["
b0 Z"
b0 Y"
b0 X"
b0 W"
bx V"
bx U"
bx00 T"
bx S"
bx R"
bx Q"
bx P"
bx O"
bx N"
bx M"
xL"
xK"
b1111 J"
bx I"
b0 H"
bx G"
bx F"
bx E"
bx D"
bx C"
bx B"
bx A"
bx @"
bx ?"
bx >"
bx ="
bx <"
0;"
x:"
bx 9"
bx 8"
x7"
x6"
x5"
x4"
x3"
x2"
x1"
x0"
x/"
x."
x-"
x,"
x+"
bx *"
bx )"
bx ("
bx '"
bx &"
bx %"
x$"
bx #"
bx ""
bx !"
0~
x}
x|
b0 {
xz
b0 y
bx x
bx w
bx v
xu
xt
xs
bx r
bx00 q
bx p
bx o
xn
xm
xl
xk
xj
xi
xh
xg
bx f
bx e
bx d
bx c
bx b
xa
x`
x_
bx ^
bx ]
bx \
bx [
bx Z
bx Y
bx X
bx W
bx V
bx U
bx T
bx S
bx R
bx Q
bx P
bx O
bx N
bx M
xL
xK
xJ
xI
bx H
bx G
bx F
bx00 E
bx D
bx C
b0 B
bx A
bx @
bx ?
bx >
b0 =
bx <
bx ;
x:
x9
x8
x7
bx 6
bx 5
bx 4
bx 3
bx 2
bx 1
00
0/
bx .
bx -
0,
0+
x*
b0 )
bx (
x'
bx &
bx %
bx $
0#
x"
bx !
$end
#1
b10111111110000000000000000000000 b
b10111111110000000000000000000000 U"
b10111111110000000000000000000000 v#
b0 E
b0 T"
b0 D
b0 (#
b0 <
b0 *#
b0 ?
b0 )#
b0 H
b0 e"
b0 -$
b0 9$
b0 ="
b0 y#
b0 !"
b0 |#
b0 ""
b0 {#
b10111111110000000000000000000100 Y
b10111111110000000000000000000100 m#
b10111111110000000000000000000100 z#
b0 G
b0 '#
b0 r
b0 x
b0 *"
b0 !#
b0 &"
b0 ##
b0 O#
b0 ~#
b0 P
b0 ($
b0 W
b0 &$
b0 ("
b0 "#
b0 M#
b0 Q
b0 '$
b0 X
b0 %$
b0 f
b0 %#
b0 }#
b10110000000000000000000000000000 q
b10110000000000000000000000000000 $#
b10111111110000000000000000000100 ^
b10111111110000000000000000000100 w#
b10111111110000000000000000000100 x#
0g
08
0u
0a
b0 A"
b0 w"
b0 }"
0."
02"
0$"
b1 S
b1 {"
b1 &#
1;"
b0 9"
b0 x"
b0 ~"
0j
0n
1L
b0 y"
b0 |"
b0 z"
0}
0:
09
0T#
0z
0|
b0 %
b0 S"
b0 R"
b0 P"
0K"
0"
0'
b1 N"
b0 V
b0 Y#
b0 j#
b0 @
b0 X#
b0 k#
b0 #"
b0 [#
b0 h#
b0 c
b0 Z#
b0 i#
1*
03"
b0 B"
b0 k"
b0 f#
b0 "$
b0 E"
b0 l"
b0 e#
b0 !$
b0 2
b0 R#
b0 l#
b0 ,$
b0 <"
b0 g#
b0 7$
0+"
0/"
0k
0I
b0 d
b0 E#
b0 a#
04"
b0 o
b0 D#
0s
b0 3
b0 H#
b0 Q#
b0 d#
b0 !
b0 1
b0 <$
b0 5
b0 G#
b0 C"
b0 o"
b0 B#
b0 ^#
b0 F"
b0 p"
b0 A#
b0 ]#
b0 .
b0 >"
b0 n"
b0 C#
b0 _#
0_
0,"
00"
0h
0l
0J
07"
b0 v
b0 v"
b0 K#
b10111111110000000000000000000000 \
b10111111110000000000000000000000 V"
b10111111110000000000000000000000 +#
b10111111110000000000000000000000 L#
05"
b10111111110000000000000000000100 Z
b10111111110000000000000000000100 J#
b10111111110000000000000000000100 q#
b10111111110000000000000000000100 u#
b10111111110000000000000000000000 w
b10111111110000000000000000000000 n#
b10111111110000000000000000000000 o#
b0 M
b0 +$
b0 Q"
b0 b#
b0 O"
b0 I#
b111 M"
0W#
b0 C$
b0 @$
b0 ?$
b0 >$
b0 =$
b0 4
b0 @#
b0 S#
b0 6$
b0 6
b0 u"
b0 ?#
b0 t"
b0 s"
b0 ?"
b0 b"
b0 ;#
b0 U
b0 \#
b0 8$
b100000 0$
b0 F
b0 d"
b0 5#
06"
b0 ;
b0 f"
b0 8#
b0 >
b0 g"
b0 7#
b0 p
b0 1#
b0 <#
b100 ]
b100 h"
b100 t#
b0 [
b0 3#
b0 s#
b0 e
b0 2#
b0 =#
07
0t
0`
b0 C
b0 c"
b0 6#
b0 '"
b0 /#
b0 N#
b0 )"
b0 .#
b0 3$
b0 %"
b0 0#
b0 P#
b0 2$
b0 @"
b0 ^"
b0 ,#
0-"
01"
b0 R
b0 4#
b0 1$
b0 8"
b0 m"
b0 -#
0:"
0i
0m
0K
b0 A
b0 F#
b0 c#
b0 (
b0 -
b0 ;$
b0 I"
b0 `#
1,
x#$
x/
1+
#2
b100000 0$
1#$
0/
1;"
b0 ?"
b0 b"
b0 ;#
0L"
0+
#3
0,
1;"
b0 ?"
b0 b"
b0 ;#
1+
#4
1;"
b0 ?"
b0 b"
b0 ;#
0+
#5
1#
b10111111110000000000000000000000 )
b10111111110000000000000000000000 H"
b10111111110000000000000000000000 :$
bx P"
1'
b1 N"
b1111 (
b1111 -
b1111 ;$
b1111 I"
b1111 `#
b1 M"
1;"
b0 ?"
b0 b"
b0 ;#
1+
#6
1;"
b0 ?"
b0 b"
b0 ;#
0+
#7
b100100000000100000000000000001 P"
b10 N"
bx O"
bx I#
0#
b100100000000100000000000000001 &
b100100000000100000000000000001 T
b100100000000100000000000000001 A$
1;"
b0 ?"
b0 b"
b0 ;#
1+
#8
1;"
b0 ?"
b0 b"
b0 ;#
0+
#9
b0 )
b0 H"
b0 :$
0'
b0 N"
b100100000000100000000000000001 O"
b100100000000100000000000000001 I#
b10 M"
1;"
b0 ?"
b0 b"
b0 ;#
1+
#10
1;"
b0 ?"
b0 b"
b0 ;#
0+
#11
1K"
b1 N"
b0 M"
1;"
b0 ?"
b0 b"
b0 ;#
1+
#12
1;"
b0 ?"
b0 b"
b0 ;#
1L"
0+
#13
1#
b100 E
b100 T"
b10111111110000000000000000001000 Y
b10111111110000000000000000001000 m#
b10111111110000000000000000001000 z#
b1 D
b1 (#
b10111111110000000000000000001000 ^
b10111111110000000000000000001000 w#
b10111111110000000000000000001000 x#
b10110000000010000000000000000100 q
b10110000000010000000000000000100 $#
b100000000000000001 r
b1 x
b10 &"
b10 ##
b10 O#
b10 ~#
b10 W
b10 &$
b1001 f
b1001 %#
b1001 }#
1g
b100001 A"
b100001 w"
b100001 }"
b0 S
b0 {"
b0 &#
b1 9"
b1 x"
b1 ~"
b1 y"
b10 |"
b1001 z"
b10111111110000000000000000000100 )
b10111111110000000000000000000100 H"
b10111111110000000000000000000100 :$
0K"
1'
b1 N"
b10111111110000000000000000001000 Z
b10111111110000000000000000001000 J#
b10111111110000000000000000001000 q#
b10111111110000000000000000001000 u#
b10111111110000000000000000000100 w
b10111111110000000000000000000100 n#
b10111111110000000000000000000100 o#
b100100000000100000000000000001 v
b100100000000100000000000000001 v"
b100100000000100000000000000001 K#
b10111111110000000000000000001000 b
b10111111110000000000000000001000 U"
b10111111110000000000000000001000 v#
b10111111110000000000000000000100 \
b10111111110000000000000000000100 V"
b10111111110000000000000000000100 +#
b10111111110000000000000000000100 L#
b1 R
b1 4#
b1 1$
1:"
1K
b10110000000000000000000000000000 p
b10110000000000000000000000000000 1#
b10110000000000000000000000000000 <#
b10111111110000000000000000000100 ]
b10111111110000000000000000000100 h"
b10111111110000000000000000000100 t#
b10111111110000000000000000000000 [
b10111111110000000000000000000000 3#
b10111111110000000000000000000000 s#
bx C"
bx o"
bx B#
bx ^#
bx F"
bx p"
bx A#
bx ]#
b1111 #"
b1111 [#
b1111 h#
b1 M"
0#$
1/
0;"
b0 ?"
b0 b"
b0 ;#
1+
#14
1#$
0/
b0 ?"
b0 b"
b0 ;#
0L"
0+
#15
b100001000000101010 P"
b10 N"
0#
b100001000000101010 &
b100001000000101010 T
b100001000000101010 A$
b0 ?"
b0 b"
b0 ;#
1+
#16
b0 ?"
b0 b"
b0 ;#
0+
#17
b0 )
b0 H"
b0 :$
0'
b0 N"
b100001000000101010 O"
b100001000000101010 I#
b10 M"
b0 ?"
b0 b"
b0 ;#
1+
#18
b0 ?"
b0 b"
b0 ;#
0+
#19
1K"
b1 N"
b0 M"
b0 ?"
b0 b"
b0 ;#
1+
#20
b0 ?"
b0 b"
b0 ;#
1L"
0+
