unofficial/preliminary_testing/MIPS_Harvard_obj_dir/trace.vcd
$version Generated by VerilatedVcd $end
$date Sat Dec  5 20:50:40 2020
 $end
$timescale   1ns $end

 $scope module TOP $end
  $var wire  1 9+ active $end
  $var wire  1 )+ clk $end
  $var wire  1 I+ clk_enable $end
  $var wire 32 a+ data_address [31:0] $end
  $var wire  1 q+ data_read $end
  $var wire 32 #, data_readdata [31:0] $end
  $var wire  1 i+ data_write $end
  $var wire 32 y+ data_writedata [31:0] $end
  $var wire 32 Q+ instr_address [31:0] $end
  $var wire 32 Y+ instr_readdata [31:0] $end
  $var wire 32 A+ register_v0 [31:0] $end
  $var wire  1 1+ reset $end
  $scope module mips_cpu $end
   $var wire 32 ]! ALU_HI_output_execute [31:0] $end
   $var wire 32 o& ALU_HI_output_memory [31:0] $end
   $var wire 32 Q' ALU_HI_output_writeback [31:0] $end
   $var wire 32 e! ALU_LO_output_execute [31:0] $end
   $var wire 32 w& ALU_LO_output_memory [31:0] $end
   $var wire 32 Y' ALU_LO_output_writeback [31:0] $end
   $var wire  6 k ALU_function_decode [5:0] $end
   $var wire  6 E% ALU_function_execute [5:0] $end
   $var wire 32 U! ALU_output_execute [31:0] $end
   $var wire 32 g& ALU_output_memory [31:0] $end
   $var wire 32 a' ALU_output_writeback [31:0] $end
   $var wire  1 K ALU_src_B_decode $end
   $var wire  1 =% ALU_src_B_execute $end
   $var wire  1 +, HI_LO_output $end
   $var wire  5 s$ Rd_decode [4:0] $end
   $var wire  5 '& Rd_execute [4:0] $end
   $var wire  5 c$ Rs_decode [4:0] $end
   $var wire  5 u% Rs_execute [4:0] $end
   $var wire  5 k$ Rt_decode [4:0] $end
   $var wire  5 }% Rt_execute [4:0] $end
   $var wire  1 9+ active $end
   $var wire  1 [ branch_decode $end
   $var wire  1 )+ clk $end
   $var wire  1 I+ clk_enable $end
   $var wire 32 a+ data_address [31:0] $end
   $var wire  1 q+ data_read $end
   $var wire 32 #, data_readdata [31:0] $end
   $var wire  1 i+ data_write $end
   $var wire 32 y+ data_writedata [31:0] $end
   $var wire  1 i# equal_decode $end
   $var wire  1 3, flush_decode_execute_register $end
   $var wire  1 '" flush_execute_register $end
   $var wire  1 ;$ flush_fetch_decode_register $end
   $var wire  1 q' forward_A_decode $end
   $var wire  2 /" forward_A_execute [1:0] $end
   $var wire  1 y' forward_B_decode $end
   $var wire  2 7" forward_B_execute [1:0] $end
   $var wire  1 c hi_lo_register_write_decode $end
   $var wire  1 M% hi_lo_register_write_execute $end
   $var wire  1 W& hi_lo_register_write_memory $end
   $var wire  1 1' hi_lo_register_write_writeback $end
   $var wire 16 {$ immediate [15:0] $end
   $var wire 32 Q+ instr_address [31:0] $end
   $var wire 32 Y+ instr_readdata [31:0] $end
   $var wire 32 S$ instruction_decode [31:0] $end
   $var wire 32 Y+ instruction_fetch [31:0] $end
   $var wire  1 # internal_clk $end
   $var wire  1 ; memory_to_register_decode $end
   $var wire  1 -% memory_to_register_execute $end
   $var wire  1 G& memory_to_register_memory $end
   $var wire  1 9' memory_to_register_writeback $end
   $var wire  1 C memory_write_decode $end
   $var wire  1 5% memory_write_execute $end
   $var wire  1 O& memory_write_memory $end
   $var wire 32 { program_counter_branch_decode [31:0] $end
   $var wire 32 C$ program_counter_fetch [31:0] $end
   $var wire  1 s program_counter_multiplexer_jump_decode $end
   $var wire  1 ]% program_counter_multiplexer_jump_execute $end
   $var wire  1 _& program_counter_multiplexer_jump_memory $end
   $var wire  1 A' program_counter_multiplexer_jump_writeback $end
   $var wire 32 a# program_counter_mux_1_out [31:0] $end
   $var wire 32 [$ program_counter_plus_four_decode [31:0] $end
   $var wire 32 K$ program_counter_plus_four_fetch [31:0] $end
   $var wire 32 Y# program_counter_prime [31:0] $end
   $var wire  1 #$ program_counter_source_decode $end
   $var wire  5 c$ read_address_1 [4:0] $end
   $var wire  5 k$ read_address_2 [4:0] $end
   $var wire 32 #, read_data_memory [31:0] $end
   $var wire 32 i' read_data_writeback [31:0] $end
   $var wire  1 S register_destination_decode $end
   $var wire  1 %% register_destination_execute $end
   $var wire 32 +$ register_file_output_A_decode [31:0] $end
   $var wire 32 e% register_file_output_A_execute [31:0] $end
   $var wire 32 q# register_file_output_A_resolved_decode [31:0] $end
   $var wire 32 3$ register_file_output_B_decode [31:0] $end
   $var wire 32 m% register_file_output_B_execute [31:0] $end
   $var wire 32 y# register_file_output_B_resolved_decode [31:0] $end
   $var wire 32 A+ register_v0 [31:0] $end
   $var wire  1 3 register_write_decode $end
   $var wire  1 U% register_write_execute $end
   $var wire  1 7& register_write_memory $end
   $var wire  1 )' register_write_writeback $end
   $var wire  1 1+ reset $end
   $var wire 32 m! result_writeback [31:0] $end
   $var wire 32 %! shifter_output_decode [31:0] $end
   $var wire 32 -! sign_imm_decode [31:0] $end
   $var wire 32 /& sign_imm_execute [31:0] $end
   $var wire 32 =! source_A_ALU_execute [31:0] $end
   $var wire 32 E! source_B_ALU_execute [31:0] $end
   $var wire  1 }! stall_decode $end
   $var wire  1 u! stall_fetch $end
   $var wire 32 M! write_data_execute [31:0] $end
   $var wire 32 !' write_data_memory [31:0] $end
   $var wire  5 5! write_register_execute [4:0] $end
   $var wire  5 ?& write_register_memory [4:0] $end
   $var wire  5 I' write_register_writeback [4:0] $end
   $scope module adder_decode $end
    $var wire 32 %! a [31:0] $end
    $var wire 32 [$ b [31:0] $end
    $var wire 32 { z [31:0] $end
   $upscope $end
   $scope module alu $end
    $var wire 64 9# ALU_HI_LO_output [63:0] $end
    $var wire 32 ]! ALU_HI_output [31:0] $end
    $var wire 32 e! ALU_LO_output [31:0] $end
    $var wire  6 E% ALU_operation [5:0] $end
    $var wire 32 U! ALU_output [31:0] $end
    $var wire 64 w" extended_input_1 [63:0] $end
    $var wire 64 )# extended_input_2 [63:0] $end
    $var wire 32 =! input_1 [31:0] $end
    $var wire 32 E! input_2 [31:0] $end
    $var wire  5 O" shift_amount [4:0] $end
    $var wire 64 W" sign_extened_input_1 [63:0] $end
    $var wire 64 g" sign_extened_input_2 [63:0] $end
   $upscope $end
   $scope module control_unit $end
    $var wire  6 k ALU_function [5:0] $end
    $var wire  1 K ALU_src_B $end
    $var wire  1 [ branch $end
    $var wire  6 G" funct [5:0] $end
    $var wire  1 c hi_lo_register_write $end
    $var wire 32 S$ instruction [31:0] $end
    $var wire  1 ; memory_to_register $end
    $var wire  1 C memory_write $end
    $var wire  6 ?" op [5:0] $end
    $var wire  1 s program_counter_multiplexer_jump $end
    $var wire  1 S register_destination $end
    $var wire  1 3 register_write $end
    $var wire  5 k$ rt [4:0] $end
   $upscope $end
   $scope module decode_execute_register $end
    $var wire  6 k ALU_function_decode [5:0] $end
    $var wire  6 E% ALU_function_execute [5:0] $end
    $var wire  1 K ALU_src_B_decode $end
    $var wire  1 =% ALU_src_B_execute $end
    $var wire  5 s$ Rd_decode [4:0] $end
    $var wire  5 '& Rd_execute [4:0] $end
    $var wire  5 c$ Rs_decode [4:0] $end
    $var wire  5 u% Rs_execute [4:0] $end
    $var wire  5 k$ Rt_decode [4:0] $end
    $var wire  5 }% Rt_execute [4:0] $end
    $var wire  1 '" clear $end
    $var wire  1 # clk $end
    $var wire  1 c hi_lo_register_write_decode $end
    $var wire  1 M% hi_lo_register_write_execute $end
    $var wire  1 ; memory_to_register_decode $end
    $var wire  1 -% memory_to_register_execute $end
    $var wire  1 C memory_write_decode $end
    $var wire  1 5% memory_write_execute $end
    $var wire  1 s program_counter_multiplexer_jump_decode $end
    $var wire  1 ]% program_counter_multiplexer_jump_execute $end
    $var wire 32 +$ read_data_one_decode [31:0] $end
    $var wire 32 e% read_data_one_execute [31:0] $end
    $var wire 32 3$ read_data_two_decode [31:0] $end
    $var wire 32 m% read_data_two_execute [31:0] $end
    $var wire  1 S register_destination_decode $end
    $var wire  1 %% register_destination_execute $end
    $var wire  1 3 register_write_decode $end
    $var wire  1 U% register_write_execute $end
    $var wire 32 -! sign_imm_decode [31:0] $end
    $var wire 32 /& sign_imm_execute [31:0] $end
   $upscope $end
   $scope module execute_memory_register $end
    $var wire 32 ]! ALU_HI_output_execute [31:0] $end
    $var wire 32 o& ALU_HI_output_memory [31:0] $end
    $var wire 32 e! ALU_LO_output_execute [31:0] $end
    $var wire 32 w& ALU_LO_output_memory [31:0] $end
    $var wire 32 U! ALU_output_execute [31:0] $end
    $var wire 32 g& ALU_output_memory [31:0] $end
    $var wire  1 # clk $end
    $var wire  1 M% hi_lo_register_write_execute $end
    $var wire  1 W& hi_lo_register_write_memory $end
    $var wire  1 -% memory_to_register_execute $end
    $var wire  1 G& memory_to_register_memory $end
    $var wire  1 5% memory_write_execute $end
    $var wire  1 O& memory_write_memory $end
    $var wire  1 ]% program_counter_multiplexer_jump_execute $end
    $var wire  1 _& program_counter_multiplexer_jump_memory $end
    $var wire  1 U% register_write_execute $end
    $var wire  1 7& register_write_memory $end
    $var wire 32 M! write_data_execute [31:0] $end
    $var wire 32 !' write_data_memory [31:0] $end
    $var wire  5 5! write_register_execute [4:0] $end
    $var wire  5 ?& write_register_memory [4:0] $end
   $upscope $end
   $scope module fetch_decode_register $end
    $var wire  1 ;$ clear $end
    $var wire  1 # clk $end
    $var wire  1 }! enable $end
    $var wire 32 S$ instruction_decode [31:0] $end
    $var wire 32 Y+ instruction_fetch [31:0] $end
    $var wire 32 [$ program_counter_plus_four_decode [31:0] $end
    $var wire 32 K$ program_counter_plus_four_fetch [31:0] $end
   $upscope $end
   $scope module hazard_unit $end
    $var wire  5 c$ Rs_decode [4:0] $end
    $var wire  5 u% Rs_execute [4:0] $end
    $var wire  5 k$ Rt_decode [4:0] $end
    $var wire  5 }% Rt_execute [4:0] $end
    $var wire  1 [ branch_decode $end
    $var wire  1 Q# branchstall $end
    $var wire  1 '" flush_execute_register $end
    $var wire  1 q' forward_register_file_output_1_decode $end
    $var wire  2 /" forward_register_file_output_1_execute [1:0] $end
    $var wire  1 y' forward_register_file_output_2_decode $end
    $var wire  2 7" forward_register_file_output_2_execute [1:0] $end
    $var wire  1 I# lwstall $end
    $var wire  1 -% memory_to_register_execute $end
    $var wire  1 G& memory_to_register_memory $end
    $var wire  1 A' program_counter_multiplexer_jump_writeback $end
    $var wire  1 U% register_write_execute $end
    $var wire  1 7& register_write_memory $end
    $var wire  1 )' register_write_writeback $end
    $var wire  1 }! stall_decode $end
    $var wire  1 u! stall_fetch $end
    $var wire  5 5! write_register_execute [4:0] $end
    $var wire  5 ?& write_register_memory [4:0] $end
    $var wire  5 I' write_register_writeback [4:0] $end
   $upscope $end
   $scope module memory_writeback_register $end
    $var wire 32 o& ALU_HI_output_memory [31:0] $end
    $var wire 32 Q' ALU_HI_output_writeback [31:0] $end
    $var wire 32 w& ALU_LO_output_memory [31:0] $end
    $var wire 32 Y' ALU_LO_output_writeback [31:0] $end
    $var wire 32 g& ALU_output_memory [31:0] $end
    $var wire 32 a' ALU_output_writeback [31:0] $end
    $var wire  1 # clk $end
    $var wire  1 W& hi_lo_register_write_memory $end
    $var wire  1 1' hi_lo_register_write_writeback $end
    $var wire  1 G& memory_to_register_memory $end
    $var wire  1 9' memory_to_register_writeback $end
    $var wire  1 _& program_counter_multiplexer_jump_memory $end
    $var wire  1 A' program_counter_multiplexer_jump_writeback $end
    $var wire 32 #, read_data_memory [31:0] $end
    $var wire 32 i' read_data_writeback [31:0] $end
    $var wire  1 7& register_write_memory $end
    $var wire  1 )' register_write_writeback $end
    $var wire  5 ?& write_register_memory [4:0] $end
    $var wire  5 I' write_register_writeback [4:0] $end
   $upscope $end
   $scope module or_gate $end
    $var wire  1 A' input_A $end
    $var wire  1 #$ input_B $end
    $var wire  1 ;$ output_C $end
   $upscope $end
   $scope module pc $end
    $var wire 32 Y# address_input [31:0] $end
    $var wire 32 C$ address_output [31:0] $end
    $var wire  1 # clk $end
    $var wire  1 u! enable $end
   $upscope $end
   $scope module plus_four_adder $end
    $var wire 32 C$ a [31:0] $end
    $var wire 32 C, b [31:0] $end
    $var wire 32 K$ z [31:0] $end
   $upscope $end
   $scope module program_counter_multiplexer $end
    $var wire 32 K, BUS_WIDTH [31:0] $end
    $var wire  1 #$ control $end
    $var wire 32 K$ input_0 [31:0] $end
    $var wire 32 { input_1 [31:0] $end
    $var wire 32 a# resolved [31:0] $end
   $upscope $end
   $scope module program_counter_multiplexer_two $end
    $var wire 32 K, BUS_WIDTH [31:0] $end
    $var wire  1 A' control $end
    $var wire 32 a# input_0 [31:0] $end
    $var wire 32 m! input_1 [31:0] $end
    $var wire 32 Y# resolved [31:0] $end
   $upscope $end
   $scope module program_counter_source_and_gate_decode $end
    $var wire  1 [ input_A $end
    $var wire  1 i# input_B $end
    $var wire  1 #$ output_C $end
   $upscope $end
   $scope module reg_output_comparator $end
    $var wire 32 q# a [31:0] $end
    $var wire 32 y# b [31:0] $end
    $var wire  1 i# c $end
   $upscope $end
   $scope module register_file $end
    $var wire  1 +, HI_LO_output $end
    $var wire 32 w* HI_reg [31:0] $end
    $var wire 32 Q' HI_write_data [31:0] $end
    $var wire 32 !+ LO_reg [31:0] $end
    $var wire 32 Y' LO_write_data [31:0] $end
    $var wire  1 # clk $end
    $var wire  1 1' hi_lo_register_write_enable $end
    $var wire  1 + modified_write_clk $end
    $var wire  1 ;, pipelined $end
    $var wire  5 c$ read_address_1 [4:0] $end
    $var wire  5 k$ read_address_2 [4:0] $end
    $var wire 32 +$ read_data_1 [31:0] $end
    $var wire 32 #( read_data_1_pre_mux [31:0] $end
    $var wire 32 3$ read_data_2 [31:0] $end
    $var wire 32 +( read_data_2_pre_mux [31:0] $end
    $var wire 32 3( registers(0) [31:0] $end
    $var wire 32 4( registers(1) [31:0] $end
    $var wire 32 =( registers(10) [31:0] $end
    $var wire 32 >( registers(11) [31:0] $end
    $var wire 32 ?( registers(12) [31:0] $end
    $var wire 32 @( registers(13) [31:0] $end
    $var wire 32 A( registers(14) [31:0] $end
    $var wire 32 B( registers(15) [31:0] $end
    $var wire 32 C( registers(16) [31:0] $end
    $var wire 32 D( registers(17) [31:0] $end
    $var wire 32 E( registers(18) [31:0] $end
    $var wire 32 F( registers(19) [31:0] $end
    $var wire 32 5( registers(2) [31:0] $end
    $var wire 32 G( registers(20) [31:0] $end
    $var wire 32 H( registers(21) [31:0] $end
    $var wire 32 I( registers(22) [31:0] $end
    $var wire 32 J( registers(23) [31:0] $end
    $var wire 32 K( registers(24) [31:0] $end
    $var wire 32 L( registers(25) [31:0] $end
    $var wire 32 M( registers(26) [31:0] $end
    $var wire 32 N( registers(27) [31:0] $end
    $var wire 32 O( registers(28) [31:0] $end
    $var wire 32 P( registers(29) [31:0] $end
    $var wire 32 6( registers(3) [31:0] $end
    $var wire 32 Q( registers(30) [31:0] $end
    $var wire 32 R( registers(31) [31:0] $end
    $var wire 32 7( registers(4) [31:0] $end
    $var wire 32 8( registers(5) [31:0] $end
    $var wire 32 9( registers(6) [31:0] $end
    $var wire 32 :( registers(7) [31:0] $end
    $var wire 32 ;( registers(8) [31:0] $end
    $var wire 32 <( registers(9) [31:0] $end
    $var wire  5 I' write_address [4:0] $end
    $var wire 32 m! write_data [31:0] $end
    $var wire  1 )' write_enable $end
   $upscope $end
   $scope module register_file_output_A_execute_mux $end
    $var wire 32 K, BUS_WIDTH [31:0] $end
    $var wire  2 /" control [1:0] $end
    $var wire 32 e% input_0 [31:0] $end
    $var wire 32 m! input_1 [31:0] $end
    $var wire 32 g& input_2 [31:0] $end
    $var wire 32 Y' input_3 [31:0] $end
    $var wire 32 =! resolved [31:0] $end
   $upscope $end
   $scope module register_file_output_A_mux $end
    $var wire 32 K, BUS_WIDTH [31:0] $end
    $var wire  1 q' control $end
    $var wire 32 +$ input_0 [31:0] $end
    $var wire 32 g& input_1 [31:0] $end
    $var wire 32 q# resolved [31:0] $end
   $upscope $end
   $scope module register_file_output_B_execute_mux $end
    $var wire 32 K, BUS_WIDTH [31:0] $end
    $var wire  2 7" control [1:0] $end
    $var wire 32 m% input_0 [31:0] $end
    $var wire 32 m! input_1 [31:0] $end
    $var wire 32 g& input_2 [31:0] $end
    $var wire 32 Q' input_3 [31:0] $end
    $var wire 32 M! resolved [31:0] $end
   $upscope $end
   $scope module register_file_output_B_mux $end
    $var wire 32 K, BUS_WIDTH [31:0] $end
    $var wire  1 y' control $end
    $var wire 32 3$ input_0 [31:0] $end
    $var wire 32 g& input_1 [31:0] $end
    $var wire 32 y# resolved [31:0] $end
   $upscope $end
   $scope module shifter_decode $end
    $var wire 32 S, shift_distance [31:0] $end
    $var wire 32 -! shift_input [31:0] $end
    $var wire 32 %! shift_output [31:0] $end
   $upscope $end
   $scope module sign_extender_decode $end
    $var wire 32 -! extended_output [31:0] $end
    $var wire 16 {$ short_input [15:0] $end
   $upscope $end
   $scope module source_B_ALU_mux $end
    $var wire 32 K, BUS_WIDTH [31:0] $end
    $var wire  1 =% control $end
    $var wire 32 M! input_0 [31:0] $end
    $var wire 32 /& input_1 [31:0] $end
    $var wire 32 E! resolved [31:0] $end
   $upscope $end
   $scope module write_register_execute_mux $end
    $var wire 32 [, BUS_WIDTH [31:0] $end
    $var wire  1 %% control $end
    $var wire  5 }% input_0 [4:0] $end
    $var wire  5 '& input_1 [4:0] $end
    $var wire  5 5! resolved [4:0] $end
   $upscope $end
   $scope module writeback_mux $end
    $var wire 32 K, BUS_WIDTH [31:0] $end
    $var wire  1 9' control $end
    $var wire 32 a' input_0 [31:0] $end
    $var wire 32 i' input_1 [31:0] $end
    $var wire 32 m! resolved [31:0] $end
   $upscope $end
  $upscope $end
 $upscope $end
$enddefinitions $end


#0
0#
1+
13
0;
0C
0K
1S
0[
0c
b000000 k
0s
b00000000000000000000000000000000 {
b00000000000000000000000000000000 %!
b00000000000000000000000000000000 -!
b00000 5!
b00000000000000000000000000000000 =!
b00000000000000000000000000000000 E!
b00000000000000000000000000000000 M!
b00000000000000000000000000000000 U!
b00000000000000000000000000000000 ]!
b00000000000000000000000000000000 e!
b00000000000000000000000000000000 m!
0u!
0}!
0'"
b00 /"
b00 7"
b000000 ?"
b000000 G"
b00000 O"
b0000000000000000000000000000000000000000000000000000000000000000 W"
b0000000000000000000000000000000000000000000000000000000000000000 g"
b0000000000000000000000000000000000000000000000000000000000000000 w"
b0000000000000000000000000000000000000000000000000000000000000000 )#
b0000000000000000000000000000000000000000000000000000000000000000 9#
0I#
0Q#
b00000000000000000000000000000100 Y#
b00000000000000000000000000000100 a#
1i#
b00000000000000000000000000000000 q#
b00000000000000000000000000000000 y#
0#$
b00000000000000000000000000000000 +$
b00000000000000000000000000000000 3$
0;$
b00000000000000000000000000000000 C$
b00000000000000000000000000000100 K$
b00000000000000000000000000000000 S$
b00000000000000000000000000000000 [$
b00000 c$
b00000 k$
b00000 s$
b0000000000000000 {$
0%%
0-%
05%
0=%
b000000 E%
0M%
0U%
0]%
b00000000000000000000000000000000 e%
b00000000000000000000000000000000 m%
b00000 u%
b00000 }%
b00000 '&
b00000000000000000000000000000000 /&
07&
b00000 ?&
0G&
0O&
0W&
0_&
b00000000000000000000000000000000 g&
b00000000000000000000000000000000 o&
b00000000000000000000000000000000 w&
b00000000000000000000000000000000 !'
0)'
01'
09'
0A'
b00000 I'
b00000000000000000000000000000000 Q'
b00000000000000000000000000000000 Y'
b00000000000000000000000000000000 a'
b00000000000000000000000000000000 i'
0q'
0y'
b00000000000000000000000000000000 #(
b00000000000000000000000000000000 +(
b00000000000000000000000000000000 3(
b00000000000000000000000000000000 4(
b00000000000000000000000000000000 5(
b00000000000000000000000000000000 6(
b00000000000000000000000000000000 7(
b00000000000000000000000000000000 8(
b00000000000000000000000000000000 9(
b00000000000000000000000000000000 :(
b00000000000000000000000000000000 ;(
b00000000000000000000000000000000 <(
b00000000000000000000000000000000 =(
b00000000000000000000000000000000 >(
b00000000000000000000000000000000 ?(
b00000000000000000000000000000000 @(
b00000000000000000000000000000000 A(
b00000000000000000000000000000000 B(
b00000000000000000000000000000000 C(
b00000000000000000000000000000000 D(
b00000000000000000000000000000000 E(
b00000000000000000000000000000000 F(
b00000000000000000000000000000000 G(
b00000000000000000000000000000000 H(
b00000000000000000000000000000000 I(
b00000000000000000000000000000000 J(
b00000000000000000000000000000000 K(
b00000000000000000000000000000000 L(
b00000000000000000000000000000000 M(
b00000000000000000000000000000000 N(
b00000000000000000000000000000000 O(
b00000000000000000000000000000000 P(
b00000000000000000000000000000000 Q(
b00000000000000000000000000000000 R(
b00000000000000000000000000000000 w*
b00000000000000000000000000000000 !+
0)+
01+
09+
b00000000000000000000000000000000 A+
1I+
b00000000000000000000000000000000 Q+
b00000000000000000000000000000000 Y+
b00000000000000000000000000000000 a+
0i+
1q+
b00000000000000000000000000000000 y+
b00000000000000000000000000000000 #,
0+,
03,
1;,
b00000000000000000000000000000100 C,
b00000000000000000000000000100000 K,
b00000000000000000000000000000010 S,
b00000000000000000000000000000101 [,
#2
1#
0+
b00000000000000000000000000000100 {
b00000000000000000000000000001000 Y#
b00000000000000000000000000001000 a#
b00000000000000000000000000000100 C$
b00000000000000000000000000001000 K$
b00000000000000000000000000000100 [$
1%%
1U%
1)+
b00000000000000000000000000000100 Q+
#3
0#
1+
0)+
#3
b00000000000000000000000000001000 Y+
#4
1#
0+
b001000 k
1s
b00000000000000000000000000101000 {
b00000000000000000000000000100000 %!
b00000000000000000000000000001000 -!
b001000 G"
b00000000000000000000000000001100 Y#
b00000000000000000000000000001100 a#
b00000000000000000000000000001000 C$
b00000000000000000000000000001100 K$
b00000000000000000000000000001000 S$
b00000000000000000000000000001000 [$
b0000000000001000 {$
17&
1)+
b00000000000000000000000000001000 Q+
#5
0#
1+
0)+
#5
#6
1#
0+
b00000000000000000000000000101100 {
b00000000000000000000000000010000 Y#
b00000000000000000000000000010000 a#
b00000000000000000000000000001100 C$
b00000000000000000000000000010000 K$
b00000000000000000000000000001100 [$
b001000 E%
1]%
b00000000000000000000000000001000 /&
1)'
1)+
b00000000000000000000000000001100 Q+
#7
0#
1+
0)+
#7
#8
1#
0+
b00000000000000000000000000110000 {
b00000000000000000000000000010100 Y#
b00000000000000000000000000010100 a#
b00000000000000000000000000010000 C$
b00000000000000000000000000010100 K$
b00000000000000000000000000010000 [$
1_&
1)+
b00000000000000000000000000010000 Q+
#9
0#
1+
0)+
#9
#10
1#
0+
b00000000000000000000000000110100 {
1'"
b00000000000000000000000000000000 Y#
b00000000000000000000000000011000 a#
1;$
b00000000000000000000000000010100 C$
b00000000000000000000000000011000 K$
b00000000000000000000000000010100 [$
1A'
1)+
b00000000000000000000000000010100 Q+
#11
0#
1+
0)+
#11
#12
1#
0+
b000000 k
0s
b00000000000000000000000000000000 {
b00000000000000000000000000000000 %!
b00000000000000000000000000000000 -!
b000000 G"
b00000000000000000000000000000100 a#
b00000000000000000000000000000000 C$
b00000000000000000000000000000100 K$
b00000000000000000000000000000000 S$
b00000000000000000000000000000000 [$
b0000000000000000 {$
0%%
b000000 E%
0U%
0]%
b00000000000000000000000000000000 /&
1)+
b00000000000000000000000000000000 Q+
#13
0#
1+
0)+
#13
#14
1#
0+
07&
0_&
1)+
#15
0#
1+
0)+
#15
#16
1#
0+
0'"
b00000000000000000000000000000100 Y#
0;$
0)'
0A'
1)+
#17
0#
1+
0)+
#17
#18
1#
0+
b001000 k
1s
b00000000000000000000000000100100 {
b00000000000000000000000000100000 %!
b00000000000000000000000000001000 -!
b001000 G"
b00000000000000000000000000001000 Y#
b00000000000000000000000000001000 a#
b00000000000000000000000000000100 C$
b00000000000000000000000000001000 K$
b00000000000000000000000000001000 S$
b00000000000000000000000000000100 [$
b0000000000001000 {$
1%%
1U%
1)+
b00000000000000000000000000000100 Q+
#19
0#
1+
0)+
#19
#20
1#
0+
b00000000000000000000000000101000 {
b00000000000000000000000000001100 Y#
b00000000000000000000000000001100 a#
b00000000000000000000000000001000 C$
b00000000000000000000000000001100 K$
b00000000000000000000000000001000 [$
b001000 E%
1]%
b00000000000000000000000000001000 /&
17&
1)+
b00000000000000000000000000001000 Q+
#21
0#
1+
0)+
#21
#22
1#
0+
b00000000000000000000000000101100 {
b00000000000000000000000000010000 Y#
b00000000000000000000000000010000 a#
b00000000000000000000000000001100 C$
b00000000000000000000000000010000 K$
b00000000000000000000000000001100 [$
1_&
1)'
1)+
b00000000000000000000000000001100 Q+
#23
0#
1+
0)+
#23
#24
1#
0+
b00000000000000000000000000110000 {
1'"
b00000000000000000000000000000000 Y#
b00000000000000000000000000010100 a#
1;$
b00000000000000000000000000010000 C$
b00000000000000000000000000010100 K$
b00000000000000000000000000010000 [$
1A'
1)+
b00000000000000000000000000010000 Q+
#25
0#
1+
0)+
#25
#26
1#
0+
b000000 k
0s
b00000000000000000000000000000000 {
b00000000000000000000000000000000 %!
b00000000000000000000000000000000 -!
b000000 G"
b00000000000000000000000000000100 a#
b00000000000000000000000000000000 C$
b00000000000000000000000000000100 K$
b00000000000000000000000000000000 S$
b00000000000000000000000000000000 [$
b0000000000000000 {$
0%%
b000000 E%
0U%
0]%
b00000000000000000000000000000000 /&
1)+
b00000000000000000000000000000000 Q+
#27
0#
1+
0)+
#27
#28
1#
0+
07&
0_&
1)+
#29
0#
1+
0)+
#29
#30
1#
0+
0'"
b00000000000000000000000000000100 Y#
0;$
0)'
0A'
1)+
#31
0#
1+
0)+
#31
#32
1#
0+
b001000 k
1s
b00000000000000000000000000100100 {
b00000000000000000000000000100000 %!
b00000000000000000000000000001000 -!
b001000 G"
b00000000000000000000000000001000 Y#
b00000000000000000000000000001000 a#
b00000000000000000000000000000100 C$
b00000000000000000000000000001000 K$
b00000000000000000000000000001000 S$
b00000000000000000000000000000100 [$
b0000000000001000 {$
1%%
1U%
1)+
b00000000000000000000000000000100 Q+
#33
0#
1+
0)+
#33
#34
1#
0+
b00000000000000000000000000101000 {
b00000000000000000000000000001100 Y#
b00000000000000000000000000001100 a#
b00000000000000000000000000001000 C$
b00000000000000000000000000001100 K$
b00000000000000000000000000001000 [$
b001000 E%
1]%
b00000000000000000000000000001000 /&
17&
1)+
b00000000000000000000000000001000 Q+
#35
0#
1+
0)+
#35
#36
1#
0+
b00000000000000000000000000101100 {
b00000000000000000000000000010000 Y#
b00000000000000000000000000010000 a#
b00000000000000000000000000001100 C$
b00000000000000000000000000010000 K$
b00000000000000000000000000001100 [$
1_&
1)'
1)+
b00000000000000000000000000001100 Q+
#37
0#
1+
0)+
#37
#38
1#
0+
b00000000000000000000000000110000 {
1'"
b00000000000000000000000000000000 Y#
b00000000000000000000000000010100 a#
1;$
b00000000000000000000000000010000 C$
b00000000000000000000000000010100 K$
b00000000000000000000000000010000 [$
1A'
1)+
b00000000000000000000000000010000 Q+
#39
0#
1+
0)+
#39
#40
1#
0+
b000000 k
0s
b00000000000000000000000000000000 {
b00000000000000000000000000000000 %!
b00000000000000000000000000000000 -!
b000000 G"
b00000000000000000000000000000100 a#
b00000000000000000000000000000000 C$
b00000000000000000000000000000100 K$
b00000000000000000000000000000000 S$
b00000000000000000000000000000000 [$
b0000000000000000 {$
0%%
b000000 E%
0U%
0]%
b00000000000000000000000000000000 /&
1)+
b00000000000000000000000000000000 Q+
#41
0#
1+
0)+
#41
#42
1#
0+
07&
0_&
1)+
#43
0#
1+
0)+
#43
#44
1#
0+
0'"
b00000000000000000000000000000100 Y#
0;$
0)'
0A'
1)+
#45
0#
1+
0)+
#45
#46
1#
0+
b001000 k
1s
b00000000000000000000000000100100 {
b00000000000000000000000000100000 %!
b00000000000000000000000000001000 -!
b001000 G"
b00000000000000000000000000001000 Y#
b00000000000000000000000000001000 a#
b00000000000000000000000000000100 C$
b00000000000000000000000000001000 K$
b00000000000000000000000000001000 S$
b00000000000000000000000000000100 [$
b0000000000001000 {$
1%%
1U%
1)+
b00000000000000000000000000000100 Q+
#47
0#
1+
0)+
#47
#48
1#
0+
b00000000000000000000000000101000 {
b00000000000000000000000000001100 Y#
b00000000000000000000000000001100 a#
b00000000000000000000000000001000 C$
b00000000000000000000000000001100 K$
b00000000000000000000000000001000 [$
b001000 E%
1]%
b00000000000000000000000000001000 /&
17&
1)+
b00000000000000000000000000001000 Q+
#49
0#
1+
0)+
#49
#50
1#
0+
b00000000000000000000000000101100 {
b00000000000000000000000000010000 Y#
b00000000000000000000000000010000 a#
b00000000000000000000000000001100 C$
b00000000000000000000000000010000 K$
b00000000000000000000000000001100 [$
1_&
1)'
1)+
b00000000000000000000000000001100 Q+
#51
0#
1+
0)+
#51
#52
1#
0+
b00000000000000000000000000110000 {
1'"
b00000000000000000000000000000000 Y#
b00000000000000000000000000010100 a#
1;$
b00000000000000000000000000010000 C$
b00000000000000000000000000010100 K$
b00000000000000000000000000010000 [$
1A'
1)+
b00000000000000000000000000010000 Q+
#53
0#
1+
0)+
#53
#54
1#
0+
b000000 k
0s
b00000000000000000000000000000000 {
b00000000000000000000000000000000 %!
b00000000000000000000000000000000 -!
b000000 G"
b00000000000000000000000000000100 a#
b00000000000000000000000000000000 C$
b00000000000000000000000000000100 K$
b00000000000000000000000000000000 S$
b00000000000000000000000000000000 [$
b0000000000000000 {$
0%%
b000000 E%
0U%
0]%
b00000000000000000000000000000000 /&
1)+
b00000000000000000000000000000000 Q+
#55
0#
1+
0)+
#55
#56
1#
0+
07&
0_&
1)+
#57
0#
1+
0)+
#57
#58
1#
0+
0'"
b00000000000000000000000000000100 Y#
0;$
0)'
0A'
1)+
#59
0#
1+
0)+
#59
