unofficial/preliminary_testing/MIPS_Harvard_obj_dir/trace.vcd
$version Generated by VerilatedVcd $end
$date Sat Dec  5 00:47:05 2020
 $end
$timescale   1ns $end

 $scope module TOP $end
  $var wire  1 g* active $end
  $var wire  1 W* clk $end
  $var wire  1 w* clk_enable $end
  $var wire 32 1+ data_address [31:0] $end
  $var wire  1 A+ data_read $end
  $var wire 32 Q+ data_readdata [31:0] $end
  $var wire  1 9+ data_write $end
  $var wire 32 I+ data_writedata [31:0] $end
  $var wire 32 !+ instr_address [31:0] $end
  $var wire 32 )+ instr_readdata [31:0] $end
  $var wire 32 o* register_v0 [31:0] $end
  $var wire  1 _* reset $end
  $scope module mips_cpu $end
   $var wire 32 U! ALU_HI_output_execute [31:0] $end
   $var wire 32 G& ALU_HI_output_memory [31:0] $end
   $var wire 32 !' ALU_HI_output_writeback [31:0] $end
   $var wire 32 ]! ALU_LO_output_execute [31:0] $end
   $var wire 32 O& ALU_LO_output_memory [31:0] $end
   $var wire 32 )' ALU_LO_output_writeback [31:0] $end
   $var wire  6 k ALU_function_decode [5:0] $end
   $var wire  6 -% ALU_function_execute [5:0] $end
   $var wire 32 M! ALU_output_execute [31:0] $end
   $var wire 32 ?& ALU_output_memory [31:0] $end
   $var wire 32 1' ALU_output_writeback [31:0] $end
   $var wire  1 K ALU_src_B_decode $end
   $var wire  1 %% ALU_src_B_execute $end
   $var wire  1 Y+ HI_LO_output $end
   $var wire  5 [$ Rd_decode [4:0] $end
   $var wire  5 e% Rd_execute [4:0] $end
   $var wire  5 K$ Rs_decode [4:0] $end
   $var wire  5 U% Rs_execute [4:0] $end
   $var wire  5 S$ Rt_decode [4:0] $end
   $var wire  5 ]% Rt_execute [4:0] $end
   $var wire  1 g* active $end
   $var wire  1 [ branch_decode $end
   $var wire  1 W* clk $end
   $var wire  1 w* clk_enable $end
   $var wire 32 1+ data_address [31:0] $end
   $var wire  1 A+ data_read $end
   $var wire 32 Q+ data_readdata [31:0] $end
   $var wire  1 9+ data_write $end
   $var wire 32 I+ data_writedata [31:0] $end
   $var wire  1 Y# equal_decode $end
   $var wire  1 }! flush_execute_register $end
   $var wire  1 A' forward_A_decode $end
   $var wire  2 '" forward_A_execute [1:0] $end
   $var wire  1 I' forward_B_decode $end
   $var wire  2 /" forward_B_execute [1:0] $end
   $var wire  1 c hi_lo_register_write_decode $end
   $var wire  1 5% hi_lo_register_write_execute $end
   $var wire  1 7& hi_lo_register_write_memory $end
   $var wire  1 g& hi_lo_register_write_writeback $end
   $var wire 16 c$ immediate [15:0] $end
   $var wire 32 !+ instr_address [31:0] $end
   $var wire 32 )+ instr_readdata [31:0] $end
   $var wire 32 ;$ instruction_decode [31:0] $end
   $var wire 32 )+ instruction_fetch [31:0] $end
   $var wire  1 # internal_clk $end
   $var wire  1 ; memory_to_register_decode $end
   $var wire  1 s$ memory_to_register_execute $end
   $var wire  1 '& memory_to_register_memory $end
   $var wire  1 o& memory_to_register_writeback $end
   $var wire  1 C memory_write_decode $end
   $var wire  1 {$ memory_write_execute $end
   $var wire  1 /& memory_write_memory $end
   $var wire 32 s program_counter_branch_decode [31:0] $end
   $var wire 32 +$ program_counter_fetch [31:0] $end
   $var wire 32 C$ program_counter_plus_four_decode [31:0] $end
   $var wire 32 3$ program_counter_plus_four_fetch [31:0] $end
   $var wire 32 Q# program_counter_prime [31:0] $end
   $var wire  1 q# program_counter_source_decode $end
   $var wire  5 K$ read_address_1 [4:0] $end
   $var wire  5 S$ read_address_2 [4:0] $end
   $var wire 32 Q+ read_data_memory [31:0] $end
   $var wire 32 9' read_data_writeback [31:0] $end
   $var wire  1 S register_destination_decode $end
   $var wire  1 k$ register_destination_execute $end
   $var wire 32 y# register_file_output_A_decode [31:0] $end
   $var wire 32 E% register_file_output_A_execute [31:0] $end
   $var wire 32 a# register_file_output_A_resolved_decode [31:0] $end
   $var wire 32 #$ register_file_output_B_decode [31:0] $end
   $var wire 32 M% register_file_output_B_execute [31:0] $end
   $var wire 32 i# register_file_output_B_resolved_decode [31:0] $end
   $var wire 32 o* register_v0 [31:0] $end
   $var wire  1 3 register_write_decode $end
   $var wire  1 =% register_write_execute $end
   $var wire  1 u% register_write_memory $end
   $var wire  1 _& register_write_writeback $end
   $var wire  1 _* reset $end
   $var wire 32 e! result_writeback [31:0] $end
   $var wire 32 { shifter_output_decode [31:0] $end
   $var wire 32 %! sign_imm_decode [31:0] $end
   $var wire 32 m% sign_imm_execute [31:0] $end
   $var wire 32 5! source_A_ALU_execute [31:0] $end
   $var wire 32 =! source_B_ALU_execute [31:0] $end
   $var wire  1 u! stall_decode $end
   $var wire  1 m! stall_fetch $end
   $var wire 32 E! write_data_execute [31:0] $end
   $var wire 32 W& write_data_memory [31:0] $end
   $var wire  5 -! write_register_execute [4:0] $end
   $var wire  5 }% write_register_memory [4:0] $end
   $var wire  5 w& write_register_writeback [4:0] $end
   $scope module adder_decode $end
    $var wire 32 { a [31:0] $end
    $var wire 32 C$ b [31:0] $end
    $var wire 32 s z [31:0] $end
   $upscope $end
   $scope module alu $end
    $var wire 64 1# ALU_HI_LO_output [63:0] $end
    $var wire 32 U! ALU_HI_output [31:0] $end
    $var wire 32 ]! ALU_LO_output [31:0] $end
    $var wire  6 -% ALU_operation [5:0] $end
    $var wire 32 M! ALU_output [31:0] $end
    $var wire 64 o" extended_input_1 [63:0] $end
    $var wire 64 !# extended_input_2 [63:0] $end
    $var wire 32 5! input_1 [31:0] $end
    $var wire 32 =! input_2 [31:0] $end
    $var wire  5 G" shift_amount [4:0] $end
    $var wire 64 O" sign_extened_input_1 [63:0] $end
    $var wire 64 _" sign_extened_input_2 [63:0] $end
   $upscope $end
   $scope module control_unit $end
    $var wire  6 k ALU_function [5:0] $end
    $var wire  1 K ALU_src_B $end
    $var wire  1 [ branch $end
    $var wire  6 ?" funct [5:0] $end
    $var wire  1 c hi_lo_register_write $end
    $var wire 32 ;$ instruction [31:0] $end
    $var wire  1 ; memory_to_register $end
    $var wire  1 C memory_write $end
    $var wire  6 7" op [5:0] $end
    $var wire  1 S register_destination $end
    $var wire  1 3 register_write $end
    $var wire  5 S$ rt [4:0] $end
   $upscope $end
   $scope module decode_execute_register $end
    $var wire  6 k ALU_function_decode [5:0] $end
    $var wire  6 -% ALU_function_execute [5:0] $end
    $var wire  1 K ALU_src_B_decode $end
    $var wire  1 %% ALU_src_B_execute $end
    $var wire  5 [$ Rd_decode [4:0] $end
    $var wire  5 e% Rd_execute [4:0] $end
    $var wire  5 K$ Rs_decode [4:0] $end
    $var wire  5 U% Rs_execute [4:0] $end
    $var wire  5 S$ Rt_decode [4:0] $end
    $var wire  5 ]% Rt_execute [4:0] $end
    $var wire  1 }! clear $end
    $var wire  1 # clk $end
    $var wire  1 c hi_lo_register_write_decode $end
    $var wire  1 5% hi_lo_register_write_execute $end
    $var wire  1 ; memory_to_register_decode $end
    $var wire  1 s$ memory_to_register_execute $end
    $var wire  1 C memory_write_decode $end
    $var wire  1 {$ memory_write_execute $end
    $var wire 32 y# read_data_one_decode [31:0] $end
    $var wire 32 E% read_data_one_execute [31:0] $end
    $var wire 32 #$ read_data_two_decode [31:0] $end
    $var wire 32 M% read_data_two_execute [31:0] $end
    $var wire  1 S register_destination_decode $end
    $var wire  1 k$ register_destination_execute $end
    $var wire  1 3 register_write_decode $end
    $var wire  1 =% register_write_execute $end
    $var wire 32 %! sign_imm_decode [31:0] $end
    $var wire 32 m% sign_imm_execute [31:0] $end
   $upscope $end
   $scope module execute_memory_register $end
    $var wire 32 U! ALU_HI_output_execute [31:0] $end
    $var wire 32 G& ALU_HI_output_memory [31:0] $end
    $var wire 32 ]! ALU_LO_output_execute [31:0] $end
    $var wire 32 O& ALU_LO_output_memory [31:0] $end
    $var wire 32 M! ALU_output_execute [31:0] $end
    $var wire 32 ?& ALU_output_memory [31:0] $end
    $var wire  1 # clk $end
    $var wire  1 5% hi_lo_register_write_execute $end
    $var wire  1 7& hi_lo_register_write_memory $end
    $var wire  1 s$ memory_to_register_execute $end
    $var wire  1 '& memory_to_register_memory $end
    $var wire  1 {$ memory_write_execute $end
    $var wire  1 /& memory_write_memory $end
    $var wire  1 =% register_write_execute $end
    $var wire  1 u% register_write_memory $end
    $var wire 32 E! write_data_execute [31:0] $end
    $var wire 32 W& write_data_memory [31:0] $end
    $var wire  5 -! write_register_execute [4:0] $end
    $var wire  5 }% write_register_memory [4:0] $end
   $upscope $end
   $scope module fetch_decode_register $end
    $var wire  1 q# clear $end
    $var wire  1 # clk $end
    $var wire  1 u! enable $end
    $var wire 32 ;$ instruction_decode [31:0] $end
    $var wire 32 )+ instruction_fetch [31:0] $end
    $var wire 32 C$ program_counter_plus_four_decode [31:0] $end
    $var wire 32 3$ program_counter_plus_four_fetch [31:0] $end
   $upscope $end
   $scope module hazard_unit $end
    $var wire  5 K$ Rs_decode [4:0] $end
    $var wire  5 U% Rs_execute [4:0] $end
    $var wire  5 S$ Rt_decode [4:0] $end
    $var wire  5 ]% Rt_execute [4:0] $end
    $var wire  1 [ branch_decode $end
    $var wire  1 I# branchstall $end
    $var wire  1 }! flush_execute_register $end
    $var wire  1 A' forward_register_file_output_1_decode $end
    $var wire  2 '" forward_register_file_output_1_execute [1:0] $end
    $var wire  1 I' forward_register_file_output_2_decode $end
    $var wire  2 /" forward_register_file_output_2_execute [1:0] $end
    $var wire  1 A# lwstall $end
    $var wire  1 s$ memory_to_register_execute $end
    $var wire  1 '& memory_to_register_memory $end
    $var wire  1 =% register_write_execute $end
    $var wire  1 u% register_write_memory $end
    $var wire  1 _& register_write_writeback $end
    $var wire  1 u! stall_decode $end
    $var wire  1 m! stall_fetch $end
    $var wire  5 -! write_register_execute [4:0] $end
    $var wire  5 }% write_register_memory [4:0] $end
    $var wire  5 w& write_register_writeback [4:0] $end
   $upscope $end
   $scope module memory_writeback_register $end
    $var wire 32 G& ALU_HI_output_memory [31:0] $end
    $var wire 32 !' ALU_HI_output_writeback [31:0] $end
    $var wire 32 O& ALU_LO_output_memory [31:0] $end
    $var wire 32 )' ALU_LO_output_writeback [31:0] $end
    $var wire 32 ?& ALU_output_memory [31:0] $end
    $var wire 32 1' ALU_output_writeback [31:0] $end
    $var wire  1 # clk $end
    $var wire  1 7& hi_lo_register_write_memory $end
    $var wire  1 g& hi_lo_register_write_writeback $end
    $var wire  1 '& memory_to_register_memory $end
    $var wire  1 o& memory_to_register_writeback $end
    $var wire 32 Q+ read_data_memory [31:0] $end
    $var wire 32 9' read_data_writeback [31:0] $end
    $var wire  1 u% register_write_memory $end
    $var wire  1 _& register_write_writeback $end
    $var wire  5 }% write_register_memory [4:0] $end
    $var wire  5 w& write_register_writeback [4:0] $end
   $upscope $end
   $scope module pc $end
    $var wire 32 Q# address_input [31:0] $end
    $var wire 32 +$ address_output [31:0] $end
    $var wire  1 # clk $end
    $var wire  1 m! enable $end
   $upscope $end
   $scope module plus_four_adder $end
    $var wire 32 +$ a [31:0] $end
    $var wire 32 i+ b [31:0] $end
    $var wire 32 3$ z [31:0] $end
   $upscope $end
   $scope module program_counter_multiplexer $end
    $var wire 32 q+ BUS_WIDTH [31:0] $end
    $var wire  1 q# control $end
    $var wire 32 3$ input_0 [31:0] $end
    $var wire 32 s input_1 [31:0] $end
    $var wire 32 Q# resolved [31:0] $end
   $upscope $end
   $scope module program_counter_source_and_gate_decode $end
    $var wire  1 [ input_A $end
    $var wire  1 Y# input_B $end
    $var wire  1 q# output_C $end
   $upscope $end
   $scope module reg_output_comparator $end
    $var wire 32 a# a [31:0] $end
    $var wire 32 i# b [31:0] $end
    $var wire  1 Y# c $end
   $upscope $end
   $scope module register_file $end
    $var wire  1 Y+ HI_LO_output $end
    $var wire 32 G* HI_reg [31:0] $end
    $var wire 32 !' HI_write_data [31:0] $end
    $var wire 32 O* LO_reg [31:0] $end
    $var wire 32 )' LO_write_data [31:0] $end
    $var wire  1 # clk $end
    $var wire  1 g& hi_lo_register_write_enable $end
    $var wire  1 + modified_write_clk $end
    $var wire  1 a+ pipelined $end
    $var wire  5 K$ read_address_1 [4:0] $end
    $var wire  5 S$ read_address_2 [4:0] $end
    $var wire 32 y# read_data_1 [31:0] $end
    $var wire 32 Q' read_data_1_pre_mux [31:0] $end
    $var wire 32 #$ read_data_2 [31:0] $end
    $var wire 32 Y' read_data_2_pre_mux [31:0] $end
    $var wire 32 a' registers(0) [31:0] $end
    $var wire 32 b' registers(1) [31:0] $end
    $var wire 32 k' registers(10) [31:0] $end
    $var wire 32 l' registers(11) [31:0] $end
    $var wire 32 m' registers(12) [31:0] $end
    $var wire 32 n' registers(13) [31:0] $end
    $var wire 32 o' registers(14) [31:0] $end
    $var wire 32 p' registers(15) [31:0] $end
    $var wire 32 q' registers(16) [31:0] $end
    $var wire 32 r' registers(17) [31:0] $end
    $var wire 32 s' registers(18) [31:0] $end
    $var wire 32 t' registers(19) [31:0] $end
    $var wire 32 c' registers(2) [31:0] $end
    $var wire 32 u' registers(20) [31:0] $end
    $var wire 32 v' registers(21) [31:0] $end
    $var wire 32 w' registers(22) [31:0] $end
    $var wire 32 x' registers(23) [31:0] $end
    $var wire 32 y' registers(24) [31:0] $end
    $var wire 32 z' registers(25) [31:0] $end
    $var wire 32 {' registers(26) [31:0] $end
    $var wire 32 |' registers(27) [31:0] $end
    $var wire 32 }' registers(28) [31:0] $end
    $var wire 32 ~' registers(29) [31:0] $end
    $var wire 32 d' registers(3) [31:0] $end
    $var wire 32 !( registers(30) [31:0] $end
    $var wire 32 "( registers(31) [31:0] $end
    $var wire 32 e' registers(4) [31:0] $end
    $var wire 32 f' registers(5) [31:0] $end
    $var wire 32 g' registers(6) [31:0] $end
    $var wire 32 h' registers(7) [31:0] $end
    $var wire 32 i' registers(8) [31:0] $end
    $var wire 32 j' registers(9) [31:0] $end
    $var wire  5 w& write_address [4:0] $end
    $var wire 32 e! write_data [31:0] $end
    $var wire  1 _& write_enable $end
   $upscope $end
   $scope module register_file_output_A_execute_mux $end
    $var wire 32 q+ BUS_WIDTH [31:0] $end
    $var wire  2 '" control [1:0] $end
    $var wire 32 E% input_0 [31:0] $end
    $var wire 32 e! input_1 [31:0] $end
    $var wire 32 ?& input_2 [31:0] $end
    $var wire 32 )' input_3 [31:0] $end
    $var wire 32 5! resolved [31:0] $end
   $upscope $end
   $scope module register_file_output_A_mux $end
    $var wire 32 q+ BUS_WIDTH [31:0] $end
    $var wire  1 A' control $end
    $var wire 32 y# input_0 [31:0] $end
    $var wire 32 ?& input_1 [31:0] $end
    $var wire 32 a# resolved [31:0] $end
   $upscope $end
   $scope module register_file_output_B_execute_mux $end
    $var wire 32 q+ BUS_WIDTH [31:0] $end
    $var wire  2 /" control [1:0] $end
    $var wire 32 M% input_0 [31:0] $end
    $var wire 32 e! input_1 [31:0] $end
    $var wire 32 ?& input_2 [31:0] $end
    $var wire 32 !' input_3 [31:0] $end
    $var wire 32 E! resolved [31:0] $end
   $upscope $end
   $scope module register_file_output_B_mux $end
    $var wire 32 q+ BUS_WIDTH [31:0] $end
    $var wire  1 I' control $end
    $var wire 32 #$ input_0 [31:0] $end
    $var wire 32 ?& input_1 [31:0] $end
    $var wire 32 i# resolved [31:0] $end
   $upscope $end
   $scope module shifter_decode $end
    $var wire 32 y+ shift_distance [31:0] $end
    $var wire 32 %! shift_input [31:0] $end
    $var wire 32 { shift_output [31:0] $end
   $upscope $end
   $scope module sign_extender_decode $end
    $var wire 32 %! extended_output [31:0] $end
    $var wire 16 c$ short_input [15:0] $end
   $upscope $end
   $scope module source_B_ALU_mux $end
    $var wire 32 q+ BUS_WIDTH [31:0] $end
    $var wire  1 %% control $end
    $var wire 32 E! input_0 [31:0] $end
    $var wire 32 m% input_1 [31:0] $end
    $var wire 32 =! resolved [31:0] $end
   $upscope $end
   $scope module write_register_execute_mux $end
    $var wire 32 #, BUS_WIDTH [31:0] $end
    $var wire  1 k$ control $end
    $var wire  5 ]% input_0 [4:0] $end
    $var wire  5 e% input_1 [4:0] $end
    $var wire  5 -! resolved [4:0] $end
   $upscope $end
   $scope module writeback_mux $end
    $var wire 32 q+ BUS_WIDTH [31:0] $end
    $var wire  1 o& control $end
    $var wire 32 1' input_0 [31:0] $end
    $var wire 32 9' input_1 [31:0] $end
    $var wire 32 e! resolved [31:0] $end
   $upscope $end
  $upscope $end
 $upscope $end
$enddefinitions $end


#0
0#
1+
13
0;
0C
0K
1S
0[
0c
b000000 k
b00000000000000000000000000000000 s
b00000000000000000000000000000000 {
b00000000000000000000000000000000 %!
b00000 -!
b00000000000000000000000000000000 5!
b00000000000000000000000000000000 =!
b00000000000000000000000000000000 E!
b00000000000000000000000000000000 M!
b00000000000000000000000000000000 U!
b00000000000000000000000000000000 ]!
b00000000000000000000000000000000 e!
0m!
0u!
0}!
b00 '"
b00 /"
b000000 7"
b000000 ?"
b00000 G"
b0000000000000000000000000000000000000000000000000000000000000000 O"
b0000000000000000000000000000000000000000000000000000000000000000 _"
b0000000000000000000000000000000000000000000000000000000000000000 o"
b0000000000000000000000000000000000000000000000000000000000000000 !#
b0000000000000000000000000000000000000000000000000000000000000000 1#
0A#
0I#
b00000000000000000000000000000100 Q#
1Y#
b00000000000000000000000000000000 a#
b00000000000000000000000000000000 i#
0q#
b00000000000000000000000000000000 y#
b00000000000000000000000000000000 #$
b00000000000000000000000000000000 +$
b00000000000000000000000000000100 3$
b00000000000000000000000000000000 ;$
b00000000000000000000000000000000 C$
b00000 K$
b00000 S$
b00000 [$
b0000000000000000 c$
0k$
0s$
0{$
0%%
b000000 -%
05%
0=%
b00000000000000000000000000000000 E%
b00000000000000000000000000000000 M%
b00000 U%
b00000 ]%
b00000 e%
b00000000000000000000000000000000 m%
0u%
b00000 }%
0'&
0/&
07&
b00000000000000000000000000000000 ?&
b00000000000000000000000000000000 G&
b00000000000000000000000000000000 O&
b00000000000000000000000000000000 W&
0_&
0g&
0o&
b00000 w&
b00000000000000000000000000000000 !'
b00000000000000000000000000000000 )'
b00000000000000000000000000000000 1'
b00000000000000000000000000000000 9'
0A'
0I'
b00000000000000000000000000000000 Q'
b00000000000000000000000000000000 Y'
b00000000000000000000000000000000 a'
b00000000000000000000000000000000 b'
b00000000000000000000000000000000 c'
b00000000000000000000000000000000 d'
b00000000000000000000000000000000 e'
b00000000000000000000000000000000 f'
b00000000000000000000000000000000 g'
b00000000000000000000000000000000 h'
b00000000000000000000000000000000 i'
b00000000000000000000000000000000 j'
b00000000000000000000000000000000 k'
b00000000000000000000000000000000 l'
b00000000000000000000000000000000 m'
b00000000000000000000000000000000 n'
b00000000000000000000000000000000 o'
b00000000000000000000000000000000 p'
b00000000000000000000000000000000 q'
b00000000000000000000000000000000 r'
b00000000000000000000000000000000 s'
b00000000000000000000000000000000 t'
b00000000000000000000000000000000 u'
b00000000000000000000000000000000 v'
b00000000000000000000000000000000 w'
b00000000000000000000000000000000 x'
b00000000000000000000000000000000 y'
b00000000000000000000000000000000 z'
b00000000000000000000000000000000 {'
b00000000000000000000000000000000 |'
b00000000000000000000000000000000 }'
b00000000000000000000000000000000 ~'
b00000000000000000000000000000000 !(
b00000000000000000000000000000000 "(
b00000000000000000000000000000000 G*
b00000000000000000000000000000000 O*
0W*
0_*
0g*
b00000000000000000000000000000000 o*
1w*
b00000000000000000000000000000000 !+
b00000000000000000000000000000000 )+
b00000000000000000000000000000000 1+
09+
1A+
b00000000000000000000000000000000 I+
b00000000000000000000000000000000 Q+
0Y+
1a+
b00000000000000000000000000000100 i+
b00000000000000000000000000100000 q+
b00000000000000000000000000000010 y+
b00000000000000000000000000000101 #,
#2
1#
0+
b00000000000000000000000000000100 s
b00000000000000000000000000001000 Q#
b00000000000000000000000000000100 +$
b00000000000000000000000000001000 3$
b00000000000000000000000000000100 C$
1k$
1=%
1W*
b00000000000000000000000000000100 !+
#3
0#
1+
0W*
#3
#4
1#
0+
b00000000000000000000000000001000 s
b00000000000000000000000000001100 Q#
b00000000000000000000000000001000 +$
b00000000000000000000000000001100 3$
b00000000000000000000000000001000 C$
1u%
1W*
b00000000000000000000000000001000 !+
#5
0#
1+
0W*
#5
b00100110010100000000000000000101 )+
#6
1#
0+
1K
0S
b100001 k
b00000000000000000000000000100000 s
b00000000000000000000000000010100 {
b00000000000000000000000000000101 %!
b001001 7"
b000101 ?"
b00000000000000000000000000010000 Q#
b00000000000000000000000000001100 +$
b00000000000000000000000000010000 3$
b00100110010100000000000000000101 ;$
b00000000000000000000000000001100 C$
b10010 K$
b10000 S$
b0000000000000101 c$
1_&
1W*
b00000000000000000000000000001100 !+
#7
0#
1+
0W*
#7
b00000010001100001000100000100000 )+
#8
1#
0+
0K
1S
b100000 k
b11111111111111100010000010010000 s
b11111111111111100010000010000000 {
b11111111111111111000100000100000 %!
b10000 -!
b00000000000000000000000000000101 =!
b00000000000000000000000000000101 M!
b000000 7"
b100000 ?"
b0000000000000000000000000000000000000000000000000000000000000101 _"
b0000000000000000000000000000000000000000000000000000000000000101 !#
b00000000000000000000000000010100 Q#
b00000000000000000000000000010000 +$
b00000000000000000000000000010100 3$
b00000010001100001000100000100000 ;$
b00000000000000000000000000010000 C$
b10001 K$
b10001 [$
b1000100000100000 c$
0k$
1%%
b100001 -%
b10010 U%
b10000 ]%
b00000000000000000000000000000101 m%
1W*
b00000000000000000000000000010000 !+
#9
0#
1+
0W*
#9
b00100110010100000000000000000101 )+
#10
1#
0+
1K
0S
b100001 k
b00000000000000000000000000101000 s
b00000000000000000000000000010100 {
b00000000000000000000000000000101 %!
b10001 -!
b00000000000000000000000000000101 E!
b10 /"
b001001 7"
b000101 ?"
b00000000000000000000000000011000 Q#
0Y#
b00000000000000000000000000000101 i#
b00000000000000000000000000010100 +$
b00000000000000000000000000011000 3$
b00100110010100000000000000000101 ;$
b00000000000000000000000000010100 C$
b10010 K$
b00000 [$
b0000000000000101 c$
1k$
0%%
b100000 -%
b10001 U%
b10001 e%
b11111111111111111000100000100000 m%
b10000 }%
b00000000000000000000000000000101 ?&
1I'
1W*
b00000000000000000000000000010100 !+
b00000000000000000000000000000101 1+
#11
0#
1+
0W*
#11
b00000010001100001000100000100000 )+
#12
1#
0+
0K
1S
b100000 k
b11111111111111100010000010011000 s
b11111111111111100010000010000000 {
b11111111111111111000100000100000 %!
b10000 -!
b00000000000000000000000000000101 e!
b01 /"
b000000 7"
b100000 ?"
b00000000000000000000000000011100 Q#
b00000000000000000000000000000101 a#
b00000000000000000000000000000000 i#
b00000000000000000000000000011000 +$
b00000000000000000000000000011100 3$
b00000010001100001000100000100000 ;$
b00000000000000000000000000011000 C$
b10001 K$
b10001 [$
b1000100000100000 c$
0k$
1%%
b100001 -%
b10010 U%
b00000 e%
b00000000000000000000000000000101 m%
b10001 }%
b00000000000000000000000000000101 W&
b10000 w&
b00000000000000000000000000000101 1'
1A'
0I'
1W*
b00000000000000000000000000011000 !+
b00000000000000000000000000000101 I+
#13
0#
1+
1Y#
b00000000000000000000000000000101 i#
b00000000000000000000000000000101 #$
b00000000000000000000000000000101 Y'
b00000000000000000000000000000101 q'
0W*
#13
b00100110010100000000000000000101 )+
#14
1#
0+
1K
0S
b100001 k
b00000000000000000000000000110000 s
b00000000000000000000000000010100 {
b00000000000000000000000000000101 %!
b10001 -!
b00000000000000000000000000000101 5!
b00000000000000000000000000001010 M!
b01 '"
b10 /"
b001001 7"
b000101 ?"
b0000000000000000000000000000000000000000000000000000000000000101 O"
b0000000000000000000000000000000000000000000000000000000000000101 o"
b00000000000000000000000000100000 Q#
0Y#
b00000000000000000000000000000000 a#
b00000000000000000000000000011100 +$
b00000000000000000000000000100000 3$
b00100110010100000000000000000101 ;$
b00000000000000000000000000011100 C$
b10010 K$
b00000 [$
b0000000000000101 c$
1k$
0%%
b100000 -%
b00000000000000000000000000000101 M%
b10001 U%
b10001 e%
b11111111111111111000100000100000 m%
b10000 }%
b10001 w&
0A'
1I'
1W*
b00000000000000000000000000011100 !+
#15
0#
1+
b00000000000000000000000000000101 r'
0W*
#15
b00000010001100001000100000100000 )+
#16
1#
0+
0K
1S
b100000 k
b11111111111111100010000010100000 s
b11111111111111100010000010000000 {
b11111111111111111000100000100000 %!
b10000 -!
b00000000000000000000000000000000 5!
b00000000000000000000000000000101 M!
b00 '"
b01 /"
b000000 7"
b100000 ?"
b0000000000000000000000000000000000000000000000000000000000000000 O"
b0000000000000000000000000000000000000000000000000000000000000000 o"
b00000000000000000000000000100100 Q#
b00000000000000000000000000001010 a#
b00000000000000000000000000000101 y#
b00000000000000000000000000100000 +$
b00000000000000000000000000100100 3$
b00000010001100001000100000100000 ;$
b00000000000000000000000000100000 C$
b10001 K$
b10001 [$
b1000100000100000 c$
0k$
1%%
b100001 -%
b10010 U%
b00000 e%
b00000000000000000000000000000101 m%
b10001 }%
b00000000000000000000000000001010 ?&
b10000 w&
1A'
0I'
b00000000000000000000000000000101 Q'
1W*
b00000000000000000000000000100000 !+
b00000000000000000000000000001010 1+
#17
0#
1+
0W*
#17
b00100110010100000000000000000101 )+
#18
1#
0+
1K
0S
b100001 k
b00000000000000000000000000111000 s
b00000000000000000000000000010100 {
b00000000000000000000000000000101 %!
b10001 -!
b00000000000000000000000000001010 5!
b00000000000000000000000000001111 M!
b00000000000000000000000000001010 e!
b01 '"
b10 /"
b001001 7"
b000101 ?"
b0000000000000000000000000000000000000000000000000000000000001010 O"
b0000000000000000000000000000000000000000000000000000000000001010 o"
b00000000000000000000000000101000 Q#
b00000000000000000000000000000000 a#
b00000000000000000000000000000000 y#
b00000000000000000000000000100100 +$
b00000000000000000000000000101000 3$
b00100110010100000000000000000101 ;$
b00000000000000000000000000100100 C$
b10010 K$
b00000 [$
b0000000000000101 c$
1k$
0%%
b100000 -%
b00000000000000000000000000000101 E%
b10001 U%
b10001 e%
b11111111111111111000100000100000 m%
b10000 }%
b00000000000000000000000000000101 ?&
b10001 w&
b00000000000000000000000000001010 1'
0A'
1I'
b00000000000000000000000000000000 Q'
1W*
b00000000000000000000000000100100 !+
b00000000000000000000000000000101 1+
#19
0#
1+
b00000000000000000000000000001010 r'
0W*
#19
b00000010001100001000100000100000 )+
#20
1#
0+
0K
1S
b100000 k
b11111111111111100010000010101000 s
b11111111111111100010000010000000 {
b11111111111111111000100000100000 %!
b10000 -!
b00000000000000000000000000000000 5!
b00000000000000000000000000000101 M!
b00000000000000000000000000000101 e!
b00 '"
b01 /"
b000000 7"
b100000 ?"
b0000000000000000000000000000000000000000000000000000000000000000 O"
b0000000000000000000000000000000000000000000000000000000000000000 o"
b00000000000000000000000000101100 Q#
b00000000000000000000000000001111 a#
b00000000000000000000000000001010 y#
b00000000000000000000000000101000 +$
b00000000000000000000000000101100 3$
b00000010001100001000100000100000 ;$
b00000000000000000000000000101000 C$
b10001 K$
b10001 [$
b1000100000100000 c$
0k$
1%%
b100001 -%
b00000000000000000000000000000000 E%
b10010 U%
b00000 e%
b00000000000000000000000000000101 m%
b10001 }%
b00000000000000000000000000001111 ?&
b10000 w&
b00000000000000000000000000000101 1'
1A'
0I'
b00000000000000000000000000001010 Q'
1W*
b00000000000000000000000000101000 !+
b00000000000000000000000000001111 1+
#21
0#
1+
0W*
#21
b00100110010100000000000000000101 )+
#22
1#
0+
1K
0S
b100001 k
b00000000000000000000000001000000 s
b00000000000000000000000000010100 {
b00000000000000000000000000000101 %!
b10001 -!
b00000000000000000000000000001111 5!
b00000000000000000000000000010100 M!
b00000000000000000000000000001111 e!
b01 '"
b10 /"
b001001 7"
b000101 ?"
b0000000000000000000000000000000000000000000000000000000000001111 O"
b0000000000000000000000000000000000000000000000000000000000001111 o"
b00000000000000000000000000110000 Q#
b00000000000000000000000000000000 a#
b00000000000000000000000000000000 y#
b00000000000000000000000000101100 +$
b00000000000000000000000000110000 3$
b00100110010100000000000000000101 ;$
b00000000000000000000000000101100 C$
b10010 K$
b00000 [$
b0000000000000101 c$
1k$
0%%
b100000 -%
b00000000000000000000000000001010 E%
b10001 U%
b10001 e%
b11111111111111111000100000100000 m%
b10000 }%
b00000000000000000000000000000101 ?&
b10001 w&
b00000000000000000000000000001111 1'
0A'
1I'
b00000000000000000000000000000000 Q'
1W*
b00000000000000000000000000101100 !+
b00000000000000000000000000000101 1+
#23
0#
1+
b00000000000000000000000000001111 r'
0W*
#23
b00000010001100001000100000100000 )+
#24
1#
0+
0K
1S
b100000 k
b11111111111111100010000010110000 s
b11111111111111100010000010000000 {
b11111111111111111000100000100000 %!
b10000 -!
b00000000000000000000000000000000 5!
b00000000000000000000000000000101 M!
b00000000000000000000000000000101 e!
b00 '"
b01 /"
b000000 7"
b100000 ?"
b0000000000000000000000000000000000000000000000000000000000000000 O"
b0000000000000000000000000000000000000000000000000000000000000000 o"
b00000000000000000000000000110100 Q#
b00000000000000000000000000010100 a#
b00000000000000000000000000001111 y#
b00000000000000000000000000110000 +$
b00000000000000000000000000110100 3$
b00000010001100001000100000100000 ;$
b00000000000000000000000000110000 C$
b10001 K$
b10001 [$
b1000100000100000 c$
0k$
1%%
b100001 -%
b00000000000000000000000000000000 E%
b10010 U%
b00000 e%
b00000000000000000000000000000101 m%
b10001 }%
b00000000000000000000000000010100 ?&
b10000 w&
b00000000000000000000000000000101 1'
1A'
0I'
b00000000000000000000000000001111 Q'
1W*
b00000000000000000000000000110000 !+
b00000000000000000000000000010100 1+
#25
0#
1+
0W*
#25
b00100110010100000000000000000101 )+
