unofficial/preliminary_testing/MIPS_Harvard_obj_dir/trace.vcd
$version Generated by VerilatedVcd $end
$date Sat Dec 12 04:02:48 2020
 $end
$timescale   1ns $end

 $scope module TOP $end
  $var wire  1 c, active $end
  $var wire  1 S, clk $end
  $var wire  1 s, clk_enable $end
  $var wire 32 -- data_address [31:0] $end
  $var wire  1 =- data_read $end
  $var wire 32 M- data_readdata [31:0] $end
  $var wire  1 5- data_write $end
  $var wire 32 E- data_writedata [31:0] $end
  $var wire 32 {, instr_address [31:0] $end
  $var wire 32 %- instr_readdata [31:0] $end
  $var wire 32 k, register_v0 [31:0] $end
  $var wire  1 [, reset $end
  $scope module mips_cpu_harvard $end
   $var wire 32 /" ALU_HI_output_execute [31:0] $end
   $var wire 32 q+ ALU_HI_output_memory [31:0] $end
   $var wire 32 C, ALU_HI_output_writeback [31:0] $end
   $var wire 32 7" ALU_LO_output_execute [31:0] $end
   $var wire 32 y+ ALU_LO_output_memory [31:0] $end
   $var wire 32 K, ALU_LO_output_writeback [31:0] $end
   $var wire  6 =! ALU_function_decode [5:0] $end
   $var wire  6 /& ALU_function_execute [5:0] $end
   $var wire 32 '" ALU_output_execute [31:0] $end
   $var wire 32 Y' ALU_output_memory [31:0] $end
   $var wire 32 i' ALU_output_memory_resolved [31:0] $end
   $var wire 32 #( ALU_output_writeback [31:0] $end
   $var wire  2 %! ALU_src_B_decode [1:0] $end
   $var wire  2 '& ALU_src_B_execute [1:0] $end
   $var wire  1 ]! HI_register_write_decode $end
   $var wire  1 9+ HI_register_write_execute $end
   $var wire  1 a+ HI_register_write_memory $end
   $var wire  1 +, HI_register_write_writeback $end
   $var wire  1 e! LO_register_write_decode $end
   $var wire  1 A+ LO_register_write_execute $end
   $var wire  1 i+ LO_register_write_memory $end
   $var wire  1 3, LO_register_write_writeback $end
   $var wire  5 M% Rd_decode [4:0] $end
   $var wire  5 o& Rd_execute [4:0] $end
   $var wire  5 =% Rs_decode [4:0] $end
   $var wire  5 _& Rs_execute [4:0] $end
   $var wire  5 E% Rt_decode [4:0] $end
   $var wire  5 g& Rt_execute [4:0] $end
   $var wire  1 c, active $end
   $var wire  1 5! branch_decode $end
   $var wire  1 S, clk $end
   $var wire  1 s, clk_enable $end
   $var wire 32 [$ comparator_1 [31:0] $end
   $var wire 32 c$ comparator_2 [31:0] $end
   $var wire 32 -- data_address [31:0] $end
   $var wire  1 =- data_read $end
   $var wire 32 M- data_readdata [31:0] $end
   $var wire  1 5- data_write $end
   $var wire 32 E- data_writedata [31:0] $end
   $var wire  1 C$ equal_decode $end
   $var wire  1 U- flush_decode_execute_register $end
   $var wire  1 W" flush_execute_register $end
   $var wire  1 m- flush_fetch_decode_register $end
   $var wire  1 3( forward_A_decode $end
   $var wire  3 _" forward_A_execute [2:0] $end
   $var wire  1 ;( forward_B_decode $end
   $var wire  3 g" forward_B_execute [2:0] $end
   $var wire  1 {$ halt $end
   $var wire 16 U% immediate [15:0] $end
   $var wire 32 {, instr_address [31:0] $end
   $var wire 32 %- instr_readdata [31:0] $end
   $var wire 32 %% instruction_decode [31:0] $end
   $var wire 32 %- instruction_fetch [31:0] $end
   $var wire  1 # internal_clk $end
   $var wire  1 U! j_instruction_decode $end
   $var wire  1 ?& j_instruction_execute $end
   $var wire  1 Q' j_instruction_memory $end
   $var wire 26 ]% j_offset [25:0] $end
   $var wire 32 e% j_program_counter_decode [31:0] $end
   $var wire 32 1' j_program_counter_execute [31:0] $end
   $var wire 32 q' j_program_counter_memory [31:0] $end
   $var wire  1 s memory_to_register_decode $end
   $var wire  1 u% memory_to_register_execute $end
   $var wire  1 9' memory_to_register_memory $end
   $var wire  1 y' memory_to_register_writeback $end
   $var wire  1 { memory_write_decode $end
   $var wire  1 }% memory_write_execute $end
   $var wire  1 A' memory_write_memory $end
   $var wire  6 5% op [5:0] $end
   $var wire 32 3 program_counter_branch_decode [31:0] $end
   $var wire 32 k$ program_counter_fetch [31:0] $end
   $var wire  1 E! program_counter_multiplexer_jump_decode $end
   $var wire  1 7& program_counter_multiplexer_jump_execute $end
   $var wire  1 I' program_counter_multiplexer_jump_memory $end
   $var wire 32 S program_counter_mux_1_out [31:0] $end
   $var wire 32 !' program_counter_plus_eight_execute [31:0] $end
   $var wire 32 -% program_counter_plus_four_decode [31:0] $end
   $var wire 32 )' program_counter_plus_four_execute [31:0] $end
   $var wire 32 s$ program_counter_plus_four_fetch [31:0] $end
   $var wire 32 K program_counter_prime [31:0] $end
   $var wire  1 ;$ program_counter_src_decode $end
   $var wire  5 =% read_address_1 [4:0] $end
   $var wire  5 E% read_address_2 [4:0] $end
   $var wire 32 M- read_data_memory [31:0] $end
   $var wire 32 +( read_data_writeback [31:0] $end
   $var wire  2 -! register_destination_decode [1:0] $end
   $var wire  2 m% register_destination_execute [1:0] $end
   $var wire  1 e- register_file_memory_mux_memory $end
   $var wire 32 K$ register_file_output_A_decode [31:0] $end
   $var wire 32 S$ register_file_output_B_decode [31:0] $end
   $var wire 32 K( register_file_output_HI_decode [31:0] $end
   $var wire 32 C( register_file_output_LO_decode [31:0] $end
   $var wire 32 k, register_v0 [31:0] $end
   $var wire  1 k register_write_decode $end
   $var wire  1 I+ register_write_execute $end
   $var wire  1 Q+ register_write_memory $end
   $var wire  1 #, register_write_writeback $end
   $var wire  1 [, reset $end
   $var wire 32 ?" result_writeback [31:0] $end
   $var wire 32 ; shifter_output_decode [31:0] $end
   $var wire 32 C sign_imm_decode [31:0] $end
   $var wire 32 w& sign_imm_execute [31:0] $end
   $var wire 32 u! src_A_ALU_execute [31:0] $end
   $var wire 32 [ src_A_decode [31:0] $end
   $var wire 32 O& src_A_execute [31:0] $end
   $var wire 32 }! src_B_ALU_execute [31:0] $end
   $var wire 32 c src_B_decode [31:0] $end
   $var wire 32 W& src_B_execute [31:0] $end
   $var wire  1 O" stall_decode $end
   $var wire  1 G" stall_fetch $end
   $var wire  1 M! using_HI_LO_decode $end
   $var wire  1 G& using_HI_LO_execute $end
   $var wire 32 ]- write_data_execute [31:0] $end
   $var wire 32 a' write_data_memory [31:0] $end
   $var wire  5 m! write_register_execute [4:0] $end
   $var wire  5 Y+ write_register_memory [4:0] $end
   $var wire  5 ;, write_register_writeback [4:0] $end
   $scope module adder_decode $end
    $var wire 32 ; a [31:0] $end
    $var wire 32 -% b [31:0] $end
    $var wire 32 3 z [31:0] $end
   $upscope $end
   $scope module alu $end
    $var wire 64 y# ALU_HI_LO_output [63:0] $end
    $var wire 32 /" ALU_HI_output [31:0] $end
    $var wire 32 7" ALU_LO_output [31:0] $end
    $var wire  6 /& ALU_operation [5:0] $end
    $var wire 32 '" ALU_output [31:0] $end
    $var wire 64 Y# extended_input_1 [63:0] $end
    $var wire 64 i# extended_input_2 [63:0] $end
    $var wire 32 u! input_1 [31:0] $end
    $var wire 32 }! input_2 [31:0] $end
    $var wire  5 1# shift_amount [4:0] $end
    $var wire 64 9# sign_extened_input_1 [63:0] $end
    $var wire 64 I# sign_extened_input_2 [63:0] $end
   $upscope $end
   $scope module alu_input_mux $end
    $var wire 32 q+ ALU_HI_output_memory [31:0] $end
    $var wire 32 y+ ALU_LO_output_memory [31:0] $end
    $var wire 32 Y' ALU_output_memory [31:0] $end
    $var wire  2 '& ALU_src_B_execute [1:0] $end
    $var wire 32 C, HI_result_writeback [31:0] $end
    $var wire 32 K, LO_result_writeback [31:0] $end
    $var wire  3 _" forward_one_execute [2:0] $end
    $var wire  3 g" forward_two_execute [2:0] $end
    $var wire 32 !' program_counter_plus_eight_execute [31:0] $end
    $var wire 32 O& read_data_1_reg [31:0] $end
    $var wire 32 W& read_data_2_reg [31:0] $end
    $var wire 32 ?" result_writeback [31:0] $end
    $var wire 32 w& sign_imm_execute [31:0] $end
    $var wire 32 u! src_A_ALU_execute [31:0] $end
    $var wire 32 }! src_B_ALU_execute [31:0] $end
    $var wire 32 )# src_mux_input_0 [31:0] $end
   $upscope $end
   $scope module control_unit $end
    $var wire  6 =! ALU_function [5:0] $end
    $var wire  2 %! ALU_src_B [1:0] $end
    $var wire  1 ]! HI_register_write $end
    $var wire  1 e! LO_register_write $end
    $var wire  1 5! branch $end
    $var wire  6 !# funct [5:0] $end
    $var wire 32 %% instruction [31:0] $end
    $var wire  1 U! j_instruction $end
    $var wire  1 s memory_to_register $end
    $var wire  1 { memory_write $end
    $var wire  6 o" op [5:0] $end
    $var wire  1 E! program_counter_multiplexer_jump $end
    $var wire  2 -! register_destination [1:0] $end
    $var wire  1 k register_write $end
    $var wire  5 w" rt [4:0] $end
    $var wire  1 M! using_HI_LO $end
   $upscope $end
   $scope module decode_execute_register $end
    $var wire  6 =! ALU_function_decode [5:0] $end
    $var wire  6 /& ALU_function_execute [5:0] $end
    $var wire  2 %! ALU_src_B_decode [1:0] $end
    $var wire  2 '& ALU_src_B_execute [1:0] $end
    $var wire  1 ]! HI_register_write_decode $end
    $var wire  1 9+ HI_register_write_execute $end
    $var wire  1 e! LO_register_write_decode $end
    $var wire  1 A+ LO_register_write_execute $end
    $var wire  5 M% Rd_decode [4:0] $end
    $var wire  5 o& Rd_execute [4:0] $end
    $var wire  5 =% Rs_decode [4:0] $end
    $var wire  5 _& Rs_execute [4:0] $end
    $var wire  5 E% Rt_decode [4:0] $end
    $var wire  5 g& Rt_execute [4:0] $end
    $var wire  1 W" clear $end
    $var wire  1 # clk $end
    $var wire  1 U! j_instruction_decode $end
    $var wire  1 ?& j_instruction_execute $end
    $var wire 32 e% j_program_counter_decode [31:0] $end
    $var wire 32 1' j_program_counter_execute [31:0] $end
    $var wire  1 s memory_to_register_decode $end
    $var wire  1 u% memory_to_register_execute $end
    $var wire  1 { memory_write_decode $end
    $var wire  1 }% memory_write_execute $end
    $var wire  1 E! program_counter_multiplexer_jump_decode $end
    $var wire  1 7& program_counter_multiplexer_jump_execute $end
    $var wire 32 -% program_counter_plus_four_decode [31:0] $end
    $var wire 32 )' program_counter_plus_four_execute [31:0] $end
    $var wire  2 -! register_destination_decode [1:0] $end
    $var wire  2 m% register_destination_execute [1:0] $end
    $var wire  1 k register_write_decode $end
    $var wire  1 I+ register_write_execute $end
    $var wire  1 [, reset $end
    $var wire 32 C sign_imm_decode [31:0] $end
    $var wire 32 w& sign_imm_execute [31:0] $end
    $var wire 32 [ src_A_decode [31:0] $end
    $var wire 32 O& src_A_execute [31:0] $end
    $var wire 32 c src_B_decode [31:0] $end
    $var wire 32 W& src_B_execute [31:0] $end
    $var wire  1 M! using_HI_LO_decode $end
    $var wire  1 G& using_HI_LO_execute $end
   $upscope $end
   $scope module execute_memory_register $end
    $var wire 32 /" ALU_HI_output_execute [31:0] $end
    $var wire 32 q+ ALU_HI_output_memory [31:0] $end
    $var wire 32 7" ALU_LO_output_execute [31:0] $end
    $var wire 32 y+ ALU_LO_output_memory [31:0] $end
    $var wire 32 '" ALU_output_execute [31:0] $end
    $var wire 32 Y' ALU_output_memory [31:0] $end
    $var wire  1 9+ HI_register_write_execute $end
    $var wire  1 a+ HI_register_write_memory $end
    $var wire  1 A+ LO_register_write_execute $end
    $var wire  1 i+ LO_register_write_memory $end
    $var wire  1 # clk $end
    $var wire  1 ?& j_instruction_execute $end
    $var wire  1 Q' j_instruction_memory $end
    $var wire 32 1' j_program_counter_execute [31:0] $end
    $var wire 32 q' j_program_counter_memory [31:0] $end
    $var wire  1 u% memory_to_register_execute $end
    $var wire  1 9' memory_to_register_memory $end
    $var wire  1 }% memory_write_execute $end
    $var wire  1 A' memory_write_memory $end
    $var wire  1 7& program_counter_multiplexer_jump_execute $end
    $var wire  1 I' program_counter_multiplexer_jump_memory $end
    $var wire  1 I+ register_write_execute $end
    $var wire  1 Q+ register_write_memory $end
    $var wire  1 [, reset $end
    $var wire 32 ]- write_data_execute [31:0] $end
    $var wire 32 a' write_data_memory [31:0] $end
    $var wire  5 m! write_register_execute [4:0] $end
    $var wire  5 Y+ write_register_memory [4:0] $end
   $upscope $end
   $scope module fetch_decode_register $end
    $var wire  1 ;$ clear $end
    $var wire  1 # clk $end
    $var wire  1 O" enable $end
    $var wire 32 %% instruction_decode [31:0] $end
    $var wire 32 %- instruction_fetch [31:0] $end
    $var wire 32 -% program_counter_plus_four_decode [31:0] $end
    $var wire 32 s$ program_counter_plus_four_fetch [31:0] $end
    $var wire  1 [, reset $end
   $upscope $end
   $scope module hazard_unit $end
    $var wire  1 a+ HI_register_write_memory $end
    $var wire  1 +, HI_register_write_writeback $end
    $var wire  1 i+ LO_register_write_memory $end
    $var wire  1 3, LO_register_write_writeback $end
    $var wire  5 =% Rs_decode [4:0] $end
    $var wire  5 _& Rs_execute [4:0] $end
    $var wire  5 E% Rt_decode [4:0] $end
    $var wire  5 g& Rt_execute [4:0] $end
    $var wire  1 5! branch_decode $end
    $var wire  1 3$ branchstall $end
    $var wire  1 W" flush_execute_register $end
    $var wire  1 3( forward_register_file_output_A_decode $end
    $var wire  3 _" forward_register_file_output_A_execute [2:0] $end
    $var wire  1 ;( forward_register_file_output_B_decode $end
    $var wire  3 g" forward_register_file_output_B_execute [2:0] $end
    $var wire  1 +$ lwstall $end
    $var wire  1 u% memory_to_register_execute $end
    $var wire  1 9' memory_to_register_memory $end
    $var wire  1 7& program_counter_multiplexer_jump_execute $end
    $var wire  1 I+ register_write_execute $end
    $var wire  1 Q+ register_write_memory $end
    $var wire  1 #, register_write_writeback $end
    $var wire  1 O" stall_decode $end
    $var wire  1 G" stall_fetch $end
    $var wire  1 G& using_HI_LO_execute $end
    $var wire  5 m! write_register_execute [4:0] $end
    $var wire  5 Y+ write_register_memory [4:0] $end
    $var wire  5 ;, write_register_writeback [4:0] $end
   $upscope $end
   $scope module memory_writeback_register $end
    $var wire 32 q+ ALU_HI_output_memory [31:0] $end
    $var wire 32 C, ALU_HI_output_writeback [31:0] $end
    $var wire 32 y+ ALU_LO_output_memory [31:0] $end
    $var wire 32 K, ALU_LO_output_writeback [31:0] $end
    $var wire 32 Y' ALU_output_memory [31:0] $end
    $var wire 32 #( ALU_output_writeback [31:0] $end
    $var wire  1 a+ HI_register_write_memory $end
    $var wire  1 +, HI_register_write_writeback $end
    $var wire  1 i+ LO_register_write_memory $end
    $var wire  1 3, LO_register_write_writeback $end
    $var wire  1 # clk $end
    $var wire  1 9' memory_to_register_memory $end
    $var wire  1 y' memory_to_register_writeback $end
    $var wire 32 M- read_data_memory [31:0] $end
    $var wire 32 +( read_data_writeback [31:0] $end
    $var wire  1 Q+ register_write_memory $end
    $var wire  1 #, register_write_writeback $end
    $var wire  1 [, reset $end
    $var wire  5 Y+ write_register_memory [4:0] $end
    $var wire  5 ;, write_register_writeback [4:0] $end
   $upscope $end
   $scope module pc $end
    $var wire 32 K address_input [31:0] $end
    $var wire 32 k$ address_output [31:0] $end
    $var wire  1 # clk $end
    $var wire  1 G" enable $end
    $var wire  1 {$ halt $end
    $var wire  1 [, reset $end
   $upscope $end
   $scope module plus_four_adder $end
    $var wire 32 k$ a [31:0] $end
    $var wire 32 }- b [31:0] $end
    $var wire 32 s$ z [31:0] $end
   $upscope $end
   $scope module plus_four_adder_execute $end
    $var wire 32 }- a [31:0] $end
    $var wire 32 )' b [31:0] $end
    $var wire 32 !' z [31:0] $end
   $upscope $end
   $scope module program_counter_multiplexer $end
    $var wire 32 '. BUS_WIDTH [31:0] $end
    $var wire  1 ;$ control $end
    $var wire 32 s$ input_0 [31:0] $end
    $var wire 32 3 input_1 [31:0] $end
    $var wire 32 S resolved [31:0] $end
   $upscope $end
   $scope module program_counter_multiplexer_two $end
    $var wire 32 '. BUS_WIDTH [31:0] $end
    $var wire  1 I' control $end
    $var wire 32 S input_0 [31:0] $end
    $var wire 32 i' input_1 [31:0] $end
    $var wire 32 K resolved [31:0] $end
   $upscope $end
   $scope module reg_output_comparator $end
    $var wire 32 [$ a [31:0] $end
    $var wire 32 c$ b [31:0] $end
    $var wire  1 C$ c $end
    $var wire  6 5% op [5:0] $end
    $var wire  5 E% rt [4:0] $end
   $upscope $end
   $scope module register_file $end
    $var wire 32 K( HI_reg [31:0] $end
    $var wire 32 C, HI_write_data [31:0] $end
    $var wire  1 +, HI_write_enable $end
    $var wire 32 C( LO_reg [31:0] $end
    $var wire 32 K, LO_write_data [31:0] $end
    $var wire  1 3, LO_write_enable $end
    $var wire  1 # clk $end
    $var wire  1 + modified_write_clk $end
    $var wire  1 u- pipelined $end
    $var wire  5 =% read_address_1 [4:0] $end
    $var wire  5 E% read_address_2 [4:0] $end
    $var wire 32 K$ read_data_1 [31:0] $end
    $var wire 32 S$ read_data_2 [31:0] $end
    $var wire 32 K( read_data_HI [31:0] $end
    $var wire 32 C( read_data_LO [31:0] $end
    $var wire 32 k, read_register_2 [31:0] $end
    $var wire 32 S( registers(0) [31:0] $end
    $var wire 32 T( registers(1) [31:0] $end
    $var wire 32 ]( registers(10) [31:0] $end
    $var wire 32 ^( registers(11) [31:0] $end
    $var wire 32 _( registers(12) [31:0] $end
    $var wire 32 `( registers(13) [31:0] $end
    $var wire 32 a( registers(14) [31:0] $end
    $var wire 32 b( registers(15) [31:0] $end
    $var wire 32 c( registers(16) [31:0] $end
    $var wire 32 d( registers(17) [31:0] $end
    $var wire 32 e( registers(18) [31:0] $end
    $var wire 32 f( registers(19) [31:0] $end
    $var wire 32 U( registers(2) [31:0] $end
    $var wire 32 g( registers(20) [31:0] $end
    $var wire 32 h( registers(21) [31:0] $end
    $var wire 32 i( registers(22) [31:0] $end
    $var wire 32 j( registers(23) [31:0] $end
    $var wire 32 k( registers(24) [31:0] $end
    $var wire 32 l( registers(25) [31:0] $end
    $var wire 32 m( registers(26) [31:0] $end
    $var wire 32 n( registers(27) [31:0] $end
    $var wire 32 o( registers(28) [31:0] $end
    $var wire 32 p( registers(29) [31:0] $end
    $var wire 32 V( registers(3) [31:0] $end
    $var wire 32 q( registers(30) [31:0] $end
    $var wire 32 r( registers(31) [31:0] $end
    $var wire 32 W( registers(4) [31:0] $end
    $var wire 32 X( registers(5) [31:0] $end
    $var wire 32 Y( registers(6) [31:0] $end
    $var wire 32 Z( registers(7) [31:0] $end
    $var wire 32 [( registers(8) [31:0] $end
    $var wire 32 \( registers(9) [31:0] $end
    $var wire  5 ;, write_address [4:0] $end
    $var wire 32 ?" write_data [31:0] $end
    $var wire  1 #, write_enable $end
   $upscope $end
   $scope module write_register_execute_mux $end
    $var wire 32 /. BUS_WIDTH [31:0] $end
    $var wire  2 m% control [1:0] $end
    $var wire  5 g& input_0 [4:0] $end
    $var wire  5 o& input_1 [4:0] $end
    $var wire  5 7. input_2 [4:0] $end
    $var wire  5 ?. input_3 [4:0] $end
    $var wire  5 m! resolved [4:0] $end
   $upscope $end
   $scope module writeback_mux $end
    $var wire 32 '. BUS_WIDTH [31:0] $end
    $var wire  1 y' control $end
    $var wire 32 #( input_0 [31:0] $end
    $var wire 32 +( input_1 [31:0] $end
    $var wire 32 ?" resolved [31:0] $end
   $upscope $end
  $upscope $end
 $upscope $end
$enddefinitions $end


#0
0#
1+
b00000000000000000000000000000000 3
b00000000000000000000000000000000 ;
b00000000000000000000000000000000 C
b00000000000000000000000000000100 K
b00000000000000000000000000000100 S
b00000000000000000000000000000000 [
b00000000000000000000000000000000 c
1k
0s
0{
b00 %!
b01 -!
05!
b000000 =!
0E!
0M!
0U!
0]!
0e!
b00000 m!
b00000000000000000000000000000000 u!
b00000000000000000000000000000000 }!
b00000000000000000000000000000000 '"
b00000000000000000000000000000000 /"
b00000000000000000000000000000000 7"
b00000000000000000000000000000000 ?"
0G"
0O"
0W"
b000 _"
b000 g"
b000000 o"
b00000 w"
b000000 !#
b00000000000000000000000000000000 )#
b00000 1#
b0000000000000000000000000000000000000000000000000000000000000000 9#
b0000000000000000000000000000000000000000000000000000000000000000 I#
b0000000000000000000000000000000000000000000000000000000000000000 Y#
b0000000000000000000000000000000000000000000000000000000000000000 i#
b0000000000000000000000000000000000000000000000000000000000000000 y#
0+$
03$
0;$
0C$
b00000000000000000000000000000000 K$
b00000000000000000000000000000000 S$
b00000000000000000000000000000000 [$
b00000000000000000000000000000000 c$
b00000000000000000000000000000000 k$
b00000000000000000000000000000100 s$
1{$
b00000000000000000000000000000000 %%
b00000000000000000000000000000000 -%
b000000 5%
b00000 =%
b00000 E%
b00000 M%
b0000000000000000 U%
b00000000000000000000000000 ]%
b00000000000000000000000000000000 e%
b00 m%
0u%
0}%
b00 '&
b000000 /&
07&
0?&
0G&
b00000000000000000000000000000000 O&
b00000000000000000000000000000000 W&
b00000 _&
b00000 g&
b00000 o&
b00000000000000000000000000000000 w&
b00000000000000000000000000000100 !'
b00000000000000000000000000000000 )'
b00000000000000000000000000000000 1'
09'
0A'
0I'
0Q'
b00000000000000000000000000000000 Y'
b00000000000000000000000000000000 a'
b00000000000000000000000000000000 i'
b00000000000000000000000000000000 q'
0y'
b00000000000000000000000000000000 #(
b00000000000000000000000000000000 +(
03(
0;(
b00000000000000000000000000000000 C(
b00000000000000000000000000000000 K(
b00000000000000000000000000000000 S(
b00000000000000000000000000000000 T(
b00000000000000000000000000000000 U(
b00000000000000000000000000000000 V(
b00000000000000000000000000000000 W(
b00000000000000000000000000000000 X(
b00000000000000000000000000000000 Y(
b00000000000000000000000000000000 Z(
b00000000000000000000000000000000 [(
b00000000000000000000000000000000 \(
b00000000000000000000000000000000 ](
b00000000000000000000000000000000 ^(
b00000000000000000000000000000000 _(
b00000000000000000000000000000000 `(
b00000000000000000000000000000000 a(
b00000000000000000000000000000000 b(
b00000000000000000000000000000000 c(
b00000000000000000000000000000000 d(
b00000000000000000000000000000000 e(
b00000000000000000000000000000000 f(
b00000000000000000000000000000000 g(
b00000000000000000000000000000000 h(
b00000000000000000000000000000000 i(
b00000000000000000000000000000000 j(
b00000000000000000000000000000000 k(
b00000000000000000000000000000000 l(
b00000000000000000000000000000000 m(
b00000000000000000000000000000000 n(
b00000000000000000000000000000000 o(
b00000000000000000000000000000000 p(
b00000000000000000000000000000000 q(
b00000000000000000000000000000000 r(
09+
0A+
0I+
0Q+
b00000 Y+
0a+
0i+
b00000000000000000000000000000000 q+
b00000000000000000000000000000000 y+
0#,
0+,
03,
b00000 ;,
b00000000000000000000000000000000 C,
b00000000000000000000000000000000 K,
0S,
1[,
0c,
b00000000000000000000000000000000 k,
1s,
b00000000000000000000000000000000 {,
b00000000000000000000000000000000 %-
b00000000000000000000000000000000 --
05-
0=-
b00000000000000000000000000000000 E-
b00000000000000000000000000000000 M-
0U-
b00000000000000000000000000000000 ]-
0e-
0m-
1u-
b00000000000000000000000000000100 }-
b00000000000000000000000000100000 '.
b00000000000000000000000000000101 /.
b11111 7.
b00000 ?.
#2
1#
0+
b10111111110000000000000000000100 K
b10111111110000000000000000000100 S
b10111111110000000000000000000000 k$
b10111111110000000000000000000100 s$
0{$
1S,
1c,
b10111111110000000000000000000000 {,
#3
0#
1+
0S,
#3
0[,
#4
1#
0+
b10111111110000000000000000000100 3
b10111111110000000000000000001000 K
b10111111110000000000000000001000 S
b10111111110000000000000000000100 k$
b10111111110000000000000000001000 s$
b10111111110000000000000000000100 -%
b10110000000000000000000000000000 e%
b01 m%
1I+
1S,
b10111111110000000000000000000100 {,
b00100100000111000000000100000000 %-
#5
0#
1+
0S,
#5
#6
1#
0+
b10111111110000000000010000001000 3
b00000000000000000000010000000000 ;
b00000000000000000000000100000000 C
b10111111110000000000000000001100 K
b10111111110000000000000000001100 S
b01 %!
b00 -!
b100001 =!
b001001 o"
b11100 w"
b10111111110000000000000000001000 k$
b10111111110000000000000000001100 s$
b00100100000111000000000100000000 %%
b10111111110000000000000000001000 -%
b001001 5%
b11100 E%
b0000000100000000 U%
b00000111000000000100000000 ]%
b10110000011100000000010000000000 e%
b10111111110000000000000000001000 !'
b10111111110000000000000000000100 )'
b10110000000000000000000000000000 1'
1Q+
1S,
b10111111110000000000000000001000 {,
b00100100000000011111111111111111 %-
#7
0#
1+
0S,
#7
#8
1#
0+
b10111111110000000000000000001000 3
b11111111111111111111111111111100 ;
b11111111111111111111111111111111 C
b10111111110000000000000000010000 K
b10111111110000000000000000010000 S
b11100 m!
b00000000000000000000000100000000 }!
b00000000000000000000000100000000 '"
b00001 w"
b111111 !#
b0000000000000000000000000000000000000000000000000000000100000000 I#
b0000000000000000000000000000000000000000000000000000000100000000 i#
b10111111110000000000000000001100 k$
b10111111110000000000000000010000 s$
b00100100000000011111111111111111 %%
b10111111110000000000000000001100 -%
b00001 E%
b11111 M%
b1111111111111111 U%
b00000000011111111111111111 ]%
b10110000000001111111111111111100 e%
b00 m%
b01 '&
b100001 /&
b11100 g&
b00000000000000000000000100000000 w&
b10111111110000000000000000001100 !'
b10111111110000000000000000001000 )'
b10110000011100000000010000000000 1'
b10110000000000000000000000000000 q'
1#,
1S,
b10111111110000000000000000001100 {,
b00000011100000010000000000011000 %-
#9
0#
1+
0S,
#9
#10
1#
0+
b10111111110000000000000001110000 3
b00000000000000000000000001100000 ;
b00000000000000000000000000011000 C
b10111111110000000000000000010100 K
b10111111110000000000000000010100 S
b00 %!
b01 -!
b011000 =!
1]!
1e!
b00001 m!
b11111111111111111111111111111111 }!
b11111111111111111111111111111111 '"
b000000 o"
b011000 !#
b1111111111111111111111111111111111111111111111111111111111111111 I#
b0000000000000000000000000000000011111111111111111111111111111111 i#
b00000000000000000000000100000000 [$
b10111111110000000000000000010000 k$
b10111111110000000000000000010100 s$
b00000011100000010000000000011000 %%
b10111111110000000000000000010000 -%
b000000 5%
b11100 =%
b00000 M%
b0000000000011000 U%
b11100000010000000000011000 ]%
b10111110000001000000000001100000 e%
b00001 g&
b11111 o&
b11111111111111111111111111111111 w&
b10111111110000000000000000010000 !'
b10111111110000000000000000001100 )'
b10110000000001111111111111111100 1'
b00000000000000000000000100000000 Y'
b00000000000000000000000100000000 i'
b10110000011100000000010000000000 q'
13(
b11100 Y+
1S,
b10111111110000000000000000010000 {,
b00000000000000000000000000000000 %-
b00000000000000000000000100000000 --
#11
0#
1+
0S,
#11
#12
1#
0+
b10111111110000000000000000010100 3
b00000000000000000000000000000000 ;
b00000000000000000000000000000000 C
b10111111110000000000000000011000 K
b10111111110000000000000000011000 S
b000000 =!
0]!
0e!
b00000 m!
b00000000000000000000000100000000 u!
b00000000000000000000000000000000 '"
b11111111111111111111111111111111 /"
b11111111111111111111111100000000 7"
b00000000000000000000000100000000 ?"
b001 _"
b010 g"
b00000 w"
b000000 !#
b11111111111111111111111111111111 )#
b00100 1#
b0000000000000000000000000000000000000000000000000000000100000000 9#
b0000000000000000000000000000000000000000000000000000000100000000 Y#
b1111111111111111111111111111111111111111111111111111111100000000 y#
b00000000000000000000000000000000 [$
b10111111110000000000000000010100 k$
b10111111110000000000000000011000 s$
b00000000000000000000000000000000 %%
b10111111110000000000000000010100 -%
b00000 =%
b00000 E%
b0000000000000000 U%
b00000000000000000000000000 ]%
b10110000000000000000000000000000 e%
b01 m%
b00 '&
b011000 /&
b11100 _&
b00000 o&
b00000000000000000000000000011000 w&
b10111111110000000000000000010100 !'
b10111111110000000000000000010000 )'
b10111110000001000000000001100000 1'
b11111111111111111111111111111111 Y'
b11111111111111111111111111111111 i'
b10110000000001111111111111111100 q'
b00000000000000000000000100000000 #(
03(
19+
1A+
b00001 Y+
b11100 ;,
1S,
b10111111110000000000000000010100 {,
b11111111111111111111111111111111 --
#13
0#
1+
b00000000000000000000000100000000 o(
0S,
#13
#14
1#
0+
b10111111110000000000000000011000 3
b10111111110000000000000000011100 K
b10111111110000000000000000011100 S
b00000000000000000000000000000000 u!
b00000000000000000000000000000000 }!
b00000000000000000000000000000000 /"
b00000000000000000000000000000000 7"
b11111111111111111111111111111111 ?"
b000 _"
b000 g"
b00000000000000000000000000000000 )#
b00000 1#
b0000000000000000000000000000000000000000000000000000000000000000 9#
b0000000000000000000000000000000000000000000000000000000000000000 I#
b0000000000000000000000000000000000000000000000000000000000000000 Y#
b0000000000000000000000000000000000000000000000000000000000000000 i#
b0000000000000000000000000000000000000000000000000000000000000000 y#
b10111111110000000000000000011000 k$
b10111111110000000000000000011100 s$
b10111111110000000000000000011000 -%
b000000 /&
b00000 _&
b00000 g&
b00000000000000000000000000000000 w&
b10111111110000000000000000011000 !'
b10111111110000000000000000010100 )'
b10110000000000000000000000000000 1'
b00000000000000000000000000000000 Y'
b00000000000000000000000000000000 i'
b10111110000001000000000001100000 q'
b11111111111111111111111111111111 #(
09+
0A+
b00000 Y+
1a+
1i+
b11111111111111111111111111111111 q+
b11111111111111111111111100000000 y+
b00001 ;,
1S,
b10111111110000000000000000011000 {,
b00000000000000000001000000010000 %-
b00000000000000000000000000000000 --
#15
0#
1+
b11111111111111111111111111111111 T(
0S,
#15
#16
1#
0+
b10111111110000000100000001011100 3
b00000000000000000100000001000000 ;
b00000000000000000001000000010000 C
b10111111110000000000000000100000 K
b10111111110000000000000000100000 S
b111110 =!
1M!
b00000000000000000000000000000000 ?"
b010000 !#
b10111111110000000000000000011100 k$
b10111111110000000000000000100000 s$
b00000000000000000001000000010000 %%
b10111111110000000000000000011100 -%
b00010 M%
b0001000000010000 U%
b00000000000001000000010000 ]%
b10110000000000000100000001000000 e%
b10111111110000000000000000011100 !'
b10111111110000000000000000011000 )'
b10110000000000000000000000000000 q'
b00000000000000000000000000000000 #(
0a+
0i+
b00000000000000000000000000000000 q+
b00000000000000000000000000000000 y+
1+,
13,
b00000 ;,
b11111111111111111111111111111111 C,
b11111111111111111111111100000000 K,
1S,
b10111111110000000000000000011100 {,
b00000000000000000001100000010010 %-
#17
0#
1+
b11111111111111111111111100000000 [
b11111111111111111111111111111111 c
b11111111111111111111111100000000 C(
b11111111111111111111111111111111 K(
0S,
#17
