unofficial/iverilog_testing/programs/output/addiu/addiu.vcd
$date
	Fri Dec 18 15:16:07 2020
$end
$version
	Icarus Verilog
$end
$timescale
	1s
$end
$scope module mips_cpu_bus_tb_delay1 $end
$var wire 32 ! writedata [31:0] $end
$var wire 1 " write $end
$var wire 1 # waitrequest $end
$var wire 32 $ test [31:0] $end
$var wire 32 % register_v0 [31:0] $end
$var wire 32 & readdata [31:0] $end
$var wire 1 ' read $end
$var wire 4 ( byteenable [3:0] $end
$var wire 32 ) address [31:0] $end
$var wire 1 * active $end
$var reg 1 + clk $end
$var reg 1 , rst $end
$scope module cpuInst $end
$var wire 4 - byteenable [3:0] $end
$var wire 1 + clk $end
$var wire 32 . data_address [31:0] $end
$var wire 1 / program_counter_src_decode $end
$var wire 1 , reset $end
$var wire 32 0 writedata [31:0] $end
$var wire 5 1 write_register_writeback [4:0] $end
$var wire 5 2 write_register_memory [4:0] $end
$var wire 5 3 write_register_execute [4:0] $end
$var wire 32 4 write_data_memory [31:0] $end
$var wire 32 5 write_data_execute [31:0] $end
$var wire 1 # waitrequest $end
$var wire 1 6 using_HI_LO_execute $end
$var wire 1 7 using_HI_LO_decode $end
$var wire 1 8 stall_fetch $end
$var wire 1 9 stall_decode $end
$var wire 32 : src_B_execute [31:0] $end
$var wire 32 ; src_B_decode [31:0] $end
$var wire 32 < src_B_ALU_execute [31:0] $end
$var wire 32 = src_A_execute [31:0] $end
$var wire 32 > src_A_decode [31:0] $end
$var wire 32 ? src_A_ALU_writeback [31:0] $end
$var wire 32 @ src_A_ALU_memory [31:0] $end
$var wire 32 A src_A_ALU_execute [31:0] $end
$var wire 32 B sign_imm_execute [31:0] $end
$var wire 32 C sign_imm_decode [31:0] $end
$var wire 32 D shifter_output_decode [31:0] $end
$var wire 32 E result_writeback [31:0] $end
$var wire 1 F register_write_writeback $end
$var wire 1 G register_write_memory $end
$var wire 1 H register_write_execute $end
$var wire 1 I register_write_decode $end
$var wire 32 J register_v0_reg_file [31:0] $end
$var wire 32 K register_file_output_LO_decode [31:0] $end
$var wire 32 L register_file_output_HI_decode [31:0] $end
$var wire 32 M register_file_output_B_decode [31:0] $end
$var wire 32 N register_file_output_A_decode [31:0] $end
$var wire 2 O register_destination_execute [1:0] $end
$var wire 2 P register_destination_decode [1:0] $end
$var wire 32 Q readdata [31:0] $end
$var wire 32 R read_data_writeback_filtered [31:0] $end
$var wire 5 S read_address_2 [4:0] $end
$var wire 5 T read_address_1 [4:0] $end
$var wire 32 U program_counter_prime [31:0] $end
$var wire 32 V program_counter_plus_four_fetch [31:0] $end
$var wire 32 W program_counter_plus_four_execute [31:0] $end
$var wire 32 X program_counter_plus_four_decode [31:0] $end
$var wire 32 Y program_counter_plus_eight_execute [31:0] $end
$var wire 32 Z program_counter_mux_1_out [31:0] $end
$var wire 1 [ program_counter_multiplexer_jump_memory $end
$var wire 1 \ program_counter_multiplexer_jump_execute $end
$var wire 1 ] program_counter_multiplexer_jump_decode $end
$var wire 32 ^ program_counter_branch_decode [31:0] $end
$var wire 6 _ op_writeback [5:0] $end
$var wire 6 ` op_memory [5:0] $end
$var wire 6 a op_execute [5:0] $end
$var wire 6 b op [5:0] $end
$var wire 1 c memory_write_memory $end
$var wire 1 d memory_write_execute $end
$var wire 1 e memory_write_decode $end
$var wire 1 f memory_to_register_writeback $end
$var wire 1 g memory_to_register_memory $end
$var wire 1 h memory_to_register_execute $end
$var wire 1 i memory_to_register_decode $end
$var wire 32 j j_program_counter_memory [31:0] $end
$var wire 32 k j_program_counter_execute [31:0] $end
$var wire 32 l j_program_counter_decode [31:0] $end
$var wire 26 m j_offset [25:0] $end
$var wire 1 n j_instruction_memory $end
$var wire 1 o j_instruction_execute $end
$var wire 1 p j_instruction_decode $end
$var wire 32 q instr_address [31:0] $end
$var wire 16 r immediate [15:0] $end
$var wire 3 s forward_B_execute [2:0] $end
$var wire 1 t forward_B_decode $end
$var wire 3 u forward_A_execute [2:0] $end
$var wire 1 v forward_A_decode $end
$var wire 1 w flush_execute_register $end
$var wire 1 x equal_decode $end
$var wire 32 y comparator_2 [31:0] $end
$var wire 32 z comparator_1 [31:0] $end
$var wire 4 { byteenable_writeback [3:0] $end
$var wire 1 | branch_decode $end
$var wire 1 * active $end
$var wire 5 } Rt_execute [4:0] $end
$var wire 5 ~ Rt_decode [4:0] $end
$var wire 5 !" Rs_execute [4:0] $end
$var wire 5 "" Rs_decode [4:0] $end
$var wire 5 #" Rd_execute [4:0] $end
$var wire 5 $" Rd_decode [4:0] $end
$var wire 1 %" LO_register_write_writeback $end
$var wire 1 &" LO_register_write_memory $end
$var wire 1 '" LO_register_write_execute $end
$var wire 1 (" LO_register_write_decode $end
$var wire 1 )" HI_register_write_writeback $end
$var wire 1 *" HI_register_write_memory $end
$var wire 1 +" HI_register_write_execute $end
$var wire 1 ," HI_register_write_decode $end
$var wire 1 -" HALT_writeback $end
$var wire 1 ." HALT_memory $end
$var wire 1 /" HALT_fetch $end
$var wire 1 0" HALT_execute $end
$var wire 1 1" HALT_decode $end
$var wire 2 2" ALU_src_B_execute [1:0] $end
$var wire 2 3" ALU_src_B_decode [1:0] $end
$var wire 32 4" ALU_output_writeback [31:0] $end
$var wire 32 5" ALU_output_memory_resolved [31:0] $end
$var wire 32 6" ALU_output_memory [31:0] $end
$var wire 32 7" ALU_output_execute [31:0] $end
$var wire 6 8" ALU_function_execute [5:0] $end
$var wire 6 9" ALU_function_decode [5:0] $end
$var wire 32 :" ALU_LO_output_writeback [31:0] $end
$var wire 32 ;" ALU_LO_output_memory [31:0] $end
$var wire 32 <" ALU_LO_output_execute [31:0] $end
$var wire 32 =" ALU_HI_output_writeback [31:0] $end
$var wire 32 >" ALU_HI_output_memory [31:0] $end
$var wire 32 ?" ALU_HI_output_execute [31:0] $end
$var reg 32 @" address [31:0] $end
$var reg 4 A" byteenable_memory [3:0] $end
$var reg 2 B" fetch_state [1:0] $end
$var reg 32 C" instruction_decode [31:0] $end
$var reg 1 D" internal_clk $end
$var reg 1 ' read $end
$var reg 32 E" read_data_writeback [31:0] $end
$var reg 32 F" register_v0 [31:0] $end
$var reg 1 " write $end
$scope module adder_decode $end
$var wire 32 G" a [31:0] $end
$var wire 32 H" z [31:0] $end
$var wire 32 I" b [31:0] $end
$upscope $end
$scope module alu $end
$var wire 64 J" sign_extened_input_2 [63:0] $end
$var wire 64 K" sign_extened_input_1 [63:0] $end
$var wire 5 L" shift_amount [4:0] $end
$var wire 32 M" input_2 [31:0] $end
$var wire 32 N" input_1 [31:0] $end
$var wire 64 O" extended_input_2 [63:0] $end
$var wire 64 P" extended_input_1 [63:0] $end
$var wire 6 Q" ALU_operation [5:0] $end
$var reg 64 R" ALU_HI_LO_output [63:0] $end
$var reg 32 S" ALU_HI_output [31:0] $end
$var reg 32 T" ALU_LO_output [31:0] $end
$var reg 32 U" ALU_output [31:0] $end
$upscope $end
$scope module alu_input_mux $end
$var wire 32 V" sign_imm_execute [31:0] $end
$var wire 32 W" result_writeback [31:0] $end
$var wire 32 X" read_data_2_reg [31:0] $end
$var wire 32 Y" read_data_1_reg [31:0] $end
$var wire 32 Z" program_counter_plus_eight_execute [31:0] $end
$var wire 3 [" forward_two_execute [2:0] $end
$var wire 3 \" forward_one_execute [2:0] $end
$var wire 32 ]" LO_result_writeback [31:0] $end
$var wire 32 ^" HI_result_writeback [31:0] $end
$var wire 2 _" ALU_src_B_execute [1:0] $end
$var wire 32 `" ALU_output_memory [31:0] $end
$var wire 32 a" ALU_LO_output_memory [31:0] $end
$var wire 32 b" ALU_HI_output_memory [31:0] $end
$var reg 32 c" src_A_ALU_execute [31:0] $end
$var reg 32 d" src_B_ALU_execute [31:0] $end
$var reg 32 e" src_mux_input_0 [31:0] $end
$var reg 32 f" write_data_execute [31:0] $end
$upscope $end
$scope module control_unit $end
$var wire 32 g" instruction [31:0] $end
$var reg 6 h" ALU_function [5:0] $end
$var reg 2 i" ALU_src_B [1:0] $end
$var reg 1 ," HI_register_write $end
$var reg 1 (" LO_register_write $end
$var reg 1 | branch $end
$var reg 6 j" funct [5:0] $end
$var reg 1 p j_instruction $end
$var reg 1 i memory_to_register $end
$var reg 1 e memory_write $end
$var reg 6 k" op [5:0] $end
$var reg 1 ] program_counter_multiplexer_jump $end
$var reg 2 l" register_destination [1:0] $end
$var reg 1 I register_write $end
$var reg 5 m" rt [4:0] $end
$var reg 1 7 using_HI_LO $end
$upscope $end
$scope module decode_execute_register $end
$var wire 6 n" ALU_function_decode [5:0] $end
$var wire 2 o" ALU_src_B_decode [1:0] $end
$var wire 1 ," HI_register_write_decode $end
$var wire 1 (" LO_register_write_decode $end
$var wire 5 p" Rd_decode [4:0] $end
$var wire 5 q" Rs_decode [4:0] $end
$var wire 5 r" Rt_decode [4:0] $end
$var wire 1 D" clk $end
$var wire 1 p j_instruction_decode $end
$var wire 32 s" j_program_counter_decode [31:0] $end
$var wire 1 i memory_to_register_decode $end
$var wire 1 e memory_write_decode $end
$var wire 6 t" op_decode [5:0] $end
$var wire 1 ] program_counter_multiplexer_jump_decode $end
$var wire 2 u" register_destination_decode [1:0] $end
$var wire 1 I register_write_decode $end
$var wire 1 , reset $end
$var wire 32 v" sign_imm_decode [31:0] $end
$var wire 32 w" src_A_decode [31:0] $end
$var wire 32 x" src_B_decode [31:0] $end
$var wire 1 7 using_HI_LO_decode $end
$var wire 32 y" program_counter_plus_four_decode [31:0] $end
$var wire 1 w clear $end
$var wire 1 1" HALT_decode $end
$var reg 6 z" ALU_function_execute [5:0] $end
$var reg 2 {" ALU_src_B_execute [1:0] $end
$var reg 1 0" HALT_execute $end
$var reg 1 +" HI_register_write_execute $end
$var reg 1 '" LO_register_write_execute $end
$var reg 5 |" Rd_execute [4:0] $end
$var reg 5 }" Rs_execute [4:0] $end
$var reg 5 ~" Rt_execute [4:0] $end
$var reg 1 o j_instruction_execute $end
$var reg 32 !# j_program_counter_execute [31:0] $end
$var reg 1 h memory_to_register_execute $end
$var reg 1 d memory_write_execute $end
$var reg 6 "# op_execute [5:0] $end
$var reg 1 \ program_counter_multiplexer_jump_execute $end
$var reg 32 ## program_counter_plus_four_execute [31:0] $end
$var reg 2 $# register_destination_execute [1:0] $end
$var reg 1 H register_write_execute $end
$var reg 32 %# sign_imm_execute [31:0] $end
$var reg 32 &# src_A_execute [31:0] $end
$var reg 32 '# src_B_execute [31:0] $end
$var reg 1 6 using_HI_LO_execute $end
$upscope $end
$scope module execute_memory_register $end
$var wire 32 (# ALU_HI_output_execute [31:0] $end
$var wire 32 )# ALU_LO_output_execute [31:0] $end
$var wire 32 *# ALU_output_execute [31:0] $end
$var wire 1 0" HALT_execute $end
$var wire 1 +" HI_register_write_execute $end
$var wire 1 '" LO_register_write_execute $end
$var wire 1 D" clk $end
$var wire 1 o j_instruction_execute $end
$var wire 32 +# j_program_counter_execute [31:0] $end
$var wire 1 h memory_to_register_execute $end
$var wire 1 d memory_write_execute $end
$var wire 6 ,# op_execute [5:0] $end
$var wire 1 \ program_counter_multiplexer_jump_execute $end
$var wire 1 H register_write_execute $end
$var wire 1 , reset $end
$var wire 32 -# src_A_ALU_execute [31:0] $end
$var wire 32 .# write_data_execute [31:0] $end
$var wire 5 /# write_register_execute [4:0] $end
$var reg 32 0# ALU_HI_output_memory [31:0] $end
$var reg 32 1# ALU_LO_output_memory [31:0] $end
$var reg 32 2# ALU_output_memory [31:0] $end
$var reg 1 ." HALT_memory $end
$var reg 1 *" HI_register_write_memory $end
$var reg 1 &" LO_register_write_memory $end
$var reg 1 n j_instruction_memory $end
$var reg 32 3# j_program_counter_memory [31:0] $end
$var reg 1 g memory_to_register_memory $end
$var reg 1 c memory_write_memory $end
$var reg 6 4# op_memory [5:0] $end
$var reg 1 [ program_counter_multiplexer_jump_memory $end
$var reg 1 G register_write_memory $end
$var reg 32 5# src_A_ALU_memory [31:0] $end
$var reg 32 6# write_data_memory [31:0] $end
$var reg 5 7# write_register_memory [4:0] $end
$upscope $end
$scope module fetch_decode_register $end
$var wire 1 D" clk $end
$var wire 1 , reset $end
$var wire 32 8# program_counter_plus_four_fetch [31:0] $end
$var wire 1 9 enable $end
$var wire 1 /" HALT_fetch $end
$var reg 1 1" HALT_decode $end
$var reg 32 9# program_counter_plus_four_decode [31:0] $end
$upscope $end
$scope module hazard_unit $end
$var wire 1 *" HI_register_write_memory $end
$var wire 1 &" LO_register_write_memory $end
$var wire 5 :# Rs_decode [4:0] $end
$var wire 5 ;# Rs_execute [4:0] $end
$var wire 5 <# Rt_decode [4:0] $end
$var wire 5 =# Rt_execute [4:0] $end
$var wire 1 | branch_decode $end
$var wire 1 h memory_to_register_execute $end
$var wire 1 g memory_to_register_memory $end
$var wire 1 \ program_counter_multiplexer_jump_execute $end
$var wire 1 H register_write_execute $end
$var wire 1 G register_write_memory $end
$var wire 1 6 using_HI_LO_execute $end
$var wire 5 ># write_register_memory [4:0] $end
$var wire 5 ?# write_register_writeback [4:0] $end
$var wire 5 @# write_register_execute [4:0] $end
$var wire 1 F register_write_writeback $end
$var wire 1 %" LO_register_write_writeback $end
$var wire 1 )" HI_register_write_writeback $end
$var reg 1 A# branchstall $end
$var reg 1 w flush_execute_register $end
$var reg 1 v forward_register_file_output_A_decode $end
$var reg 3 B# forward_register_file_output_A_execute [2:0] $end
$var reg 1 t forward_register_file_output_B_decode $end
$var reg 3 C# forward_register_file_output_B_execute [2:0] $end
$var reg 1 D# lwstall $end
$var reg 1 9 stall_decode $end
$var reg 1 8 stall_fetch $end
$upscope $end
$scope module memory_filter $end
$var wire 32 E# read_data_writeback [31:0] $end
$var wire 1 , reset $end
$var wire 32 F# src_A_writeback [31:0] $end
$var wire 6 G# op_writeback [5:0] $end
$var wire 4 H# byteenable_writeback [3:0] $end
$var reg 32 I# filtered_output_writeback [31:0] $end
$var reg 32 J# temp_filtered [31:0] $end
$upscope $end
$scope module memory_writeback_register $end
$var wire 32 K# ALU_HI_output_memory [31:0] $end
$var wire 32 L# ALU_LO_output_memory [31:0] $end
$var wire 32 M# ALU_output_memory [31:0] $end
$var wire 1 ." HALT_memory $end
$var wire 1 *" HI_register_write_memory $end
$var wire 1 &" LO_register_write_memory $end
$var wire 4 N# byteenable_memory [3:0] $end
$var wire 1 D" clk $end
$var wire 1 g memory_to_register_memory $end
$var wire 6 O# op_memory [5:0] $end
$var wire 1 G register_write_memory $end
$var wire 1 , reset $end
$var wire 32 P# src_A_ALU_memory [31:0] $end
$var wire 5 Q# write_register_memory [4:0] $end
$var reg 32 R# ALU_HI_output_writeback [31:0] $end
$var reg 32 S# ALU_LO_output_writeback [31:0] $end
$var reg 32 T# ALU_output_writeback [31:0] $end
$var reg 1 -" HALT_writeback $end
$var reg 1 )" HI_register_write_writeback $end
$var reg 1 %" LO_register_write_writeback $end
$var reg 4 U# byteenable_writeback [3:0] $end
$var reg 1 f memory_to_register_writeback $end
$var reg 6 V# op_writeback [5:0] $end
$var reg 1 F register_write_writeback $end
$var reg 32 W# src_A_ALU_writeback [31:0] $end
$var reg 5 X# write_register_writeback [4:0] $end
$upscope $end
$scope module pc $end
$var wire 1 D" clk $end
$var wire 1 8 enable $end
$var wire 1 , reset $end
$var wire 32 Y# address_input [31:0] $end
$var reg 32 Z# address_output [31:0] $end
$var reg 1 /" halt $end
$upscope $end
$scope module plus_four_adder $end
$var wire 32 [# a [31:0] $end
$var wire 32 \# b [31:0] $end
$var wire 32 ]# z [31:0] $end
$upscope $end
$scope module plus_four_adder_execute $end
$var wire 32 ^# a [31:0] $end
$var wire 32 _# b [31:0] $end
$var wire 32 `# z [31:0] $end
$upscope $end
$scope module program_counter_multiplexer $end
$var wire 1 / control $end
$var wire 32 a# input_0 [31:0] $end
$var wire 32 b# input_1 [31:0] $end
$var wire 32 c# resolved [31:0] $end
$upscope $end
$scope module program_counter_multiplexer_two $end
$var wire 1 [ control $end
$var wire 32 d# input_0 [31:0] $end
$var wire 32 e# input_1 [31:0] $end
$var wire 32 f# resolved [31:0] $end
$upscope $end
$scope module reg_output_comparator $end
$var wire 32 g# a [31:0] $end
$var wire 32 h# b [31:0] $end
$var wire 6 i# op [5:0] $end
$var wire 5 j# rt [4:0] $end
$var reg 1 x c $end
$upscope $end
$scope module register_file $end
$var wire 32 k# HI_write_data [31:0] $end
$var wire 1 )" HI_write_enable $end
$var wire 32 l# LO_write_data [31:0] $end
$var wire 1 %" LO_write_enable $end
$var wire 1 D" clk $end
$var wire 1 m# modified_write_clk $end
$var wire 1 n# pipelined $end
$var wire 5 o# read_address_1 [4:0] $end
$var wire 5 p# read_address_2 [4:0] $end
$var wire 32 q# read_data_1 [31:0] $end
$var wire 32 r# read_data_2 [31:0] $end
$var wire 32 s# read_data_HI [31:0] $end
$var wire 32 t# read_data_LO [31:0] $end
$var wire 32 u# read_register_2 [31:0] $end
$var wire 1 , reset $end
$var wire 5 v# write_address [4:0] $end
$var wire 1 F write_enable $end
$var wire 32 w# write_data [31:0] $end
$var reg 32 x# HI_reg [31:0] $end
$var reg 32 y# LO_reg [31:0] $end
$scope begin $ivl_for_loop0 $end
$var integer 32 z# i [31:0] $end
$upscope $end
$upscope $end
$scope module write_register_execute_mux $end
$var wire 2 {# control [1:0] $end
$var wire 5 |# input_0 [4:0] $end
$var wire 5 }# input_1 [4:0] $end
$var wire 5 ~# input_2 [4:0] $end
$var wire 5 !$ input_3 [4:0] $end
$var reg 5 "$ resolved [4:0] $end
$upscope $end
$scope module writeback_mux $end
$var wire 1 f control $end
$var wire 32 #$ input_0 [31:0] $end
$var wire 32 $$ input_1 [31:0] $end
$var wire 32 %$ resolved [31:0] $end
$upscope $end
$upscope $end
$scope module raminst $end
$var wire 32 &$ address [31:0] $end
$var wire 1 + clk $end
$var wire 1 ' read $end
$var wire 1 " write $end
$var wire 32 '$ writedata [31:0] $end
$var reg 32 ($ readdata [31:0] $end
$var reg 32 )$ test [31:0] $end
$var reg 1 # waitrequest $end
$scope begin $unm_blk_34 $end
$var integer 32 *$ i [31:0] $end
$var integer 32 +$ j [31:0] $end
$upscope $end
$upscope $end
$upscope $end
$enddefinitions $end
#0
$dumpvars
b100000000000000000000 +$
b11000000000000000000000000000000 *$
bx )$
bx ($
bx '$
bx00 &$
bx %$
bx $$
bx #$
bx "$
b0 !$
b11111 ~#
bx }#
bx |#
bx {#
b0 z#
bx y#
bx x#
bx w#
bx v#
bx u#
bx t#
bx s#
bx r#
bx q#
bx p#
bx o#
1n#
1m#
bx l#
bx k#
bx j#
bx i#
bx h#
bx g#
bx f#
bx e#
bx d#
bx c#
bx b#
bx a#
bx `#
bx _#
b100 ^#
bx ]#
b100 \#
bx [#
bx Z#
bx Y#
bx X#
bx W#
bx V#
bx U#
bx T#
bx S#
bx R#
bx Q#
bx P#
bx O#
b1111 N#
bx M#
bx L#
bx K#
bx J#
bx I#
bx H#
bx G#
bx F#
bx E#
xD#
b0 C#
b0 B#
xA#
bx @#
bx ?#
bx >#
bx =#
bx <#
bx ;#
bx :#
bx 9#
bx 8#
bx 7#
bx 6#
bx 5#
bx 4#
bx 3#
bx 2#
bx 1#
bx 0#
bx /#
bx .#
bx -#
bx ,#
bx +#
bx *#
bx )#
bx (#
bx '#
bx &#
bx %#
bx $#
bx ##
bx "#
bx !#
bx ~"
bx }"
bx |"
bx {"
bx z"
bx y"
bx x"
bx w"
bx v"
bx u"
bx t"
bx00 s"
bx r"
bx q"
bx p"
bx o"
bx n"
bx m"
bx l"
bx k"
bx j"
bx i"
bx h"
bx g"
bx f"
bx e"
b0 d"
bx c"
bx b"
bx a"
bx `"
bx _"
bx ^"
bx ]"
b0 \"
b0 ["
bx Z"
bx Y"
bx X"
bx W"
bx V"
bx U"
bx T"
bx S"
bx R"
bx Q"
b0xxxxxxxxxxxxxxxxxxxxxxxxxxxxxxxx P"
b0 O"
bx N"
b0 M"
bx L"
bx K"
b0 J"
bx I"
bx H"
bx00 G"
bx F"
bx E"
0D"
bx C"
bx B"
b1111 A"
bx00 @"
bx ?"
bx >"
bx ="
bx <"
bx ;"
bx :"
bx 9"
bx 8"
bx 7"
bx 6"
bx 5"
bx 4"
bx 3"
bx 2"
x1"
x0"
x/"
x."
x-"
x,"
x+"
x*"
x)"
x("
x'"
x&"
x%"
bx $"
bx #"
bx ""
bx !"
bx ~
bx }
x|
bx {
bx z
bx y
0x
xw
xv
b0 u
xt
b0 s
bx r
bx q
xp
xo
xn
bx m
bx00 l
bx k
bx j
xi
xh
xg
xf
xe
xd
xc
bx b
bx a
bx `
bx _
bx ^
x]
x\
x[
bx Z
bx Y
bx X
bx W
bx V
bx U
bx T
bx S
bx R
bx Q
bx P
bx O
bx N
bx M
bx L
bx K
bx J
xI
xH
xG
xF
bx E
bx00 D
bx C
bx B
bx A
bx @
bx ?
bx >
bx =
b0 <
bx ;
bx :
x9
x8
x7
x6
bx 5
bx 4
bx 3
bx 2
bx 1
bx 0
0/
bx .
b1111 -
0,
0+
x*
bx00 )
b1111 (
x'
bx &
bx %
bx $
0#
x"
bx !
$end
#1
b0 7"
b0 U"
b0 *#
b10111111110000000000000000000100 ^
b10111111110000000000000000000100 H"
b10111111110000000000000000000100 b#
b10111111110000000000000000000100 U
b10111111110000000000000000000100 Y#
b10111111110000000000000000000100 f#
b0 L"
b0 D
b0 G"
b0 ;
b0 x"
b0 >
b0 w"
b10111111110000000000000000000100 Z
b10111111110000000000000000000100 c#
b10111111110000000000000000000100 d#
b0 5"
b0 e#
b0 y
b0 h#
b0 z
b0 g#
b0 E
b0 W"
b0 w#
b0 %$
0w
09
08
0A#
0t
0v
0D#
b10111111110000000000000000000000 )
b10111111110000000000000000000000 @"
b10111111110000000000000000000000 &$
b0 %
b0 F"
b0 3
b0 /#
b0 @#
b0 "$
b0 5
b0 f"
b0 .#
b0 e"
b0 P"
b0 K"
b0 A
b0 N"
b0 c"
b0 -#
b0 b
b0 t"
b0 i#
b0 N
b0 q#
b0 T
b0 o#
b0 ""
b0 q"
b0 :#
b0 M
b0 r#
b0 S
b0 p#
b0 ~
b0 r"
b0 <#
b0 j#
b0 $"
b0 p"
b0 C
b0 v"
b0 r
b10110000000000000000000000000000 l
b10110000000000000000000000000000 s"
b0 m
07
0p
0]
b0 9"
b0 h"
b0 n"
0("
0,"
0|
b1 P
b1 l"
b1 u"
b0 3"
b0 i"
b0 o"
0e
0i
1I
b0 j"
b0 m"
b0 k"
0/"
b10111111110000000000000000000100 V
b10111111110000000000000000000100 8#
b10111111110000000000000000000100 ]#
b10111111110000000000000000000100 a#
b10111111110000000000000000000000 q
b10111111110000000000000000000000 Z#
b10111111110000000000000000000000 [#
01"
b10111111110000000000000000000100 X
b10111111110000000000000000000100 I"
b10111111110000000000000000000100 y"
b10111111110000000000000000000100 9#
00"
b0 :
b0 X"
b0 '#
b0 =
b0 Y"
b0 &#
b0 k
b0 !#
b0 +#
b100 Y
b100 Z"
b100 `#
b0 W
b0 ##
b0 _#
b0 a
b0 "#
b0 ,#
06
0o
0\
b0 B
b0 V"
b0 %#
b0 !"
b0 }"
b0 ;#
b0 #"
b0 |"
b0 }#
b0 }
b0 ~"
b0 =#
b0 |#
b0 8"
b0 Q"
b0 z"
0'"
0+"
b0 O
b0 $#
b0 {#
b0 2"
b0 _"
b0 {"
0d
0h
0H
b0 @
b0 5#
b0 P#
b0 `
b0 4#
b0 O#
0."
b0 j
b0 3#
0n
b0 2
b0 7#
b0 >#
b0 Q#
b0 !
b0 0
b0 '$
b0 4
b0 6#
b0 ;"
b0 a"
b0 1#
b0 L#
b0 >"
b0 b"
b0 0#
b0 K#
b0 .
b0 6"
b0 `"
b0 2#
b0 M#
0[
0&"
0*"
0c
0g
0G
b0 ?
b0 F#
b0 W#
b0 {
b0 H#
b0 U#
b0 _
b0 G#
b0 V#
1*
0-"
b0 :"
b0 ]"
b0 S#
b0 l#
b0 ="
b0 ^"
b0 R#
b0 k#
b0 1
b0 ?#
b0 X#
b0 v#
b0 4"
b0 T#
b0 #$
0%"
0)"
0f
0F
b0 J
b0 u#
b11 B"
b0 E"
b0 E#
b0 C"
b0 g"
b0 R
b0 I#
b0 $$
b100000 z#
0"
0'
1,
1+
#2
0+
#3
b0 7"
b0 U"
b0 *#
b0 J#
0,
1+
#4
1#
1'
0+
#5
0#
b100100000000100000000000000001 &
b100100000000100000000000000001 Q
b100100000000100000000000000001 ($
1+
#6
0+
#7
b0 7"
b0 U"
b0 *#
b0 B"
0'
1+
#8
1#
1'
0+
#9
0#
1+
#10
0+
#11
b10111111110000000000000000001000 U
b10111111110000000000000000001000 Y#
b10111111110000000000000000001000 f#
b10111111110000000000000000001000 Z
b10111111110000000000000000001000 c#
b10111111110000000000000000001000 d#
b10 3
b10 /#
b10 @#
b10 "$
b1 O"
b1 J"
b1 <
b1 M"
b1 d"
b10111111110000000000000000000100 )
b10111111110000000000000000000100 @"
b10111111110000000000000000000100 &$
b1111 {
b1111 H#
b1111 U#
bx ;"
bx a"
bx 1#
bx L#
bx >"
bx b"
bx 0#
bx K#
b1001 a
b1001 "#
b1001 ,#
b1 B
b1 V"
b1 %#
b10 }
b10 ~"
b10 =#
b10 |#
b100001 8"
b100001 Q"
b100001 z"
b1 2"
b1 _"
b1 {"
1H
b10110000000010000000000000000100 k
b10110000000010000000000000000100 !#
b10110000000010000000000000000100 +#
b10111111110000000000000000001000 Y
b10111111110000000000000000001000 Z"
b10111111110000000000000000001000 `#
b10111111110000000000000000000100 W
b10111111110000000000000000000100 ##
b10111111110000000000000000000100 _#
b10111111110000000000000000001000 V
b10111111110000000000000000001000 8#
b10111111110000000000000000001000 ]#
b10111111110000000000000000001000 a#
b10111111110000000000000000000100 q
b10111111110000000000000000000100 Z#
b10111111110000000000000000000100 [#
b1 7"
b1 U"
b1 *#
b10111111110000000000000000001000 ^
b10111111110000000000000000001000 H"
b10111111110000000000000000001000 b#
b100 D
b100 G"
0m#
b1001 b
b1001 t"
b1001 i#
b10 S
b10 p#
b10 ~
b10 r"
b10 <#
b10 j#
b1 C
b1 v"
b1 r
b10110000000010000000000000000100 l
b10110000000010000000000000000100 s"
b100000000000000001 m
b100001 9"
b100001 h"
b100001 n"
b0 P
b0 l"
b0 u"
b1 3"
b1 i"
b1 o"
b1 j"
b10 m"
b1001 k"
1D"
b100100000000100000000000000001 C"
b100100000000100000000000000001 g"
0'
1+
#12
1#
1m#
1'
0D"
0+
#13
0#
1+
#14
0+
#15
b10111111110000000000000000001100 U
b10111111110000000000000000001100 Y#
b10111111110000000000000000001100 f#
b1 y
b1 h#
b1 5
b1 f"
b1 .#
b1 e"
b10111111110000000000000000001100 Z
b10111111110000000000000000001100 c#
b10111111110000000000000000001100 d#
b1 5"
b1 e#
b10111111110000000000000000001000 )
b10111111110000000000000000001000 @"
b10111111110000000000000000001000 &$
b1 %
b1 F"
b1 7"
b1 U"
b1 *#
1t
b10 s
b10 ["
b10 C#
b10111111110000000000000000001100 V
b10111111110000000000000000001100 8#
b10111111110000000000000000001100 ]#
b10111111110000000000000000001100 a#
b10111111110000000000000000001000 q
b10111111110000000000000000001000 Z#
b10111111110000000000000000001000 [#
b10111111110000000000000000001100 ^
b10111111110000000000000000001100 H"
b10111111110000000000000000001100 b#
b10111111110000000000000000001000 X
b10111111110000000000000000001000 I"
b10111111110000000000000000001000 y"
b10111111110000000000000000001000 9#
b1001 `
b1001 4#
b1001 O#
b10110000000010000000000000000100 j
b10110000000010000000000000000100 3#
b10 2
b10 7#
b10 >#
b10 Q#
b1 .
b1 6"
b1 `"
b1 2#
b1 M#
1G
bx :"
bx ]"
bx S#
bx l#
bx ="
bx ^"
bx R#
bx k#
0m#
1D"
0'
1+
#16
1#
1m#
1'
0D"
0+
#17
0#
1+
#18
0+
#19
b10111111110000000000000000010000 U
b10111111110000000000000000010000 Y#
b10111111110000000000000000010000 f#
b1 E
b1 W"
b1 w#
b1 %$
b10111111110000000000000000010000 Z
b10111111110000000000000000010000 c#
b10111111110000000000000000010000 d#
b1 7"
b1 U"
b1 *#
b10111111110000000000000000001100 )
b10111111110000000000000000001100 @"
b10111111110000000000000000001100 &$
b1001 _
b1001 G#
b1001 V#
b10 1
b10 ?#
b10 X#
b10 v#
b1 4"
b1 T#
b1 #$
1F
b1 !
b1 0
b1 '$
b1 4
b1 6#
b10111111110000000000000000001100 Y
b10111111110000000000000000001100 Z"
b10111111110000000000000000001100 `#
b10111111110000000000000000001000 W
b10111111110000000000000000001000 ##
b10111111110000000000000000001000 _#
b10111111110000000000000000010000 ^
b10111111110000000000000000010000 H"
b10111111110000000000000000010000 b#
b10111111110000000000000000001100 X
b10111111110000000000000000001100 I"
b10111111110000000000000000001100 y"
b10111111110000000000000000001100 9#
b10111111110000000000000000010000 V
b10111111110000000000000000010000 8#
b10111111110000000000000000010000 ]#
b10111111110000000000000000010000 a#
b10111111110000000000000000001100 q
b10111111110000000000000000001100 Z#
b10111111110000000000000000001100 [#
0m#
1D"
0'
1+
#20
b1 ;
b1 x"
b1 7"
b1 U"
b1 *#
b1 M
b1 r#
b1 J
b1 u#
1#
1m#
1'
0D"
0+
#21
0#
1+
#22
0+
