unofficial/iverilog_testing/programs/output/mult_test/mult_test.vcd
$date
	Sat Dec 19 22:14:04 2020
$end
$version
	Icarus Verilog
$end
$timescale
	1s
$end
$scope module mips_cpu_bus_tb_delay1 $end
$var wire 32 ! writedata [31:0] $end
$var wire 1 " write $end
$var wire 1 # waitrequest $end
$var wire 32 $ test [31:0] $end
$var wire 32 % register_v0 [31:0] $end
$var wire 32 & readdata [31:0] $end
$var wire 1 ' read $end
$var wire 4 ( byteenable [3:0] $end
$var wire 32 ) address [31:0] $end
$var wire 1 * active $end
$var reg 1 + clk $end
$var reg 1 , rst $end
$scope module cpuInst $end
$var wire 4 - byteenable [3:0] $end
$var wire 1 + clk $end
$var wire 32 . data_address [31:0] $end
$var wire 1 / internal_clk $end
$var wire 1 0 program_counter_src_decode $end
$var wire 1 , reset $end
$var wire 32 1 writedata [31:0] $end
$var wire 5 2 write_register_writeback [4:0] $end
$var wire 5 3 write_register_memory [4:0] $end
$var wire 5 4 write_register_execute [4:0] $end
$var wire 32 5 write_data_memory [31:0] $end
$var wire 32 6 write_data_execute [31:0] $end
$var wire 1 # waitrequest $end
$var wire 1 7 using_HI_LO_execute $end
$var wire 1 8 using_HI_LO_decode $end
$var wire 1 9 stall_fetch $end
$var wire 1 : stall_decode $end
$var wire 32 ; src_B_execute [31:0] $end
$var wire 32 < src_B_decode [31:0] $end
$var wire 32 = src_B_ALU_execute [31:0] $end
$var wire 32 > src_A_execute [31:0] $end
$var wire 32 ? src_A_decode [31:0] $end
$var wire 32 @ src_A_ALU_writeback [31:0] $end
$var wire 32 A src_A_ALU_memory [31:0] $end
$var wire 32 B src_A_ALU_execute [31:0] $end
$var wire 32 C sign_imm_execute [31:0] $end
$var wire 32 D sign_imm_decode [31:0] $end
$var wire 32 E shifter_output_decode [31:0] $end
$var wire 5 F sa_execute [4:0] $end
$var wire 5 G sa_decode [4:0] $end
$var wire 32 H result_writeback [31:0] $end
$var wire 1 I register_write_writeback $end
$var wire 1 J register_write_memory $end
$var wire 1 K register_write_execute $end
$var wire 1 L register_write_decode $end
$var wire 32 M register_v0_reg_file [31:0] $end
$var wire 32 N register_file_output_LO_decode [31:0] $end
$var wire 32 O register_file_output_HI_decode [31:0] $end
$var wire 32 P register_file_output_B_decode [31:0] $end
$var wire 32 Q register_file_output_A_decode [31:0] $end
$var wire 2 R register_destination_execute [1:0] $end
$var wire 2 S register_destination_decode [1:0] $end
$var wire 32 T readdata [31:0] $end
$var wire 32 U read_data_writeback_filtered [31:0] $end
$var wire 32 V read_data_writeback [31:0] $end
$var wire 5 W read_address_2 [4:0] $end
$var wire 5 X read_address_1 [4:0] $end
$var wire 32 Y program_counter_prime [31:0] $end
$var wire 32 Z program_counter_plus_four_fetch [31:0] $end
$var wire 32 [ program_counter_plus_four_execute [31:0] $end
$var wire 32 \ program_counter_plus_four_decode [31:0] $end
$var wire 32 ] program_counter_plus_eight_execute [31:0] $end
$var wire 32 ^ program_counter_mux_1_out [31:0] $end
$var wire 1 _ program_counter_multiplexer_jump_memory $end
$var wire 1 ` program_counter_multiplexer_jump_execute $end
$var wire 1 a program_counter_multiplexer_jump_decode $end
$var wire 32 b program_counter_branch_decode [31:0] $end
$var wire 6 c op_writeback [5:0] $end
$var wire 6 d op_memory [5:0] $end
$var wire 6 e op_execute [5:0] $end
$var wire 6 f op [5:0] $end
$var wire 1 g no_sign_extend $end
$var wire 1 h memory_write_memory $end
$var wire 1 i memory_write_execute $end
$var wire 1 j memory_write_decode $end
$var wire 1 k memory_to_register_writeback $end
$var wire 1 l memory_to_register_memory $end
$var wire 1 m memory_to_register_execute $end
$var wire 1 n memory_to_register_decode $end
$var wire 32 o j_program_counter_memory [31:0] $end
$var wire 32 p j_program_counter_execute [31:0] $end
$var wire 32 q j_program_counter_decode [31:0] $end
$var wire 26 r j_offset [25:0] $end
$var wire 1 s j_instruction_memory $end
$var wire 1 t j_instruction_execute $end
$var wire 1 u j_instruction_decode $end
$var wire 32 v instruction_decode [31:0] $end
$var wire 32 w instr_address [31:0] $end
$var wire 16 x immediate [15:0] $end
$var wire 3 y forward_B_execute [2:0] $end
$var wire 1 z forward_B_decode $end
$var wire 3 { forward_A_execute [2:0] $end
$var wire 1 | forward_A_decode $end
$var wire 1 } flush_execute_register $end
$var wire 1 ~ equal_decode $end
$var wire 32 !" comparator_2 [31:0] $end
$var wire 32 "" comparator_1 [31:0] $end
$var wire 4 #" byteenable_writeback [3:0] $end
$var wire 1 $" branch_decode $end
$var wire 1 * active $end
$var wire 5 %" Rt_execute [4:0] $end
$var wire 5 &" Rt_decode [4:0] $end
$var wire 5 '" Rs_execute [4:0] $end
$var wire 5 (" Rs_decode [4:0] $end
$var wire 5 )" Rd_execute [4:0] $end
$var wire 5 *" Rd_decode [4:0] $end
$var wire 1 +" LO_register_write_writeback $end
$var wire 1 ," LO_register_write_memory $end
$var wire 1 -" LO_register_write_execute $end
$var wire 1 ." LO_register_write_decode $end
$var wire 1 /" HI_register_write_writeback $end
$var wire 1 0" HI_register_write_memory $end
$var wire 1 1" HI_register_write_execute $end
$var wire 1 2" HI_register_write_decode $end
$var wire 1 3" HALT_writeback $end
$var wire 1 4" HALT_memory $end
$var wire 1 5" HALT_fetch $end
$var wire 1 6" HALT_execute $end
$var wire 1 7" HALT_decode $end
$var wire 2 8" ALU_src_B_execute [1:0] $end
$var wire 2 9" ALU_src_B_decode [1:0] $end
$var wire 1 :" ALU_src_A_execute $end
$var wire 1 ;" ALU_src_A_decode $end
$var wire 32 <" ALU_output_writeback [31:0] $end
$var wire 32 =" ALU_output_memory_resolved [31:0] $end
$var wire 32 >" ALU_output_memory [31:0] $end
$var wire 32 ?" ALU_output_execute [31:0] $end
$var wire 6 @" ALU_function_execute [5:0] $end
$var wire 6 A" ALU_function_decode [5:0] $end
$var wire 1 B" ALU_STALL $end
$var wire 32 C" ALU_LO_output_writeback [31:0] $end
$var wire 32 D" ALU_LO_output_memory [31:0] $end
$var wire 32 E" ALU_LO_output_execute [31:0] $end
$var wire 32 F" ALU_HI_output_writeback [31:0] $end
$var wire 32 G" ALU_HI_output_memory [31:0] $end
$var wire 32 H" ALU_HI_output_execute [31:0] $end
$var reg 32 I" address [31:0] $end
$var reg 4 J" byteenable_memory [3:0] $end
$var reg 4 K" byteenable_memory_next [3:0] $end
$var reg 1 L" clk_enable $end
$var reg 1 M" en_out $end
$var reg 3 N" fetch_state [2:0] $end
$var reg 3 O" fetch_state_next [2:0] $end
$var reg 32 P" instruction_fetch [31:0] $end
$var reg 32 Q" instruction_fetch_next [31:0] $end
$var reg 1 ' read $end
$var reg 32 R" read_data_memory [31:0] $end
$var reg 32 S" read_data_memory_next [31:0] $end
$var reg 1 T" read_enable $end
$var reg 32 U" register_v0 [31:0] $end
$var reg 1 " write $end
$scope module adder_decode $end
$var wire 32 V" a [31:0] $end
$var wire 32 W" z [31:0] $end
$var wire 32 X" b [31:0] $end
$upscope $end
$scope module alu $end
$var wire 1 B" ALU_STALL $end
$var wire 1 + clk $end
$var wire 3 Y" fetch_state [2:0] $end
$var wire 1 , reset $end
$var wire 1 Z" temp_STALL $end
$var wire 32 [" temp_LO_mult [31:0] $end
$var wire 32 \" temp_HI_mult [31:0] $end
$var wire 5 ]" shift_amount [4:0] $end
$var wire 32 ^" input_2 [31:0] $end
$var wire 32 _" input_1 [31:0] $end
$var wire 6 `" ALU_operation [5:0] $end
$var reg 32 a" ALU_HI_output [31:0] $end
$var reg 32 b" ALU_LO_output [31:0] $end
$var reg 32 c" ALU_output [31:0] $end
$var reg 2 d" HI_LO_driven_by [1:0] $end
$var reg 1 e" mult_start $end
$var reg 1 f" mult_start_enable $end
$var reg 32 g" temp_HI_div [31:0] $end
$var reg 32 h" temp_LO_div [31:0] $end
$scope module mult $end
$var wire 1 + clk $end
$var wire 1 , reset $end
$var wire 1 i" start $end
$var wire 32 j" input_2 [31:0] $end
$var wire 32 k" input_1 [31:0] $end
$var reg 32 l" A [31:0] $end
$var reg 32 m" M [31:0] $end
$var reg 32 n" Q [31:0] $end
$var reg 32 o" add [31:0] $end
$var reg 32 p" hi_output [31:0] $end
$var reg 32 q" lo_output [31:0] $end
$var reg 6 r" n [5:0] $end
$var reg 1 s" q0 $end
$var reg 1 Z" stall $end
$var reg 32 t" sub [31:0] $end
$var reg 32 u" tempadd [31:0] $end
$var reg 32 v" tempsub [31:0] $end
$upscope $end
$upscope $end
$scope module alu_input_mux $end
$var wire 32 w" sign_imm_execute [31:0] $end
$var wire 5 x" sa_execute [4:0] $end
$var wire 32 y" result_writeback [31:0] $end
$var wire 32 z" read_data_2_reg [31:0] $end
$var wire 32 {" read_data_1_reg [31:0] $end
$var wire 32 |" program_counter_plus_eight_execute [31:0] $end
$var wire 3 }" forward_two_execute [2:0] $end
$var wire 3 ~" forward_one_execute [2:0] $end
$var wire 32 !# LO_result_writeback [31:0] $end
$var wire 32 "# HI_result_writeback [31:0] $end
$var wire 2 ## ALU_src_B_execute [1:0] $end
$var wire 1 :" ALU_src_A_execute $end
$var wire 32 $# ALU_output_memory [31:0] $end
$var wire 32 %# ALU_LO_output_memory [31:0] $end
$var wire 32 &# ALU_HI_output_memory [31:0] $end
$var reg 32 '# src_A_ALU_execute [31:0] $end
$var reg 32 (# src_B_ALU_execute [31:0] $end
$var reg 32 )# src_mux_input_0_A [31:0] $end
$var reg 32 *# src_mux_input_0_B [31:0] $end
$var reg 32 +# write_data_execute [31:0] $end
$upscope $end
$scope module control_unit $end
$var wire 32 ,# instruction [31:0] $end
$var reg 6 -# ALU_function [5:0] $end
$var reg 1 ;" ALU_src_A $end
$var reg 2 .# ALU_src_B [1:0] $end
$var reg 1 2" HI_register_write $end
$var reg 1 ." LO_register_write $end
$var reg 1 $" branch $end
$var reg 6 /# funct [5:0] $end
$var reg 1 u j_instruction $end
$var reg 1 n memory_to_register $end
$var reg 1 j memory_write $end
$var reg 1 g no_sign_extend $end
$var reg 6 0# op [5:0] $end
$var reg 1 a program_counter_multiplexer_jump $end
$var reg 2 1# register_destination [1:0] $end
$var reg 1 L register_write $end
$var reg 5 2# rt [4:0] $end
$var reg 1 8 using_HI_LO $end
$upscope $end
$scope module decode_execute_register $end
$var wire 6 3# ALU_function_decode [5:0] $end
$var wire 1 ;" ALU_src_A_decode $end
$var wire 2 4# ALU_src_B_decode [1:0] $end
$var wire 1 2" HI_register_write_decode $end
$var wire 1 ." LO_register_write_decode $end
$var wire 5 5# Rd_decode [4:0] $end
$var wire 5 6# Rs_decode [4:0] $end
$var wire 5 7# Rt_decode [4:0] $end
$var wire 1 / clk $end
$var wire 1 u j_instruction_decode $end
$var wire 32 8# j_program_counter_decode [31:0] $end
$var wire 1 n memory_to_register_decode $end
$var wire 1 j memory_write_decode $end
$var wire 6 9# op_decode [5:0] $end
$var wire 1 a program_counter_multiplexer_jump_decode $end
$var wire 2 :# register_destination_decode [1:0] $end
$var wire 1 L register_write_decode $end
$var wire 1 , reset $end
$var wire 5 ;# sa_decode [4:0] $end
$var wire 32 <# sign_imm_decode [31:0] $end
$var wire 32 =# src_A_decode [31:0] $end
$var wire 32 ># src_B_decode [31:0] $end
$var wire 1 8 using_HI_LO_decode $end
$var wire 32 ?# program_counter_plus_four_decode [31:0] $end
$var wire 1 } clear $end
$var wire 1 7" HALT_decode $end
$var reg 6 @# ALU_function_execute [5:0] $end
$var reg 1 :" ALU_src_A_execute $end
$var reg 2 A# ALU_src_B_execute [1:0] $end
$var reg 1 6" HALT_execute $end
$var reg 1 1" HI_register_write_execute $end
$var reg 1 -" LO_register_write_execute $end
$var reg 5 B# Rd_execute [4:0] $end
$var reg 5 C# Rs_execute [4:0] $end
$var reg 5 D# Rt_execute [4:0] $end
$var reg 1 t j_instruction_execute $end
$var reg 32 E# j_program_counter_execute [31:0] $end
$var reg 1 m memory_to_register_execute $end
$var reg 1 i memory_write_execute $end
$var reg 6 F# op_execute [5:0] $end
$var reg 1 ` program_counter_multiplexer_jump_execute $end
$var reg 32 G# program_counter_plus_four_execute [31:0] $end
$var reg 2 H# register_destination_execute [1:0] $end
$var reg 1 K register_write_execute $end
$var reg 5 I# sa_execute [4:0] $end
$var reg 32 J# sign_imm_execute [31:0] $end
$var reg 32 K# src_A_execute [31:0] $end
$var reg 32 L# src_B_execute [31:0] $end
$var reg 1 7 using_HI_LO_execute $end
$upscope $end
$scope module execute_memory_register $end
$var wire 32 M# ALU_HI_output_execute [31:0] $end
$var wire 32 N# ALU_LO_output_execute [31:0] $end
$var wire 32 O# ALU_output_execute [31:0] $end
$var wire 1 6" HALT_execute $end
$var wire 1 1" HI_register_write_execute $end
$var wire 1 -" LO_register_write_execute $end
$var wire 1 / clk $end
$var wire 1 t j_instruction_execute $end
$var wire 32 P# j_program_counter_execute [31:0] $end
$var wire 1 m memory_to_register_execute $end
$var wire 1 i memory_write_execute $end
$var wire 6 Q# op_execute [5:0] $end
$var wire 1 ` program_counter_multiplexer_jump_execute $end
$var wire 1 K register_write_execute $end
$var wire 1 , reset $end
$var wire 32 R# src_A_ALU_execute [31:0] $end
$var wire 32 S# write_data_execute [31:0] $end
$var wire 5 T# write_register_execute [4:0] $end
$var reg 32 U# ALU_HI_output_memory [31:0] $end
$var reg 32 V# ALU_LO_output_memory [31:0] $end
$var reg 32 W# ALU_output_memory [31:0] $end
$var reg 1 4" HALT_memory $end
$var reg 1 0" HI_register_write_memory $end
$var reg 1 ," LO_register_write_memory $end
$var reg 1 s j_instruction_memory $end
$var reg 32 X# j_program_counter_memory [31:0] $end
$var reg 1 l memory_to_register_memory $end
$var reg 1 h memory_write_memory $end
$var reg 6 Y# op_memory [5:0] $end
$var reg 1 _ program_counter_multiplexer_jump_memory $end
$var reg 1 J register_write_memory $end
$var reg 32 Z# src_A_ALU_memory [31:0] $end
$var reg 32 [# write_data_memory [31:0] $end
$var reg 5 \# write_register_memory [4:0] $end
$upscope $end
$scope module fetch_decode_register $end
$var wire 1 / clk $end
$var wire 32 ]# instruction_fetch [31:0] $end
$var wire 1 , reset $end
$var wire 32 ^# program_counter_plus_four_fetch [31:0] $end
$var wire 1 : enable $end
$var wire 1 5" HALT_fetch $end
$var reg 1 7" HALT_decode $end
$var reg 32 _# instruction_decode [31:0] $end
$var reg 32 `# program_counter_plus_four_decode [31:0] $end
$upscope $end
$scope module hazard_unit $end
$var wire 1 0" HI_register_write_memory $end
$var wire 1 ," LO_register_write_memory $end
$var wire 5 a# Rs_decode [4:0] $end
$var wire 5 b# Rs_execute [4:0] $end
$var wire 5 c# Rt_decode [4:0] $end
$var wire 5 d# Rt_execute [4:0] $end
$var wire 1 $" branch_decode $end
$var wire 1 m memory_to_register_execute $end
$var wire 1 l memory_to_register_memory $end
$var wire 1 _ program_counter_multiplexer_jump_memory $end
$var wire 1 K register_write_execute $end
$var wire 1 J register_write_memory $end
$var wire 1 7 using_HI_LO_execute $end
$var wire 5 e# write_register_memory [4:0] $end
$var wire 5 f# write_register_writeback [4:0] $end
$var wire 5 g# write_register_execute [4:0] $end
$var wire 1 I register_write_writeback $end
$var wire 1 +" LO_register_write_writeback $end
$var wire 1 /" HI_register_write_writeback $end
$var reg 1 h# branchstall $end
$var reg 1 } flush_execute_register $end
$var reg 1 | forward_register_file_output_A_decode $end
$var reg 3 i# forward_register_file_output_A_execute [2:0] $end
$var reg 1 z forward_register_file_output_B_decode $end
$var reg 3 j# forward_register_file_output_B_execute [2:0] $end
$var reg 1 k# lwstall $end
$var reg 1 : stall_decode $end
$var reg 1 9 stall_fetch $end
$upscope $end
$scope module memory_filter $end
$var wire 1 , reset $end
$var wire 32 l# src_A_writeback [31:0] $end
$var wire 32 m# read_data_writeback [31:0] $end
$var wire 6 n# op_writeback [5:0] $end
$var wire 4 o# byteenable_writeback [3:0] $end
$var reg 32 p# filtered_output_writeback [31:0] $end
$upscope $end
$scope module memory_writeback_register $end
$var wire 32 q# ALU_HI_output_memory [31:0] $end
$var wire 32 r# ALU_LO_output_memory [31:0] $end
$var wire 32 s# ALU_output_memory [31:0] $end
$var wire 1 4" HALT_memory $end
$var wire 1 0" HI_register_write_memory $end
$var wire 1 ," LO_register_write_memory $end
$var wire 4 t# byteenable_memory [3:0] $end
$var wire 1 / clk $end
$var wire 1 l memory_to_register_memory $end
$var wire 6 u# op_memory [5:0] $end
$var wire 32 v# read_data_memory [31:0] $end
$var wire 1 J register_write_memory $end
$var wire 1 , reset $end
$var wire 32 w# src_A_ALU_memory [31:0] $end
$var wire 5 x# write_register_memory [4:0] $end
$var reg 32 y# ALU_HI_output_writeback [31:0] $end
$var reg 32 z# ALU_LO_output_writeback [31:0] $end
$var reg 32 {# ALU_output_writeback [31:0] $end
$var reg 1 3" HALT_writeback $end
$var reg 1 /" HI_register_write_writeback $end
$var reg 1 +" LO_register_write_writeback $end
$var reg 4 |# byteenable_writeback [3:0] $end
$var reg 1 k memory_to_register_writeback $end
$var reg 6 }# op_writeback [5:0] $end
$var reg 32 ~# read_data_writeback [31:0] $end
$var reg 1 I register_write_writeback $end
$var reg 32 !$ src_A_ALU_writeback [31:0] $end
$var reg 5 "$ write_register_writeback [4:0] $end
$upscope $end
$scope module pc $end
$var wire 1 / clk $end
$var wire 1 9 enable $end
$var wire 1 , reset $end
$var wire 32 #$ address_input [31:0] $end
$var reg 32 $$ address_output [31:0] $end
$var reg 1 5" halt $end
$upscope $end
$scope module plus_four_adder $end
$var wire 32 %$ a [31:0] $end
$var wire 32 &$ b [31:0] $end
$var wire 32 '$ z [31:0] $end
$upscope $end
$scope module plus_four_adder_execute $end
$var wire 32 ($ a [31:0] $end
$var wire 32 )$ b [31:0] $end
$var wire 32 *$ z [31:0] $end
$upscope $end
$scope module program_counter_multiplexer $end
$var wire 1 0 control $end
$var wire 32 +$ input_0 [31:0] $end
$var wire 32 ,$ input_1 [31:0] $end
$var wire 32 -$ resolved [31:0] $end
$upscope $end
$scope module program_counter_multiplexer_two $end
$var wire 1 _ control $end
$var wire 32 .$ input_0 [31:0] $end
$var wire 32 /$ input_1 [31:0] $end
$var wire 32 0$ resolved [31:0] $end
$upscope $end
$scope module reg_output_comparator $end
$var wire 32 1$ a [31:0] $end
$var wire 32 2$ b [31:0] $end
$var wire 6 3$ op [5:0] $end
$var wire 5 4$ rt [4:0] $end
$var reg 1 ~ c $end
$upscope $end
$scope module register_file $end
$var wire 32 5$ HI_write_data [31:0] $end
$var wire 1 /" HI_write_enable $end
$var wire 32 6$ LO_write_data [31:0] $end
$var wire 1 +" LO_write_enable $end
$var wire 1 / clk $end
$var wire 1 7$ modified_write_clk $end
$var wire 1 8$ pipelined $end
$var wire 5 9$ read_address_1 [4:0] $end
$var wire 5 :$ read_address_2 [4:0] $end
$var wire 32 ;$ read_data_1 [31:0] $end
$var wire 32 <$ read_data_2 [31:0] $end
$var wire 32 =$ read_data_HI [31:0] $end
$var wire 32 >$ read_data_LO [31:0] $end
$var wire 32 ?$ read_register_2 [31:0] $end
$var wire 32 @$ registers_out_4_DELETE_ME [31:0] $end
$var wire 32 A$ registers_out_5_DELETE_ME [31:0] $end
$var wire 32 B$ registers_out_6_DELETE_ME [31:0] $end
$var wire 1 , reset $end
$var wire 5 C$ write_address [4:0] $end
$var wire 1 I write_enable $end
$var wire 32 D$ write_data [31:0] $end
$var reg 32 E$ HI_reg [31:0] $end
$var reg 32 F$ LO_reg [31:0] $end
$scope begin $ivl_for_loop0 $end
$var integer 32 G$ i [31:0] $end
$upscope $end
$upscope $end
$scope module write_register_execute_mux $end
$var wire 2 H$ control [1:0] $end
$var wire 5 I$ input_0 [4:0] $end
$var wire 5 J$ input_1 [4:0] $end
$var wire 5 K$ input_2 [4:0] $end
$var wire 5 L$ input_3 [4:0] $end
$var reg 5 M$ resolved [4:0] $end
$upscope $end
$scope module writeback_mux $end
$var wire 1 k control $end
$var wire 32 N$ input_0 [31:0] $end
$var wire 32 O$ input_1 [31:0] $end
$var wire 32 P$ resolved [31:0] $end
$upscope $end
$upscope $end
$scope module raminst $end
$var wire 32 Q$ address [31:0] $end
$var wire 4 R$ byteenable [3:0] $end
$var wire 1 + clk $end
$var wire 1 ' read $end
$var wire 1 " write $end
$var wire 32 S$ writedata [31:0] $end
$var reg 8 T$ a [7:0] $end
$var reg 8 U$ b [7:0] $end
$var reg 8 V$ c [7:0] $end
$var reg 8 W$ d [7:0] $end
$var reg 32 X$ readdata [31:0] $end
$var reg 32 Y$ test [31:0] $end
$var reg 32 Z$ val [31:0] $end
$var reg 1 # waitrequest $end
$var reg 32 [$ writedata_mod [31:0] $end
$scope begin $unm_blk_35 $end
$var integer 32 \$ i [31:0] $end
$var integer 32 ]$ j [31:0] $end
$upscope $end
$upscope $end
$upscope $end
$enddefinitions $end
#0
$dumpvars
b100000000000000000000 ]$
b11000000000000000000000000000000 \$
bx [$
bx Z$
bx Y$
bx X$
bx W$
bx V$
bx U$
bx T$
bx S$
bx R$
b0 Q$
bx P$
bx O$
bx N$
bx M$
b0 L$
b11111 K$
bx J$
bx I$
bx H$
b0 G$
bx F$
bx E$
bx D$
bx C$
bx B$
bx A$
bx @$
bx ?$
bx >$
bx =$
bx <$
bx ;$
bx :$
bx 9$
18$
17$
bx 6$
bx 5$
bx 4$
bx 3$
bx 2$
bx 1$
bx 0$
bx /$
bx .$
bx -$
bx ,$
bx +$
bx *$
bx )$
b100 ($
bx '$
b100 &$
bx %$
bx $$
bx #$
bx "$
bx !$
bx ~#
bx }#
bx |#
bx {#
bx z#
bx y#
bx x#
bx w#
bx v#
bx u#
bx t#
bx s#
bx r#
bx q#
bx p#
bx o#
bx n#
bx m#
bx l#
xk#
b0 j#
b0 i#
xh#
bx g#
bx f#
bx e#
bx d#
bx c#
bx b#
bx a#
bx `#
bx _#
bx ^#
bx ]#
bx \#
bx [#
bx Z#
bx Y#
bx X#
bx W#
bx V#
bx U#
bx T#
bx S#
b0 R#
bx Q#
bx P#
bx O#
bx N#
bx M#
bx L#
bx K#
bx J#
bx I#
bx H#
bx G#
bx F#
bx E#
bx D#
bx C#
bx B#
bx A#
bx @#
bx ?#
bx >#
bx =#
bx <#
bx ;#
bx :#
bx 9#
bx00 8#
bx 7#
bx 6#
bx 5#
bx 4#
bx 3#
bx 2#
bx 1#
bx 0#
bx /#
bx .#
bx -#
bx ,#
bx +#
bx *#
bx )#
b0 (#
b0 '#
bx &#
bx %#
bx $#
bx ##
bx "#
bx !#
b0 ~"
b0 }"
bx |"
bx {"
bx z"
bx y"
bx x"
bx w"
bx v"
bx u"
bx t"
xs"
bx r"
bx q"
bx p"
bx o"
bx n"
bx m"
bx l"
b0 k"
b0 j"
0i"
bx h"
bx g"
0f"
0e"
b0 d"
bx c"
bx b"
bx a"
bx `"
b0 _"
b0 ^"
b0 ]"
bx \"
bx ["
xZ"
bx Y"
bx X"
bx W"
bx00 V"
bx U"
xT"
bx S"
bx R"
bx Q"
bx P"
bx O"
bx N"
xM"
xL"
b0 K"
bx J"
b0 I"
bx H"
bx G"
bx F"
bx E"
bx D"
bx C"
xB"
bx A"
bx @"
bx ?"
bx >"
bx ="
bx <"
0;"
x:"
bx 9"
bx 8"
x7"
x6"
x5"
x4"
x3"
x2"
x1"
x0"
x/"
x."
x-"
x,"
x+"
bx *"
bx )"
bx ("
bx '"
bx &"
bx %"
x$"
bx #"
bx ""
bx !"
0~
x}
x|
b0 {
xz
b0 y
bx x
bx w
bx v
xu
xt
xs
bx r
bx00 q
bx p
bx o
xn
xm
xl
xk
xj
xi
xh
xg
bx f
bx e
bx d
bx c
bx b
xa
x`
x_
bx ^
bx ]
bx \
bx [
bx Z
bx Y
bx X
bx W
bx V
bx U
bx T
bx S
bx R
bx Q
bx P
bx O
bx N
bx M
xL
xK
xJ
xI
bx H
bx G
bx F
bx00 E
bx D
bx C
b0 B
bx A
bx @
bx ?
bx >
b0 =
bx <
bx ;
x:
x9
x8
x7
bx 6
bx 5
bx 4
bx 3
bx 2
bx 1
00
0/
bx .
bx -
0,
0+
x*
b0 )
bx (
x'
bx &
bx %
bx $
0#
x"
bx !
$end
#1
b10111111110000000000000000000000 b
b10111111110000000000000000000000 W"
b10111111110000000000000000000000 ,$
b0 E
b0 V"
b0 <
b0 >#
b0 ?
b0 =#
b0 D
b0 <#
b0 H
b0 y"
b0 D$
b0 P$
b0 ="
b0 /$
b0 !"
b0 2$
b0 ""
b0 1$
b10111111110000000000000000000100 Y
b10111111110000000000000000000100 #$
b10111111110000000000000000000100 0$
b0 G
b0 ;#
b0 r
b0 x
b0 *"
b0 5#
b0 &"
b0 7#
b0 c#
b0 4$
b0 P
b0 <$
b0 W
b0 :$
b0 ("
b0 6#
b0 a#
b0 Q
b0 ;$
b0 X
b0 9$
b0 f
b0 9#
b0 3$
b10110000000000000000000000000000 q
b10110000000000000000000000000000 8#
b10111111110000000000000000000100 ^
b10111111110000000000000000000100 -$
b10111111110000000000000000000100 .$
b0 [$
b0 W$
b0 V$
b0 U$
b0 T$
0g
08
0u
0a
b0 A"
b0 -#
b0 3#
0."
02"
0$"
b1 S
b1 1#
b1 :#
1;"
b0 9"
b0 .#
b0 4#
0j
0n
1L
b0 /#
b0 2#
b0 0#
b0 o"
b0 t"
0}
0:
09
0h#
0z
0|
b0 %
b0 U"
0'
b0 S"
b0 Q"
0L"
0"
0T"
b1 O"
0B"
0Z"
b0 r"
0s"
b0 m"
b0 n"
b0 l"
b0 V
b0 m#
b0 ~#
b0 @
b0 l#
b0 !$
b0 #"
b0 o#
b0 |#
b0 c
b0 n#
b0 }#
1*
03"
b0 C"
b0 !#
b0 z#
b0 6$
b0 F"
b0 "#
b0 y#
b0 5$
b0 2
b0 f#
b0 "$
b0 C$
b0 <"
b0 {#
b0 N$
0+"
0/"
0k
0I
b0 d
b0 Y#
b0 u#
04"
b0 o
b0 X#
0s
b0 3
b0 \#
b0 e#
b0 x#
b0 !
b0 1
b0 S$
b0 5
b0 [#
b0 D"
b0 %#
b0 V#
b0 r#
b0 G"
b0 &#
b0 U#
b0 q#
b0 .
b0 >"
b0 $#
b0 W#
b0 s#
0_
0,"
00"
0h
0l
0J
06"
07"
b0 v
b0 ,#
b0 _#
b10111111110000000000000000000000 \
b10111111110000000000000000000000 X"
b10111111110000000000000000000000 ?#
b10111111110000000000000000000000 `#
05"
b10111111110000000000000000000100 Z
b10111111110000000000000000000100 ^#
b10111111110000000000000000000100 '$
b10111111110000000000000000000100 +$
b10111111110000000000000000000000 w
b10111111110000000000000000000000 $$
b10111111110000000000000000000000 %$
b0 O
b0 =$
b0 E$
b0 N
b0 >$
b0 F$
b0 B$
b0 A$
b0 @$
b0 M
b0 ?$
b0 R"
b0 v#
b0 P"
b0 ]#
b111 N"
b111 Y"
0k#
b0 4
b0 T#
b0 g#
b0 M$
b0 6
b0 +#
b0 S#
b0 *#
b0 )#
b0 ?"
b0 c"
b0 O#
b0 U
b0 p#
b0 O$
b100000 G$
b0 F
b0 x"
b0 I#
b0 ;
b0 z"
b0 L#
b0 >
b0 {"
b0 K#
b0 p
b0 E#
b0 P#
b100 ]
b100 |"
b100 *$
b0 [
b0 G#
b0 )$
b0 e
b0 F#
b0 Q#
07
0t
0`
b0 C
b0 w"
b0 J#
b0 '"
b0 C#
b0 b#
b0 )"
b0 B#
b0 J$
b0 %"
b0 D#
b0 d#
b0 I$
b0 @"
b0 `"
b0 @#
0-"
01"
b0 R
b0 H#
b0 H$
b0 8"
b0 ##
b0 A#
0:"
0i
0m
0K
b0 A
b0 Z#
b0 w#
1,
b0 (
b0 -
b0 R$
b0 J"
b0 t#
x7$
x/
1+
#2
b100000 G$
17$
0/
1;"
b0 ?"
b0 c"
b0 O#
0M"
0+
#3
0,
1;"
b0 ?"
b0 c"
b0 O#
1+
#4
1;"
b0 ?"
b0 c"
b0 O#
0+
#5
1#
b10111111110000000000000000000000 )
b10111111110000000000000000000000 I"
b10111111110000000000000000000000 Q$
1'
bx Q"
1T"
b1 O"
b1 N"
b1 Y"
1;"
b0 ?"
b0 c"
b0 O#
1+
#6
1;"
b0 ?"
b0 c"
b0 O#
0+
#7
b111100000001001111111111111111 Q"
b10 O"
0#
b111100000001001111111111111111 &
b111100000001001111111111111111 T
b111100000001001111111111111111 X$
bx P"
bx ]#
1;"
b0 ?"
b0 c"
b0 O#
1+
#8
1;"
b0 ?"
b0 c"
b0 O#
0+
#9
b0 )
b0 I"
b0 Q$
0'
0T"
b0 O"
b111100000001001111111111111111 P"
b111100000001001111111111111111 ]#
b10 N"
b10 Y"
1;"
b0 ?"
b0 c"
b0 O#
1+
#10
1;"
b0 ?"
b0 c"
b0 O#
0+
#11
1L"
b1 O"
b0 N"
b0 Y"
1;"
b0 ?"
b0 c"
b0 O#
1+
#12
1;"
b0 ?"
b0 c"
b0 O#
1M"
0+
