unofficial/iverilog_testing/programs/output/lb/lb.vcd
$date
	Sun Dec 20 11:50:09 2020
$end
$version
	Icarus Verilog
$end
$timescale
	1s
$end
$scope module mips_cpu_bus_tb_delay1 $end
$var wire 32 ! writedata [31:0] $end
$var wire 1 " write $end
$var wire 1 # waitrequest $end
$var wire 32 $ test [31:0] $end
$var wire 32 % register_v0 [31:0] $end
$var wire 32 & readdata [31:0] $end
$var wire 1 ' read $end
$var wire 4 ( byteenable [3:0] $end
$var wire 32 ) address [31:0] $end
$var wire 1 * active $end
$var reg 1 + clk $end
$var reg 1 , rst $end
$scope module cpuInst $end
$var wire 4 - byteenable [3:0] $end
$var wire 1 + clk $end
$var wire 32 . data_address [31:0] $end
$var wire 1 / internal_clk $end
$var wire 1 0 program_counter_src_decode $end
$var wire 1 , reset $end
$var wire 32 1 writedata [31:0] $end
$var wire 5 2 write_register_writeback [4:0] $end
$var wire 5 3 write_register_memory [4:0] $end
$var wire 5 4 write_register_execute [4:0] $end
$var wire 32 5 write_data_memory [31:0] $end
$var wire 32 6 write_data_execute [31:0] $end
$var wire 1 # waitrequest $end
$var wire 1 7 using_HI_LO_execute $end
$var wire 1 8 using_HI_LO_decode $end
$var wire 1 9 stall_fetch $end
$var wire 1 : stall_decode $end
$var wire 32 ; src_B_execute [31:0] $end
$var wire 32 < src_B_decode [31:0] $end
$var wire 32 = src_B_ALU_execute [31:0] $end
$var wire 32 > src_A_execute [31:0] $end
$var wire 32 ? src_A_decode [31:0] $end
$var wire 32 @ src_A_ALU_writeback [31:0] $end
$var wire 32 A src_A_ALU_memory [31:0] $end
$var wire 32 B src_A_ALU_execute [31:0] $end
$var wire 32 C sign_imm_execute [31:0] $end
$var wire 32 D sign_imm_decode [31:0] $end
$var wire 32 E shifter_output_decode [31:0] $end
$var wire 5 F sa_execute [4:0] $end
$var wire 5 G sa_decode [4:0] $end
$var wire 32 H result_writeback [31:0] $end
$var wire 1 I register_write_writeback $end
$var wire 1 J register_write_memory $end
$var wire 1 K register_write_execute $end
$var wire 1 L register_write_decode $end
$var wire 32 M register_v0_reg_file [31:0] $end
$var wire 32 N register_file_output_LO_decode [31:0] $end
$var wire 32 O register_file_output_HI_decode [31:0] $end
$var wire 32 P register_file_output_B_decode [31:0] $end
$var wire 32 Q register_file_output_A_decode [31:0] $end
$var wire 2 R register_destination_execute [1:0] $end
$var wire 2 S register_destination_decode [1:0] $end
$var wire 32 T readdata [31:0] $end
$var wire 32 U read_data_writeback_filtered [31:0] $end
$var wire 32 V read_data_writeback [31:0] $end
$var wire 5 W read_address_2 [4:0] $end
$var wire 5 X read_address_1 [4:0] $end
$var wire 32 Y program_counter_prime [31:0] $end
$var wire 32 Z program_counter_plus_four_fetch [31:0] $end
$var wire 32 [ program_counter_plus_four_execute [31:0] $end
$var wire 32 \ program_counter_plus_four_decode [31:0] $end
$var wire 32 ] program_counter_plus_eight_execute [31:0] $end
$var wire 32 ^ program_counter_mux_1_out [31:0] $end
$var wire 1 _ program_counter_multiplexer_jump_memory $end
$var wire 1 ` program_counter_multiplexer_jump_execute $end
$var wire 1 a program_counter_multiplexer_jump_decode $end
$var wire 32 b program_counter_branch_decode [31:0] $end
$var wire 6 c op_writeback [5:0] $end
$var wire 6 d op_memory [5:0] $end
$var wire 6 e op_execute [5:0] $end
$var wire 6 f op [5:0] $end
$var wire 1 g no_sign_extend $end
$var wire 1 h memory_write_memory $end
$var wire 1 i memory_write_execute $end
$var wire 1 j memory_write_decode $end
$var wire 1 k memory_to_register_writeback $end
$var wire 1 l memory_to_register_memory $end
$var wire 1 m memory_to_register_execute $end
$var wire 1 n memory_to_register_decode $end
$var wire 32 o j_program_counter_memory [31:0] $end
$var wire 32 p j_program_counter_execute [31:0] $end
$var wire 32 q j_program_counter_decode [31:0] $end
$var wire 26 r j_offset [25:0] $end
$var wire 1 s j_instruction_memory $end
$var wire 1 t j_instruction_execute $end
$var wire 1 u j_instruction_decode $end
$var wire 32 v instruction_decode [31:0] $end
$var wire 32 w instr_address [31:0] $end
$var wire 16 x immediate [15:0] $end
$var wire 3 y forward_B_execute [2:0] $end
$var wire 1 z forward_B_decode $end
$var wire 3 { forward_A_execute [2:0] $end
$var wire 1 | forward_A_decode $end
$var wire 1 } flush_execute_register $end
$var wire 1 ~ equal_decode $end
$var wire 32 !" comparator_2 [31:0] $end
$var wire 32 "" comparator_1 [31:0] $end
$var wire 4 #" byteenable_writeback [3:0] $end
$var wire 1 $" branch_decode $end
$var wire 1 * active $end
$var wire 5 %" Rt_execute [4:0] $end
$var wire 5 &" Rt_decode [4:0] $end
$var wire 5 '" Rs_execute [4:0] $end
$var wire 5 (" Rs_decode [4:0] $end
$var wire 5 )" Rd_execute [4:0] $end
$var wire 5 *" Rd_decode [4:0] $end
$var wire 1 +" LO_register_write_writeback $end
$var wire 1 ," LO_register_write_memory $end
$var wire 1 -" LO_register_write_execute $end
$var wire 1 ." LO_register_write_decode $end
$var wire 1 /" HI_register_write_writeback $end
$var wire 1 0" HI_register_write_memory $end
$var wire 1 1" HI_register_write_execute $end
$var wire 1 2" HI_register_write_decode $end
$var wire 1 3" HALT_writeback $end
$var wire 1 4" HALT_memory $end
$var wire 1 5" HALT_fetch $end
$var wire 1 6" HALT_execute $end
$var wire 1 7" HALT_decode $end
$var wire 2 8" ALU_src_B_execute [1:0] $end
$var wire 2 9" ALU_src_B_decode [1:0] $end
$var wire 1 :" ALU_src_A_execute $end
$var wire 1 ;" ALU_src_A_decode $end
$var wire 32 <" ALU_output_writeback [31:0] $end
$var wire 32 =" ALU_output_memory_resolved [31:0] $end
$var wire 32 >" ALU_output_memory [31:0] $end
$var wire 32 ?" ALU_output_execute [31:0] $end
$var wire 6 @" ALU_function_execute [5:0] $end
$var wire 6 A" ALU_function_decode [5:0] $end
$var wire 1 B" ALU_STALL $end
$var wire 32 C" ALU_LO_output_writeback [31:0] $end
$var wire 32 D" ALU_LO_output_memory [31:0] $end
$var wire 32 E" ALU_LO_output_execute [31:0] $end
$var wire 32 F" ALU_HI_output_writeback [31:0] $end
$var wire 32 G" ALU_HI_output_memory [31:0] $end
$var wire 32 H" ALU_HI_output_execute [31:0] $end
$var reg 32 I" address [31:0] $end
$var reg 4 J" byteenable_memory [3:0] $end
$var reg 4 K" byteenable_memory_next [3:0] $end
$var reg 1 L" clk_enable $end
$var reg 1 M" en_out $end
$var reg 3 N" fetch_state [2:0] $end
$var reg 3 O" fetch_state_next [2:0] $end
$var reg 32 P" instruction_fetch [31:0] $end
$var reg 32 Q" instruction_fetch_next [31:0] $end
$var reg 1 ' read $end
$var reg 32 R" read_data_memory [31:0] $end
$var reg 32 S" read_data_memory_next [31:0] $end
$var reg 1 T" read_enable $end
$var reg 32 U" register_v0 [31:0] $end
$var reg 1 " write $end
$scope module adder_decode $end
$var wire 32 V" a [31:0] $end
$var wire 32 W" z [31:0] $end
$var wire 32 X" b [31:0] $end
$upscope $end
$scope module alu $end
$var wire 1 B" ALU_STALL $end
$var wire 1 + clk $end
$var wire 3 Y" fetch_state [2:0] $end
$var wire 1 , reset $end
$var wire 1 Z" temp_mul_STALL $end
$var wire 1 [" temp_div_STALL $end
$var wire 32 \" temp_LO_mult [31:0] $end
$var wire 32 ]" temp_LO_div [31:0] $end
$var wire 32 ^" temp_HI_mult [31:0] $end
$var wire 32 _" temp_HI_div [31:0] $end
$var wire 5 `" shift_amount [4:0] $end
$var wire 32 a" input_2 [31:0] $end
$var wire 32 b" input_1 [31:0] $end
$var wire 6 c" ALU_operation [5:0] $end
$var reg 32 d" ALU_HI_output [31:0] $end
$var reg 32 e" ALU_LO_output [31:0] $end
$var reg 32 f" ALU_output [31:0] $end
$var reg 2 g" HI_LO_driven_by [1:0] $end
$var reg 1 h" div_signedctrl $end
$var reg 1 i" div_start $end
$var reg 1 j" div_start_enable $end
$var reg 1 k" mult_signedctrl $end
$var reg 1 l" mult_start $end
$var reg 1 m" mult_start_enable $end
$scope module div $end
$var wire 1 + clk $end
$var wire 1 , reset $end
$var wire 1 h" signedctrl $end
$var wire 1 n" start $end
$var wire 32 o" output_2 [31:0] $end
$var wire 32 p" input_2 [31:0] $end
$var wire 32 q" input_1 [31:0] $end
$var reg 32 r" div1 [31:0] $end
$var reg 32 s" div2 [31:0] $end
$var reg 1 t" dividendsign $end
$var reg 64 u" divisor [63:0] $end
$var reg 6 v" n [5:0] $end
$var reg 32 w" output_1 [31:0] $end
$var reg 64 x" output_2_temp [63:0] $end
$var reg 32 y" quotient [31:0] $end
$var reg 64 z" remainder [63:0] $end
$var reg 1 {" signdiff $end
$var reg 1 [" stall $end
$var reg 64 |" temp1 [63:0] $end
$var reg 64 }" temp2 [63:0] $end
$var reg 64 ~" tempsub [63:0] $end
$upscope $end
$scope module mult $end
$var wire 1 + clk $end
$var wire 1 , reset $end
$var wire 1 !# start $end
$var wire 32 "# input_2 [31:0] $end
$var wire 32 ## input_1 [31:0] $end
$var reg 32 $# A [31:0] $end
$var reg 32 %# M [31:0] $end
$var reg 32 &# Q [31:0] $end
$var reg 32 '# add [31:0] $end
$var reg 32 (# hi_output [31:0] $end
$var reg 32 )# lo_output [31:0] $end
$var reg 6 *# n [5:0] $end
$var reg 1 +# q0 $end
$var reg 1 Z" stall $end
$var reg 32 ,# sub [31:0] $end
$var reg 32 -# tempadd [31:0] $end
$var reg 32 .# tempsub [31:0] $end
$upscope $end
$upscope $end
$scope module alu_input_mux $end
$var wire 32 /# sign_imm_execute [31:0] $end
$var wire 5 0# sa_execute [4:0] $end
$var wire 32 1# result_writeback [31:0] $end
$var wire 32 2# read_data_2_reg [31:0] $end
$var wire 32 3# read_data_1_reg [31:0] $end
$var wire 32 4# program_counter_plus_eight_execute [31:0] $end
$var wire 3 5# forward_two_execute [2:0] $end
$var wire 3 6# forward_one_execute [2:0] $end
$var wire 32 7# LO_result_writeback [31:0] $end
$var wire 32 8# HI_result_writeback [31:0] $end
$var wire 2 9# ALU_src_B_execute [1:0] $end
$var wire 1 :" ALU_src_A_execute $end
$var wire 32 :# ALU_output_memory [31:0] $end
$var wire 32 ;# ALU_LO_output_memory [31:0] $end
$var wire 32 <# ALU_HI_output_memory [31:0] $end
$var reg 32 =# src_A_ALU_execute [31:0] $end
$var reg 32 ># src_B_ALU_execute [31:0] $end
$var reg 32 ?# src_mux_input_0_A [31:0] $end
$var reg 32 @# src_mux_input_0_B [31:0] $end
$var reg 32 A# write_data_execute [31:0] $end
$upscope $end
$scope module control_unit $end
$var wire 32 B# instruction [31:0] $end
$var reg 6 C# ALU_function [5:0] $end
$var reg 1 ;" ALU_src_A $end
$var reg 2 D# ALU_src_B [1:0] $end
$var reg 1 2" HI_register_write $end
$var reg 1 ." LO_register_write $end
$var reg 1 $" branch $end
$var reg 6 E# funct [5:0] $end
$var reg 1 u j_instruction $end
$var reg 1 n memory_to_register $end
$var reg 1 j memory_write $end
$var reg 1 g no_sign_extend $end
$var reg 6 F# op [5:0] $end
$var reg 1 a program_counter_multiplexer_jump $end
$var reg 2 G# register_destination [1:0] $end
$var reg 1 L register_write $end
$var reg 5 H# rt [4:0] $end
$var reg 1 8 using_HI_LO $end
$upscope $end
$scope module decode_execute_register $end
$var wire 6 I# ALU_function_decode [5:0] $end
$var wire 1 ;" ALU_src_A_decode $end
$var wire 2 J# ALU_src_B_decode [1:0] $end
$var wire 1 2" HI_register_write_decode $end
$var wire 1 ." LO_register_write_decode $end
$var wire 5 K# Rd_decode [4:0] $end
$var wire 5 L# Rs_decode [4:0] $end
$var wire 5 M# Rt_decode [4:0] $end
$var wire 1 / clk $end
$var wire 1 u j_instruction_decode $end
$var wire 32 N# j_program_counter_decode [31:0] $end
$var wire 1 n memory_to_register_decode $end
$var wire 1 j memory_write_decode $end
$var wire 6 O# op_decode [5:0] $end
$var wire 1 a program_counter_multiplexer_jump_decode $end
$var wire 2 P# register_destination_decode [1:0] $end
$var wire 1 L register_write_decode $end
$var wire 1 , reset $end
$var wire 5 Q# sa_decode [4:0] $end
$var wire 32 R# sign_imm_decode [31:0] $end
$var wire 32 S# src_A_decode [31:0] $end
$var wire 32 T# src_B_decode [31:0] $end
$var wire 1 8 using_HI_LO_decode $end
$var wire 32 U# program_counter_plus_four_decode [31:0] $end
$var wire 1 } clear $end
$var wire 1 7" HALT_decode $end
$var reg 6 V# ALU_function_execute [5:0] $end
$var reg 1 :" ALU_src_A_execute $end
$var reg 2 W# ALU_src_B_execute [1:0] $end
$var reg 1 6" HALT_execute $end
$var reg 1 1" HI_register_write_execute $end
$var reg 1 -" LO_register_write_execute $end
$var reg 5 X# Rd_execute [4:0] $end
$var reg 5 Y# Rs_execute [4:0] $end
$var reg 5 Z# Rt_execute [4:0] $end
$var reg 1 t j_instruction_execute $end
$var reg 32 [# j_program_counter_execute [31:0] $end
$var reg 1 m memory_to_register_execute $end
$var reg 1 i memory_write_execute $end
$var reg 6 \# op_execute [5:0] $end
$var reg 1 ` program_counter_multiplexer_jump_execute $end
$var reg 32 ]# program_counter_plus_four_execute [31:0] $end
$var reg 2 ^# register_destination_execute [1:0] $end
$var reg 1 K register_write_execute $end
$var reg 5 _# sa_execute [4:0] $end
$var reg 32 `# sign_imm_execute [31:0] $end
$var reg 32 a# src_A_execute [31:0] $end
$var reg 32 b# src_B_execute [31:0] $end
$var reg 1 7 using_HI_LO_execute $end
$upscope $end
$scope module execute_memory_register $end
$var wire 32 c# ALU_HI_output_execute [31:0] $end
$var wire 32 d# ALU_LO_output_execute [31:0] $end
$var wire 32 e# ALU_output_execute [31:0] $end
$var wire 1 6" HALT_execute $end
$var wire 1 1" HI_register_write_execute $end
$var wire 1 -" LO_register_write_execute $end
$var wire 1 / clk $end
$var wire 1 t j_instruction_execute $end
$var wire 32 f# j_program_counter_execute [31:0] $end
$var wire 1 m memory_to_register_execute $end
$var wire 1 i memory_write_execute $end
$var wire 6 g# op_execute [5:0] $end
$var wire 1 ` program_counter_multiplexer_jump_execute $end
$var wire 1 K register_write_execute $end
$var wire 1 , reset $end
$var wire 32 h# src_A_ALU_execute [31:0] $end
$var wire 32 i# write_data_execute [31:0] $end
$var wire 5 j# write_register_execute [4:0] $end
$var reg 32 k# ALU_HI_output_memory [31:0] $end
$var reg 32 l# ALU_LO_output_memory [31:0] $end
$var reg 32 m# ALU_output_memory [31:0] $end
$var reg 1 4" HALT_memory $end
$var reg 1 0" HI_register_write_memory $end
$var reg 1 ," LO_register_write_memory $end
$var reg 1 s j_instruction_memory $end
$var reg 32 n# j_program_counter_memory [31:0] $end
$var reg 1 l memory_to_register_memory $end
$var reg 1 h memory_write_memory $end
$var reg 6 o# op_memory [5:0] $end
$var reg 1 _ program_counter_multiplexer_jump_memory $end
$var reg 1 J register_write_memory $end
$var reg 32 p# src_A_ALU_memory [31:0] $end
$var reg 32 q# write_data_memory [31:0] $end
$var reg 5 r# write_register_memory [4:0] $end
$upscope $end
$scope module fetch_decode_register $end
$var wire 1 / clk $end
$var wire 32 s# instruction_fetch [31:0] $end
$var wire 1 , reset $end
$var wire 32 t# program_counter_plus_four_fetch [31:0] $end
$var wire 1 : enable $end
$var wire 1 5" HALT_fetch $end
$var reg 1 7" HALT_decode $end
$var reg 32 u# instruction_decode [31:0] $end
$var reg 32 v# program_counter_plus_four_decode [31:0] $end
$upscope $end
$scope module hazard_unit $end
$var wire 1 0" HI_register_write_memory $end
$var wire 1 ," LO_register_write_memory $end
$var wire 5 w# Rs_decode [4:0] $end
$var wire 5 x# Rs_execute [4:0] $end
$var wire 5 y# Rt_decode [4:0] $end
$var wire 5 z# Rt_execute [4:0] $end
$var wire 1 $" branch_decode $end
$var wire 1 m memory_to_register_execute $end
$var wire 1 l memory_to_register_memory $end
$var wire 1 _ program_counter_multiplexer_jump_memory $end
$var wire 1 K register_write_execute $end
$var wire 1 J register_write_memory $end
$var wire 1 7 using_HI_LO_execute $end
$var wire 5 {# write_register_memory [4:0] $end
$var wire 5 |# write_register_writeback [4:0] $end
$var wire 5 }# write_register_execute [4:0] $end
$var wire 1 I register_write_writeback $end
$var wire 1 +" LO_register_write_writeback $end
$var wire 1 /" HI_register_write_writeback $end
$var reg 1 ~# branchstall $end
$var reg 1 } flush_execute_register $end
$var reg 1 | forward_register_file_output_A_decode $end
$var reg 3 !$ forward_register_file_output_A_execute [2:0] $end
$var reg 1 z forward_register_file_output_B_decode $end
$var reg 3 "$ forward_register_file_output_B_execute [2:0] $end
$var reg 1 #$ lwstall $end
$var reg 1 : stall_decode $end
$var reg 1 9 stall_fetch $end
$upscope $end
$scope module memory_filter $end
$var wire 1 , reset $end
$var wire 32 $$ src_A_writeback [31:0] $end
$var wire 32 %$ read_data_writeback [31:0] $end
$var wire 6 &$ op_writeback [5:0] $end
$var wire 4 '$ byteenable_writeback [3:0] $end
$var reg 32 ($ filtered_output_writeback [31:0] $end
$upscope $end
$scope module memory_writeback_register $end
$var wire 32 )$ ALU_HI_output_memory [31:0] $end
$var wire 32 *$ ALU_LO_output_memory [31:0] $end
$var wire 32 +$ ALU_output_memory [31:0] $end
$var wire 1 4" HALT_memory $end
$var wire 1 0" HI_register_write_memory $end
$var wire 1 ," LO_register_write_memory $end
$var wire 4 ,$ byteenable_memory [3:0] $end
$var wire 1 / clk $end
$var wire 1 l memory_to_register_memory $end
$var wire 6 -$ op_memory [5:0] $end
$var wire 32 .$ read_data_memory [31:0] $end
$var wire 1 J register_write_memory $end
$var wire 1 , reset $end
$var wire 32 /$ src_A_ALU_memory [31:0] $end
$var wire 5 0$ write_register_memory [4:0] $end
$var reg 32 1$ ALU_HI_output_writeback [31:0] $end
$var reg 32 2$ ALU_LO_output_writeback [31:0] $end
$var reg 32 3$ ALU_output_writeback [31:0] $end
$var reg 1 3" HALT_writeback $end
$var reg 1 /" HI_register_write_writeback $end
$var reg 1 +" LO_register_write_writeback $end
$var reg 4 4$ byteenable_writeback [3:0] $end
$var reg 1 k memory_to_register_writeback $end
$var reg 6 5$ op_writeback [5:0] $end
$var reg 32 6$ read_data_writeback [31:0] $end
$var reg 1 I register_write_writeback $end
$var reg 32 7$ src_A_ALU_writeback [31:0] $end
$var reg 5 8$ write_register_writeback [4:0] $end
$upscope $end
$scope module pc $end
$var wire 1 / clk $end
$var wire 1 9 enable $end
$var wire 1 , reset $end
$var wire 32 9$ address_input [31:0] $end
$var reg 32 :$ address_output [31:0] $end
$var reg 1 5" halt $end
$upscope $end
$scope module plus_four_adder $end
$var wire 32 ;$ a [31:0] $end
$var wire 32 <$ b [31:0] $end
$var wire 32 =$ z [31:0] $end
$upscope $end
$scope module plus_four_adder_execute $end
$var wire 32 >$ a [31:0] $end
$var wire 32 ?$ b [31:0] $end
$var wire 32 @$ z [31:0] $end
$upscope $end
$scope module program_counter_multiplexer $end
$var wire 1 0 control $end
$var wire 32 A$ input_0 [31:0] $end
$var wire 32 B$ input_1 [31:0] $end
$var wire 32 C$ resolved [31:0] $end
$upscope $end
$scope module program_counter_multiplexer_two $end
$var wire 1 _ control $end
$var wire 32 D$ input_0 [31:0] $end
$var wire 32 E$ input_1 [31:0] $end
$var wire 32 F$ resolved [31:0] $end
$upscope $end
$scope module reg_output_comparator $end
$var wire 32 G$ a [31:0] $end
$var wire 32 H$ b [31:0] $end
$var wire 6 I$ op [5:0] $end
$var wire 5 J$ rt [4:0] $end
$var reg 1 ~ c $end
$upscope $end
$scope module register_file $end
$var wire 32 K$ HI_write_data [31:0] $end
$var wire 1 /" HI_write_enable $end
$var wire 32 L$ LO_write_data [31:0] $end
$var wire 1 +" LO_write_enable $end
$var wire 1 / clk $end
$var wire 1 M$ modified_write_clk $end
$var wire 1 N$ pipelined $end
$var wire 5 O$ read_address_1 [4:0] $end
$var wire 5 P$ read_address_2 [4:0] $end
$var wire 32 Q$ read_data_1 [31:0] $end
$var wire 32 R$ read_data_2 [31:0] $end
$var wire 32 S$ read_data_HI [31:0] $end
$var wire 32 T$ read_data_LO [31:0] $end
$var wire 32 U$ read_register_2 [31:0] $end
$var wire 32 V$ registers_out_4_DELETE_ME [31:0] $end
$var wire 32 W$ registers_out_5_DELETE_ME [31:0] $end
$var wire 32 X$ registers_out_6_DELETE_ME [31:0] $end
$var wire 1 , reset $end
$var wire 5 Y$ write_address [4:0] $end
$var wire 1 I write_enable $end
$var wire 32 Z$ write_data [31:0] $end
$var reg 32 [$ HI_reg [31:0] $end
$var reg 32 \$ LO_reg [31:0] $end
$scope begin $ivl_for_loop0 $end
$var integer 32 ]$ i [31:0] $end
$upscope $end
$upscope $end
$scope module write_register_execute_mux $end
$var wire 2 ^$ control [1:0] $end
$var wire 5 _$ input_0 [4:0] $end
$var wire 5 `$ input_1 [4:0] $end
$var wire 5 a$ input_2 [4:0] $end
$var wire 5 b$ input_3 [4:0] $end
$var reg 5 c$ resolved [4:0] $end
$upscope $end
$scope module writeback_mux $end
$var wire 1 k control $end
$var wire 32 d$ input_0 [31:0] $end
$var wire 32 e$ input_1 [31:0] $end
$var wire 32 f$ resolved [31:0] $end
$upscope $end
$upscope $end
$scope module raminst $end
$var wire 32 g$ address [31:0] $end
$var wire 4 h$ byteenable [3:0] $end
$var wire 1 + clk $end
$var wire 1 ' read $end
$var wire 1 " write $end
$var wire 32 i$ writedata [31:0] $end
$var reg 8 j$ a [7:0] $end
$var reg 8 k$ b [7:0] $end
$var reg 8 l$ c [7:0] $end
$var reg 8 m$ d [7:0] $end
$var reg 32 n$ readdata [31:0] $end
$var reg 32 o$ test [31:0] $end
$var reg 32 p$ val [31:0] $end
$var reg 1 # waitrequest $end
$var reg 32 q$ writedata_mod [31:0] $end
$scope begin $unm_blk_35 $end
$var integer 32 r$ i [31:0] $end
$var integer 32 s$ j [31:0] $end
$upscope $end
$upscope $end
$upscope $end
$enddefinitions $end
#0
$dumpvars
b100000000000000000000 s$
b11000000000000000000000000000000 r$
bx q$
bx p$
bx o$
bx n$
bx m$
bx l$
bx k$
bx j$
bx i$
bx h$
b0 g$
bx f$
bx e$
bx d$
bx c$
b0 b$
b11111 a$
bx `$
bx _$
bx ^$
b0 ]$
bx \$
bx [$
bx Z$
bx Y$
bx X$
bx W$
bx V$
bx U$
bx T$
bx S$
bx R$
bx Q$
bx P$
bx O$
1N$
1M$
bx L$
bx K$
bx J$
bx I$
bx H$
bx G$
bx F$
bx E$
bx D$
bx C$
bx B$
bx A$
bx @$
bx ?$
b100 >$
bx =$
b100 <$
bx ;$
bx :$
bx 9$
bx 8$
bx 7$
bx 6$
bx 5$
bx 4$
bx 3$
bx 2$
bx 1$
bx 0$
bx /$
bx .$
bx -$
bx ,$
bx +$
bx *$
bx )$
bx ($
bx '$
bx &$
bx %$
bx $$
x#$
b0 "$
b0 !$
x~#
bx }#
bx |#
bx {#
bx z#
bx y#
bx x#
bx w#
bx v#
bx u#
bx t#
bx s#
bx r#
bx q#
bx p#
bx o#
bx n#
bx m#
bx l#
bx k#
bx j#
bx i#
b0 h#
bx g#
bx f#
bx e#
bx d#
bx c#
bx b#
bx a#
bx `#
bx _#
bx ^#
bx ]#
bx \#
bx [#
bx Z#
bx Y#
bx X#
bx W#
bx V#
bx U#
bx T#
bx S#
bx R#
bx Q#
bx P#
bx O#
bx00 N#
bx M#
bx L#
bx K#
bx J#
bx I#
bx H#
bx G#
bx F#
bx E#
bx D#
bx C#
bx B#
bx A#
bx @#
bx ?#
b0 >#
b0 =#
bx <#
bx ;#
bx :#
bx 9#
bx 8#
bx 7#
b0 6#
b0 5#
bx 4#
bx 3#
bx 2#
bx 1#
bx 0#
bx /#
bx .#
bx -#
bx ,#
x+#
bx *#
bx )#
bx (#
bx '#
bx &#
bx %#
bx $#
b0 ##
b0 "#
0!#
bx ~"
bx }"
bx |"
x{"
bx z"
bx y"
bx x"
bx w"
bx v"
bx u"
xt"
bx s"
bx r"
b0 q"
b0 p"
bx o"
0n"
0m"
0l"
0k"
0j"
0i"
0h"
b0 g"
bx f"
bx e"
bx d"
bx c"
b0 b"
b0 a"
b0 `"
bx _"
bx ^"
bx ]"
bx \"
x["
xZ"
bx Y"
bx X"
bx W"
bx00 V"
bx U"
xT"
bx S"
bx R"
bx Q"
bx P"
bx O"
bx N"
xM"
xL"
b0 K"
bx J"
b0 I"
bx H"
bx G"
bx F"
bx E"
bx D"
bx C"
xB"
bx A"
bx @"
bx ?"
bx >"
bx ="
bx <"
0;"
x:"
bx 9"
bx 8"
x7"
x6"
x5"
x4"
x3"
x2"
x1"
x0"
x/"
x."
x-"
x,"
x+"
bx *"
bx )"
bx ("
bx '"
bx &"
bx %"
x$"
bx #"
bx ""
bx !"
0~
x}
x|
b0 {
xz
b0 y
bx x
bx w
bx v
xu
xt
xs
bx r
bx00 q
bx p
bx o
xn
xm
xl
xk
xj
xi
xh
xg
bx f
bx e
bx d
bx c
bx b
xa
x`
x_
bx ^
bx ]
bx \
bx [
bx Z
bx Y
bx X
bx W
bx V
bx U
bx T
bx S
bx R
bx Q
bx P
bx O
bx N
bx M
xL
xK
xJ
xI
bx H
bx G
bx F
bx00 E
bx D
bx C
b0 B
bx A
bx @
bx ?
bx >
b0 =
bx <
bx ;
x:
x9
x8
x7
bx 6
bx 5
bx 4
bx 3
bx 2
bx 1
00
0/
bx .
bx -
0,
0+
x*
b0 )
bx (
x'
bx &
bx %
bx $
0#
x"
bx !
$end
#1
b10111111110000000000000000000000 b
b10111111110000000000000000000000 W"
b10111111110000000000000000000000 B$
b0 E
b0 V"
b0 <
b0 T#
b0 ?
b0 S#
b0 D
b0 R#
b0 _"
b0 o"
0B"
b0 H
b0 1#
b0 Z$
b0 f$
b0 ="
b0 E$
b0 !"
b0 H$
b0 ""
b0 G$
b10111111110000000000000000000100 Y
b10111111110000000000000000000100 9$
b10111111110000000000000000000100 F$
b0 G
b0 Q#
b0 r
b0 x
b0 *"
b0 K#
b0 &"
b0 M#
b0 y#
b0 J$
b0 P
b0 R$
b0 W
b0 P$
b0 ("
b0 L#
b0 w#
b0 Q
b0 Q$
b0 X
b0 O$
b0 f
b0 O#
b0 I$
b10110000000000000000000000000000 q
b10110000000000000000000000000000 N#
b10111111110000000000000000000100 ^
b10111111110000000000000000000100 C$
b10111111110000000000000000000100 D$
b0 q$
b0 m$
b0 l$
b0 k$
b0 j$
0g
08
0u
0a
b0 A"
b0 C#
b0 I#
0."
02"
0$"
b1 S
b1 G#
b1 P#
1;"
b0 9"
b0 D#
b0 J#
0j
0n
1L
b0 E#
b0 H#
b0 F#
b0 '#
b0 ,#
0t"
0{"
b0 ~"
b0 }"
b0 |"
0}
0:
09
0~#
0z
0|
b0 %
b0 U"
0'
b0 S"
b0 Q"
0L"
0"
0T"
b1 O"
b0 x"
b0 ]"
b0 w"
b0 v"
b0 u"
b0 y"
b0 z"
0["
0Z"
b0 *#
0+#
b0 %#
b0 &#
b0 $#
b0 V
b0 %$
b0 6$
b0 @
b0 $$
b0 7$
b0 #"
b0 '$
b0 4$
b0 c
b0 &$
b0 5$
1*
03"
b0 C"
b0 7#
b0 2$
b0 L$
b0 F"
b0 8#
b0 1$
b0 K$
b0 2
b0 |#
b0 8$
b0 Y$
b0 <"
b0 3$
b0 d$
0+"
0/"
0k
0I
b0 d
b0 o#
b0 -$
04"
b0 o
b0 n#
0s
b0 3
b0 r#
b0 {#
b0 0$
b0 !
b0 1
b0 i$
b0 5
b0 q#
b0 D"
b0 ;#
b0 l#
b0 *$
b0 G"
b0 <#
b0 k#
b0 )$
b0 .
b0 >"
b0 :#
b0 m#
b0 +$
0_
0,"
00"
0h
0l
0J
06"
07"
b0 v
b0 B#
b0 u#
b10111111110000000000000000000000 \
b10111111110000000000000000000000 X"
b10111111110000000000000000000000 U#
b10111111110000000000000000000000 v#
05"
b10111111110000000000000000000100 Z
b10111111110000000000000000000100 t#
b10111111110000000000000000000100 =$
b10111111110000000000000000000100 A$
b10111111110000000000000000000000 w
b10111111110000000000000000000000 :$
b10111111110000000000000000000000 ;$
b0 O
b0 S$
b0 [$
b0 N
b0 T$
b0 \$
b0 X$
b0 W$
b0 V$
b0 M
b0 U$
b0 R"
b0 .$
b0 P"
b0 s#
b111 N"
b111 Y"
0#$
b0 4
b0 j#
b0 }#
b0 c$
b0 6
b0 A#
b0 i#
b0 @#
b0 ?#
b0 ?"
b0 f"
b0 e#
b0 U
b0 ($
b0 e$
b100000 ]$
b0 F
b0 0#
b0 _#
b0 ;
b0 2#
b0 b#
b0 >
b0 3#
b0 a#
b0 p
b0 [#
b0 f#
b100 ]
b100 4#
b100 @$
b0 [
b0 ]#
b0 ?$
b0 e
b0 \#
b0 g#
07
0t
0`
b0 C
b0 /#
b0 `#
b0 '"
b0 Y#
b0 x#
b0 )"
b0 X#
b0 `$
b0 %"
b0 Z#
b0 z#
b0 _$
b0 @"
b0 c"
b0 V#
0-"
01"
b0 R
b0 ^#
b0 ^$
b0 8"
b0 9#
b0 W#
0:"
0i
0m
0K
b0 A
b0 p#
b0 /$
1,
b0 (
b0 -
b0 h$
b0 J"
b0 ,$
xM$
x/
1+
#2
b100000 ]$
1M$
0/
1;"
b0 ?"
b0 f"
b0 e#
0M"
0+
#3
0,
1;"
b0 ?"
b0 f"
b0 e#
1+
#4
1;"
b0 ?"
b0 f"
b0 e#
0+
#5
1#
b10111111110000000000000000000000 )
b10111111110000000000000000000000 I"
b10111111110000000000000000000000 g$
1'
bx Q"
1T"
b1 O"
b1 N"
b1 Y"
1;"
b0 ?"
b0 f"
b0 e#
1+
#6
1;"
b0 ?"
b0 f"
b0 e#
0+
#7
b111100000010000010000000000000 Q"
b10 O"
0#
b111100000010000010000000000000 &
b111100000010000010000000000000 T
b111100000010000010000000000000 n$
bx P"
bx s#
1;"
b0 ?"
b0 f"
b0 e#
1+
#8
1;"
b0 ?"
b0 f"
b0 e#
0+
